EESchema Schematic File Version 2
LIBS:power
LIBS:device
LIBS:transistors
LIBS:conn
LIBS:linear
LIBS:regul
LIBS:74xx
LIBS:cmos4000
LIBS:adc-dac
LIBS:memory
LIBS:xilinx
LIBS:microcontrollers
LIBS:dsp
LIBS:microchip
LIBS:analog_switches
LIBS:motorola
LIBS:texas
LIBS:intel
LIBS:audio
LIBS:interface
LIBS:digital-audio
LIBS:philips
LIBS:display
LIBS:cypress
LIBS:siliconi
LIBS:opto
LIBS:atmel
LIBS:contrib
LIBS:valves
LIBS:drifter
LIBS:globalstar
LIBS:gps_mod
LIBS:rf_switch
LIBS:proto_brd2-cache
EELAYER 25 0
EELAYER END
$Descr A4 11693 8268
encoding utf-8
Sheet 1 1
Title ""
Date ""
Rev ""
Comp ""
Comment1 ""
Comment2 ""
Comment3 ""
Comment4 ""
$EndDescr
$Comp
L ATMEGA168A-A IC1
U 1 1 577E9E67
P 3650 3800
F 0 "IC1" H 3300 5050 50  0000 L BNN
F 1 "ATMEGA168PB" H 4050 2400 50  0000 L BNN
F 2 "Housings_QFP:TQFP-32_7x7mm_Pitch0.8mm" H 3650 3800 50  0001 C CIN
F 3 "" H 3650 3800 50  0000 C CNN
	1    3650 3800
	1    0    0    -1  
$EndComp
$Comp
L STX3 MOD2
U 1 1 577E9F1D
P 9350 5000
F 0 "MOD2" H 9250 4350 60  0000 C CNN
F 1 "STX3" H 9750 4350 60  0000 C CNN
F 2 "globalstar:STX3" H 10450 5100 60  0001 C CNN
F 3 "" H 10450 5100 60  0000 C CNN
F 4 "Satellite modem" H 9500 5650 60  0000 C CNN "Function"
	1    9350 5000
	1    0    0    -1  
$EndComp
$Comp
L LM4132 U3
U 1 1 577EA18C
P 5700 2000
F 0 "U3" H 5500 2300 60  0000 C CNN
F 1 "LM4132" H 5700 2150 60  0000 C CNN
F 2 "TO_SOT_Packages_SMD:SOT-23-5" H 5700 2000 60  0001 C CNN
F 3 "" H 5700 2000 60  0000 C CNN
	1    5700 2000
	0    -1   -1   0   
$EndComp
$Comp
L LMT70YFQR U1
U 1 1 577EA456
P 2800 5700
F 0 "U1" H 3100 5850 60  0000 C CNN
F 1 "LMT70YFQR" H 2750 5800 60  0000 C CNN
F 2 "lib:lmt70-conn" H 2800 5700 60  0001 C CNN
F 3 "" H 2800 5700 60  0000 C CNN
	1    2800 5700
	1    0    0    -1  
$EndComp
$Comp
L NTR4003N Q1
U 1 1 57850E2D
P 8400 6000
F 0 "Q1" H 8600 6200 60  0000 C CNN
F 1 "NTR4003N" H 8400 6000 60  0000 C CNN
F 2 "TO_SOT_Packages_SMD:SOT-23" H 8400 6000 60  0001 C CNN
F 3 "" H 8400 6000 60  0000 C CNN
	1    8400 6000
	0    1    1    0   
$EndComp
$Comp
L GND #PWR01
U 1 1 578511A5
P 8000 6150
F 0 "#PWR01" H 8000 5900 50  0001 C CNN
F 1 "GND" H 8000 6000 50  0000 C CNN
F 2 "" H 8000 6150 50  0000 C CNN
F 3 "" H 8000 6150 50  0000 C CNN
	1    8000 6150
	1    0    0    -1  
$EndComp
$Comp
L R R7
U 1 1 57852B33
P 8000 6000
F 0 "R7" V 8080 6000 50  0000 C CNN
F 1 "4.7k" V 8000 6000 50  0000 C CNN
F 2 "Resistors_SMD:R_1206" V 7930 6000 50  0001 C CNN
F 3 "" H 8000 6000 50  0000 C CNN
	1    8000 6000
	1    0    0    -1  
$EndComp
$Comp
L VCC #PWR02
U 1 1 57853092
P 2750 2400
F 0 "#PWR02" H 2750 2250 50  0001 C CNN
F 1 "VCC" H 2750 2550 50  0000 C CNN
F 2 "" H 2750 2400 50  0000 C CNN
F 3 "" H 2750 2400 50  0000 C CNN
	1    2750 2400
	1    0    0    -1  
$EndComp
$Comp
L GND #PWR03
U 1 1 57851B09
P 8000 2100
F 0 "#PWR03" H 8000 1850 50  0001 C CNN
F 1 "GND" H 8000 1950 50  0000 C CNN
F 2 "" H 8000 2100 50  0000 C CNN
F 3 "" H 8000 2100 50  0000 C CNN
	1    8000 2100
	1    0    0    -1  
$EndComp
$Comp
L R R6
U 1 1 578528BD
P 8000 1950
F 0 "R6" V 8080 1950 50  0000 C CNN
F 1 "4.7k" V 8000 1950 50  0000 C CNN
F 2 "Resistors_SMD:R_1206" V 7930 1950 50  0001 C CNN
F 3 "" H 8000 1950 50  0000 C CNN
	1    8000 1950
	1    0    0    -1  
$EndComp
$Comp
L NTR4003N Q2
U 1 1 578518A9
P 8450 1950
F 0 "Q2" H 8650 2150 60  0000 C CNN
F 1 "NTR4003N" H 8450 1950 60  0000 C CNN
F 2 "TO_SOT_Packages_SMD:SOT-23" H 8450 1950 60  0001 C CNN
F 3 "" H 8450 1950 60  0000 C CNN
	1    8450 1950
	0    1    1    0   
$EndComp
NoConn ~ 10050 3000
$Comp
L VCC #PWR04
U 1 1 57855D90
P 8900 5550
F 0 "#PWR04" H 8900 5400 50  0001 C CNN
F 1 "VCC" H 8900 5700 50  0000 C CNN
F 2 "" H 8900 5550 50  0000 C CNN
F 3 "" H 8900 5550 50  0000 C CNN
	1    8900 5550
	0    -1   -1   0   
$EndComp
$Comp
L HMC574AMS8E U4
U 1 1 57856248
P 7050 3800
F 0 "U4" H 7050 3350 60  0000 C CNN
F 1 "HMC574AMS8E" H 7050 3850 60  0000 C CNN
F 2 "Housings_SSOP:MSOP-8_3x3mm_Pitch0.65mm" H 7050 3800 60  0001 C CNN
F 3 "" H 7050 3800 60  0000 C CNN
	1    7050 3800
	-1   0    0    1   
$EndComp
$Comp
L GND #PWR05
U 1 1 57856741
P 6500 3600
F 0 "#PWR05" H 6500 3350 50  0001 C CNN
F 1 "GND" H 6500 3450 50  0000 C CNN
F 2 "" H 6500 3600 50  0000 C CNN
F 3 "" H 6500 3600 50  0000 C CNN
	1    6500 3600
	0    1    1    0   
$EndComp
$Comp
L GND #PWR06
U 1 1 5785762F
P 2750 5050
F 0 "#PWR06" H 2750 4800 50  0001 C CNN
F 1 "GND" H 2750 4900 50  0000 C CNN
F 2 "" H 2750 5050 50  0000 C CNN
F 3 "" H 2750 5050 50  0000 C CNN
	1    2750 5050
	1    0    0    -1  
$EndComp
$Comp
L LMT70YFQR U2
U 1 1 57857E64
P 2800 6100
F 0 "U2" H 3100 6250 60  0000 C CNN
F 1 "LMT70YFQR" H 2750 6200 60  0000 C CNN
F 2 "lib:lmt70-conn" H 2800 6100 60  0001 C CNN
F 3 "" H 2800 6100 60  0000 C CNN
	1    2800 6100
	1    0    0    -1  
$EndComp
$Comp
L GND #PWR07
U 1 1 57857FC4
P 2300 5700
F 0 "#PWR07" H 2300 5450 50  0001 C CNN
F 1 "GND" H 2300 5550 50  0000 C CNN
F 2 "" H 2300 5700 50  0000 C CNN
F 3 "" H 2300 5700 50  0000 C CNN
	1    2300 5700
	0    1    1    0   
$EndComp
$Comp
L GND #PWR08
U 1 1 57858033
P 2300 6100
F 0 "#PWR08" H 2300 5850 50  0001 C CNN
F 1 "GND" H 2300 5950 50  0000 C CNN
F 2 "" H 2300 6100 50  0000 C CNN
F 3 "" H 2300 6100 50  0000 C CNN
	1    2300 6100
	0    1    1    0   
$EndComp
$Comp
L GND #PWR09
U 1 1 578594DC
P 5650 2400
F 0 "#PWR09" H 5650 2150 50  0001 C CNN
F 1 "GND" H 5650 2250 50  0000 C CNN
F 2 "" H 5650 2400 50  0000 C CNN
F 3 "" H 5650 2400 50  0000 C CNN
	1    5650 2400
	1    0    0    -1  
$EndComp
$Comp
L VCC #PWR010
U 1 1 5785A60E
P 5650 1050
F 0 "#PWR010" H 5650 900 50  0001 C CNN
F 1 "VCC" H 5650 1200 50  0000 C CNN
F 2 "" H 5650 1050 50  0000 C CNN
F 3 "" H 5650 1050 50  0000 C CNN
	1    5650 1050
	1    0    0    -1  
$EndComp
$Comp
L Crystal_Small Y1
U 1 1 5785AA3F
P 6250 3400
F 0 "Y1" H 6250 3500 50  0000 C CNN
F 1 "Crystal_Small" H 6250 3300 50  0000 C CNN
F 2 "lib:abracon_crystal" H 6250 3400 50  0001 C CNN
F 3 "" H 6250 3400 50  0000 C CNN
	1    6250 3400
	0    1    1    0   
$EndComp
$Comp
L C C10
U 1 1 5785ABE1
P 5950 3500
F 0 "C10" V 6000 3550 50  0000 L CNN
F 1 "15pf" V 5900 3550 50  0000 L CNN
F 2 "Capacitors_SMD:C_1206" H 5988 3350 50  0001 C CNN
F 3 "" H 5950 3500 50  0000 C CNN
	1    5950 3500
	0    -1   -1   0   
$EndComp
$Comp
L C C9
U 1 1 5785AC97
P 5950 3300
F 0 "C9" V 5900 3350 50  0000 L CNN
F 1 "15pf" V 6000 3350 50  0000 L CNN
F 2 "Capacitors_SMD:C_1206" H 5988 3150 50  0001 C CNN
F 3 "" H 5950 3300 50  0000 C CNN
	1    5950 3300
	0    -1   -1   0   
$EndComp
$Comp
L MMA8452Q IC2
U 1 1 5785B94B
P 4900 1600
F 0 "IC2" H 4650 2350 60  0000 C CNN
F 1 "MMA8452Q" H 4950 1150 60  0000 C CNN
F 2 "Housings_DFN_QFN:QFN-16-1EP_4x4mm_Pitch0.65mm" H 5000 2350 60  0001 C CNN
F 3 "" H 4900 1600 60  0000 C CNN
F 4 "accelerometer" V 5100 1800 60  0000 C CNN "Function"
	1    4900 1600
	0    -1   -1   0   
$EndComp
$Comp
L C C14
U 1 1 5785C4E0
P 8000 3550
F 0 "C14" H 8025 3650 50  0000 L CNN
F 1 "100pF" H 8025 3450 50  0000 L CNN
F 2 "Capacitors_SMD:C_1206" H 8038 3400 50  0001 C CNN
F 3 "" H 8000 3550 50  0000 C CNN
	1    8000 3550
	0    -1   -1   0   
$EndComp
$Comp
L C C12
U 1 1 5785C86C
P 6500 3900
F 0 "C12" H 6525 4000 50  0000 L CNN
F 1 "100pF" H 6525 3800 50  0000 L CNN
F 2 "Capacitors_SMD:C_1206" H 6538 3750 50  0001 C CNN
F 3 "" H 6500 3900 50  0000 C CNN
	1    6500 3900
	1    0    0    -1  
$EndComp
$Comp
L PA45-1615-1575SA ANT2
U 1 1 5785C8CE
P 6950 4100
F 0 "ANT2" H 7400 4150 60  0000 C CNN
F 1 "PA45-1615-1575SA" H 6850 3950 60  0000 C CNN
F 2 "drifter:PA45-1615-1575SA" H 6450 4150 60  0001 C CNN
F 3 "" H 6950 4100 60  0000 C CNN
F 4 "antenna" H 7100 4250 60  0000 C CNN "Function"
	1    6950 4100
	1    0    0    -1  
$EndComp
$Comp
L PA45-1615-1575SA ANT1
U 1 1 5785C9AB
P 6800 2950
F 0 "ANT1" H 6650 3150 60  0000 C CNN
F 1 "PA45-1615-1575SA" H 7000 2800 60  0000 C CNN
F 2 "drifter:PA45-1615-1575SA" H 6300 3000 60  0001 C CNN
F 3 "" H 6800 2950 60  0000 C CNN
F 4 "antenna" H 6950 3100 60  0000 C CNN "Function"
	1    6800 2950
	1    0    0    -1  
$EndComp
$Comp
L C C11
U 1 1 5785CAA2
P 6450 3100
F 0 "C11" H 6475 3200 50  0000 L CNN
F 1 "100pF" H 6475 3000 50  0000 L CNN
F 2 "Capacitors_SMD:C_1206" H 6488 2950 50  0001 C CNN
F 3 "" H 6450 3100 50  0000 C CNN
	1    6450 3100
	1    0    0    -1  
$EndComp
$Comp
L VCC #PWR011
U 1 1 5785541A
P 8900 4650
F 0 "#PWR011" H 8900 4500 50  0001 C CNN
F 1 "VCC" H 8900 4800 50  0000 C CNN
F 2 "" H 8900 4650 50  0000 C CNN
F 3 "" H 8900 4650 50  0000 C CNN
	1    8900 4650
	0    -1   -1   0   
$EndComp
$Comp
L RXM-GPS-RM MOD1
U 1 1 577E9FBB
P 9100 3000
F 0 "MOD1" H 8900 2900 60  0000 C CNN
F 1 "RXM-GPS-RM" H 9100 3000 60  0000 C CNN
F 2 "drifter:RXM-GPS-RM" H 9100 3000 60  0001 C CNN
F 3 "" H 9100 3000 60  0000 C CNN
	1    9100 3000
	1    0    0    -1  
$EndComp
$Comp
L VCC #PWR012
U 1 1 5785E9CE
P 10050 2850
F 0 "#PWR012" H 10050 2700 50  0001 C CNN
F 1 "VCC" H 10050 3000 50  0000 C CNN
F 2 "" H 10050 2850 50  0000 C CNN
F 3 "" H 10050 2850 50  0000 C CNN
	1    10050 2850
	0    1    1    0   
$EndComp
$Comp
L VCC #PWR013
U 1 1 5785ED6D
P 5250 4150
F 0 "#PWR013" H 5250 4000 50  0001 C CNN
F 1 "VCC" H 5250 4300 50  0000 C CNN
F 2 "" H 5250 4150 50  0000 C CNN
F 3 "" H 5250 4150 50  0000 C CNN
	1    5250 4150
	0    1    1    0   
$EndComp
Text GLabel 5750 1400 1    60   Input ~ 0
VREF
Text GLabel 3250 5700 2    60   Input ~ 0
VREF
Text GLabel 3250 6100 2    60   Input ~ 0
VREF
$Comp
L R R1
U 1 1 57867AD1
P 5100 4150
F 0 "R1" V 5180 4150 50  0000 C CNN
F 1 "4.7k" V 5100 4150 50  0000 C CNN
F 2 "Resistors_SMD:R_1206" V 5030 4150 50  0001 C CNN
F 3 "" H 5100 4150 50  0000 C CNN
	1    5100 4150
	0    1    1    0   
$EndComp
NoConn ~ 4750 2150
NoConn ~ 4850 2150
$Comp
L GND #PWR014
U 1 1 578686B7
P 4700 2200
F 0 "#PWR014" H 4700 1950 50  0001 C CNN
F 1 "GND" H 4700 2050 50  0000 C CNN
F 2 "" H 4700 2200 50  0000 C CNN
F 3 "" H 4700 2200 50  0000 C CNN
	1    4700 2200
	1    0    0    -1  
$EndComp
$Comp
L cap C5
U 1 1 57869234
P 5050 2300
F 0 "C5" H 5050 2400 60  0000 C CNN
F 1 "4.7uF" H 4900 2350 60  0000 C CNN
F 2 "Capacitors_SMD:C_1206" H 5050 2300 60  0001 C CNN
F 3 "" H 5050 2300 60  0000 C CNN
	1    5050 2300
	1    0    0    -1  
$EndComp
$Comp
L cap C6
U 1 1 578698EC
P 5150 2450
F 0 "C6" H 5150 2550 60  0000 C CNN
F 1 "4.7uF" H 5150 2400 60  0000 C CNN
F 2 "Capacitors_SMD:C_1206" H 5150 2450 60  0001 C CNN
F 3 "" H 5150 2450 60  0000 C CNN
	1    5150 2450
	1    0    0    -1  
$EndComp
$Comp
L VCC #PWR015
U 1 1 5786A09D
P 5350 2350
F 0 "#PWR015" H 5350 2200 50  0001 C CNN
F 1 "VCC" H 5350 2500 50  0000 C CNN
F 2 "" H 5350 2350 50  0000 C CNN
F 3 "" H 5350 2350 50  0000 C CNN
	1    5350 2350
	-1   0    0    1   
$EndComp
$Comp
L cap C4
U 1 1 5786A567
P 4250 2300
F 0 "C4" H 4200 2400 60  0000 C CNN
F 1 "0.1uF" H 4200 2200 60  0000 C CNN
F 2 "Capacitors_SMD:C_1206" H 4250 2300 60  0001 C CNN
F 3 "" H 4250 2300 60  0000 C CNN
	1    4250 2300
	0    1    1    0   
$EndComp
$Comp
L GND #PWR016
U 1 1 5786AA2C
P 4250 2400
F 0 "#PWR016" H 4250 2150 50  0001 C CNN
F 1 "GND" H 4250 2250 50  0000 C CNN
F 2 "" H 4250 2400 50  0000 C CNN
F 3 "" H 4250 2400 50  0000 C CNN
	1    4250 2400
	1    0    0    -1  
$EndComp
Text GLabel 2650 3300 0    60   Input ~ 0
VREF
$Comp
L CONN_02X03 P1
U 1 1 5786D227
P 1150 2900
F 0 "P1" H 1150 3100 50  0000 C CNN
F 1 "ISP" H 1150 2700 50  0000 C CNN
F 2 "lib:ISP" H 1150 1700 50  0001 C CNN
F 3 "" H 1150 1700 50  0000 C CNN
	1    1150 2900
	1    0    0    -1  
$EndComp
Text GLabel 1500 2900 2    60   Input ~ 0
MOSI
Text GLabel 800  2750 0    60   Input ~ 0
MISO
Text GLabel 800  2900 0    60   Input ~ 0
SCK
Text GLabel 800  3050 0    60   Input ~ 0
RST
$Comp
L GND #PWR017
U 1 1 5786DA3B
P 2000 3050
F 0 "#PWR017" H 2000 2800 50  0001 C CNN
F 1 "GND" H 2000 2900 50  0000 C CNN
F 2 "" H 2000 3050 50  0000 C CNN
F 3 "" H 2000 3050 50  0000 C CNN
	1    2000 3050
	1    0    0    -1  
$EndComp
Text GLabel 4900 4100 1    60   Input ~ 0
RST
Text GLabel 4900 3100 2    60   Input ~ 0
MISO
Text GLabel 4900 3000 2    60   Input ~ 0
MOSI
Text GLabel 4900 3200 2    60   Input ~ 0
SCK
$Comp
L D_Small D13
U 1 1 5786F34B
P 2750 2550
F 0 "D13" H 2700 2630 50  0000 L CNN
F 1 "D_Small" H 2700 2450 50  0000 L CNN
F 2 "lib:DB2J208" V 2750 2550 50  0001 C CNN
F 3 "" V 2750 2550 50  0000 C CNN
	1    2750 2550
	0    -1   -1   0   
$EndComp
$Comp
L CONN_02X12 P2
U 1 1 5786FC6B
P 1550 1250
F 0 "P2" H 1550 1900 50  0000 C CNN
F 1 "CONN_02X12" V 1550 1250 50  0000 C CNN
F 2 "lib:CONN2x24_SMD" H 1550 50  50  0001 C CNN
F 3 "" H 1550 50  50  0000 C CNN
	1    1550 1250
	1    0    0    -1  
$EndComp
$Comp
L GND #PWR018
U 1 1 5786FEFB
P 1300 1900
F 0 "#PWR018" H 1300 1650 50  0001 C CNN
F 1 "GND" H 1300 1750 50  0000 C CNN
F 2 "" H 1300 1900 50  0000 C CNN
F 3 "" H 1300 1900 50  0000 C CNN
	1    1300 1900
	1    0    0    -1  
$EndComp
$Comp
L D_Small D6
U 1 1 5787042F
P 2050 1800
F 0 "D6" H 2000 1880 50  0000 L CNN
F 1 "D_Small" H 2000 1700 50  0000 L CNN
F 2 "lib:DB2J208" V 2050 1800 50  0001 C CNN
F 3 "" V 2050 1800 50  0000 C CNN
	1    2050 1800
	-1   0    0    1   
$EndComp
$Comp
L D_Small D12
U 1 1 57870582
P 2250 1700
F 0 "D12" H 2200 1780 50  0000 L CNN
F 1 "D_Small" H 2200 1600 50  0000 L CNN
F 2 "lib:DB2J208" V 2250 1700 50  0001 C CNN
F 3 "" V 2250 1700 50  0000 C CNN
	1    2250 1700
	-1   0    0    1   
$EndComp
$Comp
L D_Small D5
U 1 1 5787069C
P 2050 1600
F 0 "D5" H 2000 1680 50  0000 L CNN
F 1 "D_Small" H 2000 1500 50  0000 L CNN
F 2 "lib:DB2J208" V 2050 1600 50  0001 C CNN
F 3 "" V 2050 1600 50  0000 C CNN
	1    2050 1600
	-1   0    0    1   
$EndComp
$Comp
L D_Small D11
U 1 1 57870718
P 2250 1500
F 0 "D11" H 2200 1580 50  0000 L CNN
F 1 "D_Small" H 2200 1400 50  0000 L CNN
F 2 "lib:DB2J208" V 2250 1500 50  0001 C CNN
F 3 "" V 2250 1500 50  0000 C CNN
	1    2250 1500
	-1   0    0    1   
$EndComp
$Comp
L D_Small D4
U 1 1 57870793
P 2000 1400
F 0 "D4" H 1950 1480 50  0000 L CNN
F 1 "D_Small" H 1950 1300 50  0000 L CNN
F 2 "lib:DB2J208" V 2000 1400 50  0001 C CNN
F 3 "" V 2000 1400 50  0000 C CNN
	1    2000 1400
	-1   0    0    1   
$EndComp
$Comp
L D_Small D10
U 1 1 5787081F
P 2250 1300
F 0 "D10" H 2200 1380 50  0000 L CNN
F 1 "D_Small" H 2200 1200 50  0000 L CNN
F 2 "lib:DB2J208" V 2250 1300 50  0001 C CNN
F 3 "" V 2250 1300 50  0000 C CNN
	1    2250 1300
	-1   0    0    1   
$EndComp
$Comp
L D_Small D3
U 1 1 578708AC
P 2000 1200
F 0 "D3" H 1950 1280 50  0000 L CNN
F 1 "D_Small" H 1950 1100 50  0000 L CNN
F 2 "lib:DB2J208" V 2000 1200 50  0001 C CNN
F 3 "" V 2000 1200 50  0000 C CNN
	1    2000 1200
	-1   0    0    1   
$EndComp
$Comp
L D_Small D9
U 1 1 5787092C
P 2250 1100
F 0 "D9" H 2200 1180 50  0000 L CNN
F 1 "D_Small" H 2200 1000 50  0000 L CNN
F 2 "lib:DB2J208" V 2250 1100 50  0001 C CNN
F 3 "" V 2250 1100 50  0000 C CNN
	1    2250 1100
	-1   0    0    1   
$EndComp
$Comp
L D_Small D2
U 1 1 578709B3
P 2000 1000
F 0 "D2" H 1950 1080 50  0000 L CNN
F 1 "D_Small" H 1950 900 50  0000 L CNN
F 2 "lib:DB2J208" V 2000 1000 50  0001 C CNN
F 3 "" V 2000 1000 50  0000 C CNN
	1    2000 1000
	-1   0    0    1   
$EndComp
$Comp
L D_Small D8
U 1 1 57870A93
P 2250 900
F 0 "D8" H 2200 980 50  0000 L CNN
F 1 "D_Small" H 2200 800 50  0000 L CNN
F 2 "lib:DB2J208" V 2250 900 50  0001 C CNN
F 3 "" V 2250 900 50  0000 C CNN
	1    2250 900 
	-1   0    0    1   
$EndComp
$Comp
L D_Small D1
U 1 1 57870B26
P 2000 800
F 0 "D1" H 1950 880 50  0000 L CNN
F 1 "D_Small" H 1950 700 50  0000 L CNN
F 2 "lib:DB2J208" V 2000 800 50  0001 C CNN
F 3 "" V 2000 800 50  0000 C CNN
	1    2000 800 
	-1   0    0    1   
$EndComp
$Comp
L D_Small D7
U 1 1 57870BB4
P 2250 700
F 0 "D7" H 2200 780 50  0000 L CNN
F 1 "D_Small" H 2200 600 50  0000 L CNN
F 2 "lib:DB2J208" V 2250 700 50  0001 C CNN
F 3 "" V 2250 700 50  0000 C CNN
	1    2250 700 
	-1   0    0    1   
$EndComp
$Comp
L VCC #PWR019
U 1 1 578724AF
P 2400 1900
F 0 "#PWR019" H 2400 1750 50  0001 C CNN
F 1 "VCC" H 2400 2050 50  0000 C CNN
F 2 "" H 2400 1900 50  0000 C CNN
F 3 "" H 2400 1900 50  0000 C CNN
	1    2400 1900
	-1   0    0    1   
$EndComp
$Comp
L cap C1
U 1 1 5787361E
P 2000 2900
F 0 "C1" V 1950 3000 60  0000 C CNN
F 1 "0.1uF" V 1850 2900 60  0000 C CNN
F 2 "Capacitors_SMD:C_1206" H 2000 2900 60  0001 C CNN
F 3 "" H 2000 2900 60  0000 C CNN
	1    2000 2900
	0    1    1    0   
$EndComp
$Comp
L C C13
U 1 1 57875077
P 7750 3150
F 0 "C13" H 7800 3250 50  0000 L CNN
F 1 "10nF" H 7850 3150 50  0000 L CNN
F 2 "Capacitors_SMD:C_1206" H 7788 3000 50  0001 C CNN
F 3 "" H 7750 3150 50  0000 C CNN
	1    7750 3150
	0    1    1    0   
$EndComp
$Comp
L VCC #PWR020
U 1 1 57875126
P 7600 3050
F 0 "#PWR020" H 7600 2900 50  0001 C CNN
F 1 "VCC" H 7600 3200 50  0000 C CNN
F 2 "" H 7600 3050 50  0000 C CNN
F 3 "" H 7600 3050 50  0000 C CNN
	1    7600 3050
	1    0    0    -1  
$EndComp
Text Notes 1400 2000 0    60   ~ 0
Battery connector\n
$Comp
L cap C7
U 1 1 5787BC1E
P 5450 1200
F 0 "C7" V 5400 1050 60  0000 C CNN
F 1 "4.7uF" V 5300 1200 60  0000 C CNN
F 2 "Capacitors_SMD:C_1206" H 5450 1200 60  0001 C CNN
F 3 "" H 5450 1200 60  0000 C CNN
	1    5450 1200
	0    1    1    0   
$EndComp
Wire Wire Line
	6200 2600 6200 3000
Wire Wire Line
	4650 4300 5850 4300
Wire Wire Line
	5850 4300 5850 4950
Wire Wire Line
	4650 4400 5750 4400
Wire Wire Line
	5750 4400 5750 5050
Wire Wire Line
	10150 4450 10150 6000
Connection ~ 10150 5550
Connection ~ 10150 4450
Wire Wire Line
	8050 6150 8000 6150
Wire Wire Line
	6050 2500 6050 3100
Wire Wire Line
	8450 2600 6200 2600
Wire Wire Line
	6050 2500 8450 2500
Connection ~ 10050 2600
Connection ~ 10050 2500
Connection ~ 10050 2400
Connection ~ 10050 2700
Wire Wire Line
	8100 2100 8000 2100
Connection ~ 10050 2900
Connection ~ 10050 2800
Wire Wire Line
	5850 4950 8900 4950
Wire Wire Line
	5750 5050 8900 5050
Connection ~ 8000 1800
Connection ~ 8000 2100
Connection ~ 8000 6150
Connection ~ 2750 2700
Wire Wire Line
	4650 2900 5950 2900
Wire Wire Line
	5950 2900 5950 1800
Wire Wire Line
	4650 2800 6300 2800
Wire Wire Line
	6300 2800 6300 2700
Wire Wire Line
	6300 2700 8450 2700
Wire Wire Line
	5950 1800 8100 1800
Wire Wire Line
	5350 5850 8050 5850
Connection ~ 8000 5850
Connection ~ 8900 4650
Wire Wire Line
	5950 4850 8900 4850
Wire Wire Line
	5950 4850 5950 4600
Wire Wire Line
	6050 4550 8900 4550
Wire Wire Line
	6050 4550 6050 4700
Wire Wire Line
	8900 4450 6150 4450
Wire Wire Line
	6150 4450 6150 4800
Wire Wire Line
	5650 5150 8900 5150
Wire Wire Line
	5550 5250 8900 5250
Wire Wire Line
	5450 5450 8900 5450
Wire Wire Line
	5450 5450 5450 3850
Wire Wire Line
	5450 3850 4650 3850
Connection ~ 8900 5550
Wire Wire Line
	6500 3550 6500 3650
Connection ~ 6500 3600
Wire Wire Line
	2750 4800 2750 5050
Connection ~ 2750 5050
Connection ~ 2750 4900
Connection ~ 2750 4800
Connection ~ 2750 3000
Wire Wire Line
	7600 3750 7600 4350
Wire Wire Line
	7600 4350 6050 4350
Wire Wire Line
	6050 4350 6050 3750
Wire Wire Line
	6050 3750 4650 3750
Wire Wire Line
	7600 3650 7700 3650
Wire Wire Line
	7700 3650 7700 4250
Wire Wire Line
	7700 4250 6150 4250
Wire Wire Line
	6150 4250 6150 3650
Wire Wire Line
	6150 3650 4650 3650
Connection ~ 2300 6100
Connection ~ 2300 5700
Wire Wire Line
	2300 5800 2150 5800
Wire Wire Line
	2050 6200 2300 6200
Connection ~ 5650 2400
Wire Wire Line
	2150 5800 2150 4150
Wire Wire Line
	2150 4150 2750 4150
Wire Wire Line
	2050 6200 2050 4050
Wire Wire Line
	2050 4050 2750 4050
Wire Wire Line
	6100 3500 6250 3500
Wire Wire Line
	6250 3300 6100 3300
Wire Wire Line
	8250 2800 8250 4750
Wire Wire Line
	8250 4750 8900 4750
Wire Wire Line
	8150 3550 8250 3550
Connection ~ 8250 3550
Wire Wire Line
	7850 3550 7600 3550
Wire Wire Line
	6500 3450 6450 3450
Wire Wire Line
	6450 3450 6450 3250
Wire Wire Line
	6500 4050 6500 4100
Wire Wire Line
	6500 4100 6600 4100
Wire Wire Line
	10150 6000 8750 6000
Connection ~ 10150 5450
Connection ~ 10150 5350
Connection ~ 10150 5250
Connection ~ 10150 5150
Connection ~ 10150 5050
Connection ~ 10150 4950
Connection ~ 10150 4850
Connection ~ 10150 4750
Connection ~ 10150 4650
Connection ~ 10150 4550
Wire Wire Line
	8800 1950 10050 1950
Wire Wire Line
	8250 2800 8450 2800
Wire Wire Line
	10050 1950 10050 2700
Wire Wire Line
	10050 2800 10050 2900
Connection ~ 10050 2850
Wire Wire Line
	3200 6100 3250 6100
Wire Wire Line
	3200 5700 3250 5700
Wire Wire Line
	5750 1600 5750 1400
Wire Wire Line
	5550 5250 5550 4500
Wire Wire Line
	5550 4500 4650 4500
Wire Wire Line
	5650 3550 5650 5150
Wire Wire Line
	5650 3550 4650 3550
Wire Wire Line
	4650 2150 4650 2200
Wire Wire Line
	4650 2200 5050 2200
Wire Wire Line
	4950 2150 4950 2450
Wire Wire Line
	5050 2200 5050 2150
Connection ~ 4950 2200
Wire Wire Line
	5250 2150 5250 2450
Connection ~ 4700 2200
Wire Wire Line
	5100 2300 5150 2300
Wire Wire Line
	5150 2300 5150 2150
Wire Wire Line
	5250 2450 5200 2450
Wire Wire Line
	4950 2450 5050 2450
Connection ~ 4950 2300
Wire Wire Line
	5150 2150 5250 2150
Wire Wire Line
	5350 2350 5250 2350
Connection ~ 5250 2350
Wire Wire Line
	4250 2200 4250 2150
Wire Wire Line
	4250 2400 4250 2350
Wire Wire Line
	4550 2150 4550 2450
Wire Wire Line
	4550 2450 4800 2450
Wire Wire Line
	4800 2450 4800 3950
Wire Wire Line
	4800 3950 4650 3950
Wire Wire Line
	4650 4050 4700 4050
Wire Wire Line
	4700 4050 4700 2550
Wire Wire Line
	4700 2550 4450 2550
Wire Wire Line
	4450 2550 4450 2150
Wire Wire Line
	4650 4150 4950 4150
Wire Wire Line
	2750 3300 2650 3300
Wire Wire Line
	1400 2900 1500 2900
Wire Wire Line
	900  3000 800  3000
Wire Wire Line
	800  3000 800  3050
Wire Wire Line
	800  2900 900  2900
Wire Wire Line
	900  2800 800  2800
Wire Wire Line
	800  2800 800  2750
Connection ~ 5250 4150
Wire Wire Line
	4900 4100 4900 4150
Connection ~ 4900 4150
Wire Wire Line
	2750 2450 2750 2400
Wire Wire Line
	1300 700  1300 1900
Connection ~ 1300 1800
Connection ~ 1300 1700
Connection ~ 1300 1600
Connection ~ 1300 1500
Connection ~ 1300 1400
Connection ~ 1300 1300
Connection ~ 1300 1200
Connection ~ 1300 1100
Connection ~ 1300 1000
Connection ~ 1300 900 
Connection ~ 1300 800 
Wire Wire Line
	1800 700  2150 700 
Wire Wire Line
	1800 800  1900 800 
Wire Wire Line
	1800 900  2150 900 
Wire Wire Line
	1800 1000 1900 1000
Wire Wire Line
	1800 1100 2150 1100
Wire Wire Line
	1800 1200 1900 1200
Wire Wire Line
	1800 1400 1900 1400
Wire Wire Line
	1800 1600 1950 1600
Wire Wire Line
	1800 1500 2150 1500
Wire Wire Line
	1800 1300 2150 1300
Wire Wire Line
	1800 1700 2150 1700
Wire Wire Line
	1800 1800 1950 1800
Wire Wire Line
	2400 1600 2150 1600
Wire Wire Line
	2350 700  2400 700 
Wire Wire Line
	2400 700  2400 1900
Wire Wire Line
	2350 1700 2400 1700
Connection ~ 2400 1700
Wire Wire Line
	2350 1500 2400 1500
Connection ~ 2400 1500
Wire Wire Line
	2100 1400 2400 1400
Connection ~ 2400 1400
Wire Wire Line
	2350 1300 2400 1300
Connection ~ 2400 1300
Wire Wire Line
	2100 1200 2400 1200
Connection ~ 2400 1200
Wire Wire Line
	2350 1100 2400 1100
Connection ~ 2400 1100
Wire Wire Line
	2100 1000 2400 1000
Connection ~ 2400 1000
Wire Wire Line
	2350 900  2400 900 
Connection ~ 2400 900 
Wire Wire Line
	2100 800  2400 800 
Connection ~ 2400 800 
Wire Wire Line
	2150 1800 2400 1800
Connection ~ 2400 1800
Connection ~ 2400 1600
Connection ~ 2000 2800
Wire Wire Line
	2000 2950 2000 3050
Connection ~ 2000 3000
Wire Wire Line
	7600 3050 7600 3450
Wire Wire Line
	5750 3200 5750 2400
Wire Wire Line
	4650 3300 5800 3300
Wire Wire Line
	4650 3400 5800 3400
Wire Wire Line
	5800 3400 5800 3500
Wire Wire Line
	3200 6200 3200 6100
Wire Wire Line
	3200 5800 3200 5700
Wire Wire Line
	5650 1050 5650 1600
Wire Wire Line
	5450 1100 5650 1100
Connection ~ 5650 1100
$Comp
L GND #PWR021
U 1 1 5787ECAA
P 5450 1300
F 0 "#PWR021" H 5450 1050 50  0001 C CNN
F 1 "GND" H 5450 1150 50  0000 C CNN
F 2 "" H 5450 1300 50  0000 C CNN
F 3 "" H 5450 1300 50  0000 C CNN
	1    5450 1300
	1    0    0    -1  
$EndComp
Wire Wire Line
	5450 1250 5450 1300
Wire Wire Line
	4650 5000 5350 5000
Wire Wire Line
	5350 5000 5350 5850
Wire Wire Line
	4650 4900 5400 4900
Wire Wire Line
	5400 4900 5400 4800
Wire Wire Line
	5400 4800 6150 4800
Wire Wire Line
	4650 4800 5300 4800
Wire Wire Line
	5300 4800 5300 4700
Wire Wire Line
	5300 4700 6050 4700
Wire Wire Line
	4650 4700 5200 4700
Wire Wire Line
	5200 4700 5200 4600
Wire Wire Line
	5200 4600 5950 4600
NoConn ~ 8450 2400
$Comp
L R R2
U 1 1 5788510F
P 5400 3000
F 0 "R2" V 5450 2850 50  0000 C CNN
F 1 "4.7k" V 5400 3000 50  0000 C CNN
F 2 "Resistors_SMD:R_1206" V 5330 3000 50  0001 C CNN
F 3 "" H 5400 3000 50  0000 C CNN
	1    5400 3000
	0    1    1    0   
$EndComp
$Comp
L R R4
U 1 1 57885245
P 5550 3100
F 0 "R4" V 5600 3250 50  0000 C CNN
F 1 "4.7k" V 5550 3100 50  0000 C CNN
F 2 "Resistors_SMD:R_1206" V 5480 3100 50  0001 C CNN
F 3 "" H 5550 3100 50  0000 C CNN
	1    5550 3100
	0    1    1    0   
$EndComp
$Comp
L R R3
U 1 1 578852F2
P 5400 3200
F 0 "R3" V 5450 3050 50  0000 C CNN
F 1 "4.7k" V 5400 3200 50  0000 C CNN
F 2 "Resistors_SMD:R_1206" V 5330 3200 50  0001 C CNN
F 3 "" H 5400 3200 50  0000 C CNN
	1    5400 3200
	0    1    1    0   
$EndComp
Wire Wire Line
	4650 3200 5250 3200
Wire Wire Line
	5550 3200 5750 3200
Wire Wire Line
	6050 3100 5700 3100
Wire Wire Line
	6200 3000 5550 3000
Wire Wire Line
	4650 3000 5250 3000
Wire Wire Line
	4650 3100 5400 3100
NoConn ~ 4650 4600
NoConn ~ 4650 2700
Connection ~ 7600 3150
$Comp
L GND #PWR022
U 1 1 578D2FDE
P 7900 3100
F 0 "#PWR022" H 7900 2850 50  0001 C CNN
F 1 "GND" H 7900 2950 50  0000 C CNN
F 2 "" H 7900 3100 50  0000 C CNN
F 3 "" H 7900 3100 50  0000 C CNN
	1    7900 3100
	-1   0    0    1   
$EndComp
Wire Wire Line
	7900 3150 7900 3100
Wire Wire Line
	2750 2650 2750 3000
Wire Wire Line
	1400 2800 2750 2800
Connection ~ 2750 2800
NoConn ~ 2750 3950
NoConn ~ 2750 3850
$EndSCHEMATC
