<?xml version="1.0" encoding="utf-8"?>
<!DOCTYPE eagle SYSTEM "eagle.dtd">
<eagle version="7.2.0">
<drawing>
<settings>
<setting alwaysvectorfont="yes"/>
<setting verticaltext="up"/>
</settings>
<grid distance="0.1" unitdist="inch" unit="inch" style="dots" multiple="1" display="yes" altdistance="0.025" altunitdist="inch" altunit="inch"/>
<layers>
<layer number="1" name="Top" color="4" fill="1" visible="yes" active="yes"/>
<layer number="2" name="Route2" color="1" fill="3" visible="no" active="no"/>
<layer number="3" name="Route3" color="4" fill="3" visible="no" active="no"/>
<layer number="14" name="Route14" color="1" fill="6" visible="no" active="no"/>
<layer number="15" name="Route15" color="4" fill="6" visible="no" active="no"/>
<layer number="16" name="Bottom" color="1" fill="1" visible="yes" active="yes"/>
<layer number="17" name="Pads" color="2" fill="1" visible="yes" active="yes"/>
<layer number="18" name="Vias" color="2" fill="1" visible="yes" active="yes"/>
<layer number="19" name="Unrouted" color="6" fill="1" visible="yes" active="yes"/>
<layer number="20" name="Dimension" color="15" fill="1" visible="yes" active="yes"/>
<layer number="21" name="tPlace" color="7" fill="1" visible="yes" active="yes"/>
<layer number="22" name="bPlace" color="7" fill="1" visible="yes" active="yes"/>
<layer number="23" name="tOrigins" color="15" fill="1" visible="yes" active="yes"/>
<layer number="24" name="bOrigins" color="15" fill="1" visible="yes" active="yes"/>
<layer number="25" name="tNames" color="7" fill="1" visible="yes" active="yes"/>
<layer number="26" name="bNames" color="7" fill="1" visible="yes" active="yes"/>
<layer number="27" name="tValues" color="7" fill="1" visible="yes" active="yes"/>
<layer number="28" name="bValues" color="7" fill="1" visible="yes" active="yes"/>
<layer number="29" name="tStop" color="7" fill="3" visible="no" active="yes"/>
<layer number="30" name="bStop" color="7" fill="6" visible="no" active="yes"/>
<layer number="31" name="tCream" color="7" fill="4" visible="no" active="yes"/>
<layer number="32" name="bCream" color="7" fill="5" visible="no" active="yes"/>
<layer number="33" name="tFinish" color="6" fill="3" visible="no" active="yes"/>
<layer number="34" name="bFinish" color="6" fill="6" visible="no" active="yes"/>
<layer number="35" name="tGlue" color="7" fill="4" visible="no" active="yes"/>
<layer number="36" name="bGlue" color="7" fill="5" visible="no" active="yes"/>
<layer number="37" name="tTest" color="7" fill="1" visible="no" active="yes"/>
<layer number="38" name="bTest" color="7" fill="1" visible="no" active="yes"/>
<layer number="39" name="tKeepout" color="4" fill="11" visible="yes" active="yes"/>
<layer number="40" name="bKeepout" color="1" fill="11" visible="yes" active="yes"/>
<layer number="41" name="tRestrict" color="4" fill="10" visible="yes" active="yes"/>
<layer number="42" name="bRestrict" color="1" fill="10" visible="yes" active="yes"/>
<layer number="43" name="vRestrict" color="2" fill="10" visible="yes" active="yes"/>
<layer number="44" name="Drills" color="7" fill="1" visible="no" active="yes"/>
<layer number="45" name="Holes" color="7" fill="1" visible="no" active="yes"/>
<layer number="46" name="Milling" color="3" fill="1" visible="no" active="yes"/>
<layer number="47" name="Measures" color="7" fill="1" visible="no" active="yes"/>
<layer number="48" name="Document" color="7" fill="1" visible="yes" active="yes"/>
<layer number="49" name="Reference" color="7" fill="1" visible="yes" active="yes"/>
<layer number="51" name="tDocu" color="7" fill="1" visible="yes" active="yes"/>
<layer number="52" name="bDocu" color="7" fill="1" visible="yes" active="yes"/>
<layer number="91" name="Nets" color="2" fill="1" visible="no" active="no"/>
<layer number="92" name="Busses" color="1" fill="1" visible="no" active="no"/>
<layer number="93" name="Pins" color="2" fill="1" visible="no" active="no"/>
<layer number="94" name="Symbols" color="4" fill="1" visible="no" active="no"/>
<layer number="95" name="Names" color="7" fill="1" visible="no" active="no"/>
<layer number="96" name="Values" color="7" fill="1" visible="no" active="no"/>
<layer number="97" name="Info" color="7" fill="1" visible="no" active="no"/>
<layer number="98" name="Guide" color="6" fill="1" visible="no" active="no"/>
</layers>
<board>
<plain>
</plain>
<libraries>
<library name="Drifters">
<packages>
<package name="MCX-PCB">
<smd name="P$1" x="0" y="1.5" dx="1" dy="1" layer="1"/>
<smd name="RF" x="0" y="-1.5" dx="1" dy="1" layer="1"/>
<smd name="P$3" x="-1.45" y="0" dx="1.05" dy="2" layer="1"/>
<smd name="P$4" x="1.45" y="0" dx="1.05" dy="2" layer="1"/>
<wire x1="-1.4" y1="1.4" x2="-1.4" y2="0.9" width="0.127" layer="51"/>
<wire x1="-1.4" y1="0.9" x2="-1.4" y2="-0.9" width="0.127" layer="51"/>
<wire x1="-1.4" y1="-0.9" x2="-1.4" y2="-1.3" width="0.127" layer="51"/>
<wire x1="-1.4" y1="-1.3" x2="-1.3" y2="-1.4" width="0.127" layer="51"/>
<wire x1="-1.3" y1="-1.4" x2="1.4" y2="-1.4" width="0.127" layer="51"/>
<wire x1="1.4" y1="-1.4" x2="1.4" y2="-0.9" width="0.127" layer="51"/>
<wire x1="1.4" y1="-0.9" x2="1.4" y2="0.9" width="0.127" layer="51"/>
<wire x1="1.4" y1="0.9" x2="1.4" y2="1.4" width="0.127" layer="51"/>
<wire x1="1.4" y1="1.4" x2="0.3" y2="1.4" width="0.127" layer="51"/>
<wire x1="0.3" y1="1.4" x2="-1.4" y2="1.4" width="0.127" layer="51"/>
<wire x1="-0.3" y1="1.45" x2="-0.3" y2="1.55" width="0.127" layer="51"/>
<wire x1="-0.3" y1="1.55" x2="0.3" y2="1.55" width="0.127" layer="51"/>
<wire x1="0.3" y1="1.55" x2="0.3" y2="1.4" width="0.127" layer="51"/>
<wire x1="-1.4" y1="0.9" x2="-1.55" y2="0.9" width="0.127" layer="51"/>
<wire x1="-1.55" y1="0.9" x2="-1.55" y2="-0.9" width="0.127" layer="51"/>
<wire x1="-1.55" y1="-0.9" x2="-1.4" y2="-0.9" width="0.127" layer="51"/>
<wire x1="1.4" y1="-0.9" x2="1.5" y2="-0.9" width="0.127" layer="51"/>
<wire x1="1.5" y1="-0.9" x2="1.5" y2="0.9" width="0.127" layer="51"/>
<wire x1="1.5" y1="0.9" x2="1.4" y2="0.9" width="0.127" layer="51"/>
<wire x1="-2.3" y1="2.3" x2="-2.3" y2="-2.3" width="0.127" layer="21"/>
<wire x1="-2.3" y1="-2.3" x2="2.3" y2="-2.3" width="0.127" layer="21"/>
<wire x1="2.3" y1="-2.3" x2="2.3" y2="2.3" width="0.127" layer="21"/>
<wire x1="2.3" y1="2.3" x2="-2.3" y2="2.3" width="0.127" layer="21"/>
<circle x="-2.8" y="2.05" radius="0.05" width="0.8128" layer="21"/>
<text x="2.55" y="0.85" size="1.27" layer="25">&gt;NAME</text>
<text x="2.6" y="-1.05" size="1" layer="27">&gt;VALUE</text>
</package>
</packages>
</library>
<library name="con-coax">
<description>&lt;b&gt;Coax Connectors&lt;/b&gt;&lt;p&gt;
Radiall  and M/A COM.&lt;p&gt;
&lt;author&gt;Created by librarian@cadsoft.de&lt;/author&gt;</description>
<packages>
<package name="SMA-SMD">
<description>&lt;b&gt;SMA 50 Ohm Straight Jack Receptacle - Surface Mount&lt;/b&gt;&lt;p&gt;
www.johnsoncomponents.com&lt;br&gt;
Source:  http://catalog.digikey.com .. 142-0711-201, 205, 202, 206.pdf</description>
<wire x1="-1.1" y1="3.2" x2="1.1" y2="3.2" width="0.2032" layer="21"/>
<wire x1="1.1" y1="-3.2" x2="-1.1" y2="-3.2" width="0.2032" layer="21"/>
<wire x1="-3.1999" y1="3.1999" x2="3.2" y2="3.2" width="0.2032" layer="51"/>
<wire x1="3.2" y1="3.2" x2="3.1999" y2="-3.1999" width="0.2032" layer="51"/>
<wire x1="3.1999" y1="-3.1999" x2="-3.2" y2="-3.2" width="0.2032" layer="51"/>
<wire x1="-3.2" y1="-3.2" x2="-3.1999" y2="3.1999" width="0.2032" layer="51"/>
<circle x="0" y="0" radius="3.1999" width="0.2032" layer="51"/>
<circle x="0" y="0" radius="1.7" width="0.2032" layer="21"/>
<smd name="1" x="0" y="0" dx="1.73" dy="1.73" layer="1" roundness="100"/>
<smd name="2@2" x="-2.375" y="-2.6" dx="2.35" dy="1.9" layer="1"/>
<smd name="2@1" x="-2.375" y="2.6" dx="2.35" dy="1.9" layer="1"/>
<smd name="2@5" x="-2.8" y="0" dx="1.5" dy="3.4" layer="1"/>
<smd name="2@4" x="2.375" y="2.6" dx="2.35" dy="1.9" layer="1" rot="R180"/>
<smd name="2@3" x="2.375" y="-2.6" dx="2.35" dy="1.9" layer="1" rot="R180"/>
<smd name="2@6" x="2.8" y="0" dx="1.5" dy="3.4" layer="1" rot="R180"/>
<text x="-2.54" y="4.445" size="1.27" layer="25">&gt;NAME</text>
<text x="-3.175" y="-5.715" size="1.27" layer="27">&gt;VALUE</text>
</package>
</packages>
</library>
<library name="STX3">
<packages>
<package name="GSANTENNA">
<polygon width="1" layer="1">
<vertex x="-35" y="20"/>
<vertex x="0" y="20"/>
<vertex x="10" y="10"/>
<vertex x="10" y="-20"/>
<vertex x="-25" y="-20"/>
<vertex x="-35" y="-10"/>
</polygon>
<pad name="P$1" x="0" y="0" drill="1" shape="square"/>
</package>
</packages>
</library>
<library name="pinhead">
<description>&lt;b&gt;Pin Header Connectors&lt;/b&gt;&lt;p&gt;
&lt;author&gt;Created by librarian@cadsoft.de&lt;/author&gt;</description>
<packages>
<package name="1X01">
<description>&lt;b&gt;PIN HEADER&lt;/b&gt;</description>
<wire x1="-0.635" y1="1.27" x2="0.635" y2="1.27" width="0.1524" layer="21"/>
<wire x1="0.635" y1="1.27" x2="1.27" y2="0.635" width="0.1524" layer="21"/>
<wire x1="1.27" y1="0.635" x2="1.27" y2="-0.635" width="0.1524" layer="21"/>
<wire x1="1.27" y1="-0.635" x2="0.635" y2="-1.27" width="0.1524" layer="21"/>
<wire x1="-1.27" y1="0.635" x2="-1.27" y2="-0.635" width="0.1524" layer="21"/>
<wire x1="-0.635" y1="1.27" x2="-1.27" y2="0.635" width="0.1524" layer="21"/>
<wire x1="-1.27" y1="-0.635" x2="-0.635" y2="-1.27" width="0.1524" layer="21"/>
<wire x1="0.635" y1="-1.27" x2="-0.635" y2="-1.27" width="0.1524" layer="21"/>
<pad name="1" x="0" y="0" drill="1.016" shape="octagon"/>
<text x="-1.3462" y="1.8288" size="1.27" layer="25" ratio="10">&gt;NAME</text>
<text x="-1.27" y="-3.175" size="1.27" layer="27">&gt;VALUE</text>
<rectangle x1="-0.254" y1="-0.254" x2="0.254" y2="0.254" layer="51"/>
</package>
</packages>
</library>
</libraries>
<attributes>
</attributes>
<variantdefs>
</variantdefs>
<classes>
<class number="0" name="default" width="0" drill="0">
</class>
</classes>
<designrules name="default">
<description language="de">&lt;b&gt;EAGLE Design Rules&lt;/b&gt;
&lt;p&gt;
Die Standard-Design-Rules sind so gewählt, dass sie für 
die meisten Anwendungen passen. Sollte ihre Platine 
besondere Anforderungen haben, treffen Sie die erforderlichen
Einstellungen hier und speichern die Design Rules unter 
einem neuen Namen ab.</description>
<description language="en">&lt;b&gt;EAGLE Design Rules&lt;/b&gt;
&lt;p&gt;
The default Design Rules have been set to cover
a wide range of applications. Your particular design
may have different requirements, so please make the
necessary adjustments and save your customized
design rules under a new name.</description>
<param name="layerSetup" value="(1*16)"/>
<param name="mtCopper" value="0.035mm 0.035mm 0.035mm 0.035mm 0.035mm 0.035mm 0.035mm 0.035mm 0.035mm 0.035mm 0.035mm 0.035mm 0.035mm 0.035mm 0.035mm 0.035mm"/>
<param name="mtIsolate" value="1.5mm 0.15mm 0.2mm 0.15mm 0.2mm 0.15mm 0.2mm 0.15mm 0.2mm 0.15mm 0.2mm 0.15mm 0.2mm 0.15mm 0.2mm"/>
<param name="mdWireWire" value="8mil"/>
<param name="mdWirePad" value="8mil"/>
<param name="mdWireVia" value="8mil"/>
<param name="mdPadPad" value="8mil"/>
<param name="mdPadVia" value="8mil"/>
<param name="mdViaVia" value="8mil"/>
<param name="mdSmdPad" value="8mil"/>
<param name="mdSmdVia" value="8mil"/>
<param name="mdSmdSmd" value="8mil"/>
<param name="mdViaViaSameLayer" value="8mil"/>
<param name="mnLayersViaInSmd" value="2"/>
<param name="mdCopperDimension" value="40mil"/>
<param name="mdDrill" value="8mil"/>
<param name="mdSmdStop" value="0mil"/>
<param name="msWidth" value="10mil"/>
<param name="msDrill" value="24mil"/>
<param name="msMicroVia" value="9.99mm"/>
<param name="msBlindViaRatio" value="0.5"/>
<param name="rvPadTop" value="0.25"/>
<param name="rvPadInner" value="0.25"/>
<param name="rvPadBottom" value="0.25"/>
<param name="rvViaOuter" value="0.25"/>
<param name="rvViaInner" value="0.25"/>
<param name="rvMicroViaOuter" value="0.25"/>
<param name="rvMicroViaInner" value="0.25"/>
<param name="rlMinPadTop" value="10mil"/>
<param name="rlMaxPadTop" value="20mil"/>
<param name="rlMinPadInner" value="10mil"/>
<param name="rlMaxPadInner" value="20mil"/>
<param name="rlMinPadBottom" value="10mil"/>
<param name="rlMaxPadBottom" value="20mil"/>
<param name="rlMinViaOuter" value="8mil"/>
<param name="rlMaxViaOuter" value="20mil"/>
<param name="rlMinViaInner" value="8mil"/>
<param name="rlMaxViaInner" value="20mil"/>
<param name="rlMinMicroViaOuter" value="4mil"/>
<param name="rlMaxMicroViaOuter" value="20mil"/>
<param name="rlMinMicroViaInner" value="4mil"/>
<param name="rlMaxMicroViaInner" value="20mil"/>
<param name="psTop" value="-1"/>
<param name="psBottom" value="-1"/>
<param name="psFirst" value="-1"/>
<param name="psElongationLong" value="100"/>
<param name="psElongationOffset" value="100"/>
<param name="mvStopFrame" value="1"/>
<param name="mvCreamFrame" value="0"/>
<param name="mlMinStopFrame" value="4mil"/>
<param name="mlMaxStopFrame" value="4mil"/>
<param name="mlMinCreamFrame" value="0mil"/>
<param name="mlMaxCreamFrame" value="0mil"/>
<param name="mlViaStopLimit" value="0mil"/>
<param name="srRoundness" value="0"/>
<param name="srMinRoundness" value="0mil"/>
<param name="srMaxRoundness" value="0mil"/>
<param name="slThermalIsolate" value="10mil"/>
<param name="slThermalsForVias" value="0"/>
<param name="dpMaxLengthDifference" value="10mm"/>
<param name="dpGapFactor" value="2.5"/>
<param name="checkGrid" value="0"/>
<param name="checkAngle" value="0"/>
<param name="checkFont" value="1"/>
<param name="checkRestrict" value="1"/>
<param name="useDiameter" value="13"/>
<param name="maxErrors" value="50"/>
</designrules>
<autorouter>
<pass name="Default">
<param name="RoutingGrid" value="50mil"/>
<param name="AutoGrid" value="1"/>
<param name="Efforts" value="0"/>
<param name="TopRouterVariant" value="1"/>
<param name="tpViaShape" value="round"/>
<param name="PrefDir.1" value="|"/>
<param name="PrefDir.2" value="0"/>
<param name="PrefDir.3" value="0"/>
<param name="PrefDir.4" value="0"/>
<param name="PrefDir.5" value="0"/>
<param name="PrefDir.6" value="0"/>
<param name="PrefDir.7" value="0"/>
<param name="PrefDir.8" value="0"/>
<param name="PrefDir.9" value="0"/>
<param name="PrefDir.10" value="0"/>
<param name="PrefDir.11" value="0"/>
<param name="PrefDir.12" value="0"/>
<param name="PrefDir.13" value="0"/>
<param name="PrefDir.14" value="0"/>
<param name="PrefDir.15" value="0"/>
<param name="PrefDir.16" value="-"/>
<param name="cfVia" value="8"/>
<param name="cfNonPref" value="5"/>
<param name="cfChangeDir" value="2"/>
<param name="cfOrthStep" value="2"/>
<param name="cfDiagStep" value="3"/>
<param name="cfExtdStep" value="0"/>
<param name="cfBonusStep" value="1"/>
<param name="cfMalusStep" value="1"/>
<param name="cfPadImpact" value="4"/>
<param name="cfSmdImpact" value="4"/>
<param name="cfBusImpact" value="0"/>
<param name="cfHugging" value="3"/>
<param name="cfAvoid" value="4"/>
<param name="cfPolygon" value="10"/>
<param name="cfBase.1" value="0"/>
<param name="cfBase.2" value="1"/>
<param name="cfBase.3" value="1"/>
<param name="cfBase.4" value="1"/>
<param name="cfBase.5" value="1"/>
<param name="cfBase.6" value="1"/>
<param name="cfBase.7" value="1"/>
<param name="cfBase.8" value="1"/>
<param name="cfBase.9" value="1"/>
<param name="cfBase.10" value="1"/>
<param name="cfBase.11" value="1"/>
<param name="cfBase.12" value="1"/>
<param name="cfBase.13" value="1"/>
<param name="cfBase.14" value="1"/>
<param name="cfBase.15" value="1"/>
<param name="cfBase.16" value="0"/>
<param name="mnVias" value="20"/>
<param name="mnSegments" value="9999"/>
<param name="mnExtdSteps" value="9999"/>
<param name="mnRipupLevel" value="10"/>
<param name="mnRipupSteps" value="100"/>
<param name="mnRipupTotal" value="100"/>
</pass>
<pass name="Follow-me" refer="Default" active="yes">
</pass>
<pass name="Busses" refer="Default" active="yes">
<param name="cfNonPref" value="4"/>
<param name="cfBusImpact" value="4"/>
<param name="cfHugging" value="0"/>
<param name="mnVias" value="0"/>
</pass>
<pass name="Route" refer="Default" active="yes">
</pass>
<pass name="Optimize1" refer="Default" active="yes">
<param name="cfVia" value="99"/>
<param name="cfExtdStep" value="10"/>
<param name="cfHugging" value="1"/>
<param name="mnExtdSteps" value="1"/>
<param name="mnRipupLevel" value="0"/>
</pass>
<pass name="Optimize2" refer="Optimize1" active="yes">
<param name="cfNonPref" value="0"/>
<param name="cfChangeDir" value="6"/>
<param name="cfExtdStep" value="0"/>
<param name="cfBonusStep" value="2"/>
<param name="cfMalusStep" value="2"/>
<param name="cfPadImpact" value="2"/>
<param name="cfSmdImpact" value="2"/>
<param name="cfHugging" value="0"/>
</pass>
<pass name="Optimize3" refer="Optimize2" active="yes">
<param name="cfChangeDir" value="8"/>
<param name="cfPadImpact" value="0"/>
<param name="cfSmdImpact" value="0"/>
</pass>
<pass name="Optimize4" refer="Optimize3" active="yes">
<param name="cfChangeDir" value="25"/>
</pass>
</autorouter>
<elements>
<element name="X1" library="con-coax" package="SMA-SMD" value="SMA-SMD" x="22.86" y="25.4">
<attribute name="OC_NEWARK" value="unknown" x="22.86" y="25.4" size="1.778" layer="27" display="off"/>
<attribute name="MPN" value="" x="22.86" y="25.4" size="1.778" layer="27" display="off"/>
<attribute name="MF" value="" x="22.86" y="25.4" size="1.778" layer="27" display="off"/>
<attribute name="OC_FARNELL" value="unknown" x="22.86" y="25.4" size="1.778" layer="27" display="off"/>
</element>
<element name="RFCON1" library="Drifters" package="MCX-PCB" value="" x="33.02" y="25.4"/>
<element name="U$1" library="STX3" package="GSANTENNA" value="GSANTENNA" x="45.72" y="0"/>
<element name="JP1" library="pinhead" package="1X01" value="" x="12.7" y="25.4"/>
</elements>
<signals>
<signal name="GND">
<contactref element="RFCON1" pad="P$1"/>
<wire x1="35.56" y1="25.4" x2="35.56" y2="27.94" width="0.4064" layer="1"/>
<wire x1="35.56" y1="27.94" x2="33.02" y2="27.94" width="0.4064" layer="1"/>
<wire x1="33.02" y1="26.9" x2="33.02" y2="27.94" width="0.4064" layer="1"/>
<wire x1="33.02" y1="27.94" x2="30.48" y2="27.94" width="0.4064" layer="1"/>
<wire x1="30.48" y1="27.94" x2="30.48" y2="25.4" width="0.4064" layer="1"/>
</signal>
<signal name="N$1">
<contactref element="RFCON1" pad="RF"/>
<contactref element="X1" pad="1"/>
<contactref element="U$1" pad="P$1"/>
<wire x1="22.86" y1="25.4" x2="27.94" y2="25.4" width="0.4064" layer="16"/>
<wire x1="27.94" y1="25.4" x2="27.94" y2="22.86" width="0.4064" layer="16"/>
<wire x1="27.94" y1="22.86" x2="33.02" y2="22.86" width="0.4064" layer="16"/>
<wire x1="33.02" y1="22.86" x2="45.72" y2="22.86" width="0.4064" layer="16"/>
<wire x1="45.72" y1="22.86" x2="45.72" y2="0" width="0.4064" layer="16"/>
<wire x1="33.02" y1="23.9" x2="33.02" y2="22.86" width="0.4064" layer="1"/>
<via x="33.02" y="22.86" extent="1-16" drill="0.6" shape="square"/>
</signal>
<signal name="N$2">
<contactref element="JP1" pad="1"/>
<contactref element="RFCON1" pad="P$4"/>
<contactref element="RFCON1" pad="P$3"/>
<contactref element="X1" pad="2@4"/>
<contactref element="X1" pad="2@2"/>
<contactref element="X1" pad="2@5"/>
<contactref element="X1" pad="2@1"/>
<contactref element="X1" pad="2@3"/>
<contactref element="X1" pad="2@6"/>
<wire x1="34.47" y1="25.4" x2="35.56" y2="25.4" width="0.4064" layer="1"/>
<wire x1="12.7" y1="25.4" x2="20.06" y2="25.4" width="0.4064" layer="1"/>
<wire x1="20.485" y1="28" x2="25.235" y2="28" width="0.4064" layer="1"/>
<wire x1="25.235" y1="28" x2="30.48" y2="28" width="0.4064" layer="1"/>
<wire x1="30.48" y1="28" x2="30.48" y2="27.94" width="0.4064" layer="1"/>
<wire x1="25.235" y1="28" x2="25.235" y2="22.8" width="0.4064" layer="1"/>
<wire x1="25.66" y1="25.4" x2="25.4" y2="25.4" width="0.4064" layer="1"/>
<wire x1="25.4" y1="25.4" x2="25.4" y2="27.94" width="0.4064" layer="1"/>
<wire x1="25.4" y1="27.94" x2="20.485" y2="27.94" width="0.4064" layer="1"/>
<wire x1="20.485" y1="27.94" x2="20.485" y2="28" width="0.4064" layer="1"/>
<wire x1="20.485" y1="27.94" x2="20.06" y2="27.94" width="0.4064" layer="1"/>
<wire x1="20.06" y1="27.94" x2="20.06" y2="25.4" width="0.4064" layer="1"/>
<wire x1="20.06" y1="25.4" x2="20.485" y2="25.4" width="0.4064" layer="1"/>
<wire x1="20.485" y1="25.4" x2="20.485" y2="22.8" width="0.4064" layer="1"/>
<wire x1="31.57" y1="25.4" x2="30.48" y2="25.4" width="0.4064" layer="1"/>
<wire x1="30.48" y1="25.4" x2="30.48" y2="27.94" width="0.4064" layer="1"/>
<wire x1="30.48" y1="27.94" x2="35.56" y2="27.94" width="0.4064" layer="1"/>
<wire x1="35.56" y1="27.94" x2="35.56" y2="25.4" width="0.4064" layer="1"/>
</signal>
</signals>
</board>
</drawing>
</eagle>
