<?xml version="1.0" encoding="utf-8"?>
<!DOCTYPE eagle SYSTEM "eagle.dtd">
<eagle version="7.2.0">
<drawing>
<settings>
<setting alwaysvectorfont="no"/>
<setting verticaltext="up"/>
</settings>
<grid distance="0.01" unitdist="inch" unit="inch" style="lines" multiple="1" display="no" altdistance="0.025" altunitdist="inch" altunit="inch"/>
<layers>
<layer number="1" name="Top" color="4" fill="1" visible="yes" active="yes"/>
<layer number="16" name="Bottom" color="1" fill="1" visible="yes" active="yes"/>
<layer number="17" name="Pads" color="2" fill="1" visible="yes" active="yes"/>
<layer number="18" name="Vias" color="2" fill="1" visible="yes" active="yes"/>
<layer number="19" name="Unrouted" color="6" fill="1" visible="yes" active="yes"/>
<layer number="20" name="Dimension" color="15" fill="1" visible="yes" active="yes"/>
<layer number="21" name="tPlace" color="7" fill="1" visible="yes" active="yes"/>
<layer number="22" name="bPlace" color="7" fill="1" visible="yes" active="yes"/>
<layer number="23" name="tOrigins" color="15" fill="1" visible="yes" active="yes"/>
<layer number="24" name="bOrigins" color="15" fill="1" visible="yes" active="yes"/>
<layer number="25" name="tNames" color="7" fill="1" visible="yes" active="yes"/>
<layer number="26" name="bNames" color="7" fill="1" visible="yes" active="yes"/>
<layer number="27" name="tValues" color="7" fill="1" visible="yes" active="yes"/>
<layer number="28" name="bValues" color="7" fill="1" visible="yes" active="yes"/>
<layer number="29" name="tStop" color="7" fill="3" visible="no" active="yes"/>
<layer number="30" name="bStop" color="7" fill="6" visible="no" active="yes"/>
<layer number="31" name="tCream" color="7" fill="4" visible="no" active="yes"/>
<layer number="32" name="bCream" color="7" fill="5" visible="no" active="yes"/>
<layer number="33" name="tFinish" color="6" fill="3" visible="no" active="yes"/>
<layer number="34" name="bFinish" color="6" fill="6" visible="no" active="yes"/>
<layer number="35" name="tGlue" color="7" fill="4" visible="no" active="yes"/>
<layer number="36" name="bGlue" color="7" fill="5" visible="no" active="yes"/>
<layer number="37" name="tTest" color="7" fill="1" visible="no" active="yes"/>
<layer number="38" name="bTest" color="7" fill="1" visible="no" active="yes"/>
<layer number="39" name="tKeepout" color="4" fill="11" visible="yes" active="yes"/>
<layer number="40" name="bKeepout" color="1" fill="11" visible="yes" active="yes"/>
<layer number="41" name="tRestrict" color="4" fill="10" visible="yes" active="yes"/>
<layer number="42" name="bRestrict" color="1" fill="10" visible="yes" active="yes"/>
<layer number="43" name="vRestrict" color="2" fill="10" visible="yes" active="yes"/>
<layer number="44" name="Drills" color="7" fill="1" visible="no" active="yes"/>
<layer number="45" name="Holes" color="7" fill="1" visible="no" active="yes"/>
<layer number="46" name="Milling" color="3" fill="1" visible="no" active="yes"/>
<layer number="47" name="Measures" color="7" fill="1" visible="no" active="yes"/>
<layer number="48" name="Document" color="7" fill="1" visible="yes" active="yes"/>
<layer number="49" name="Reference" color="7" fill="1" visible="yes" active="yes"/>
<layer number="51" name="tDocu" color="7" fill="1" visible="yes" active="yes"/>
<layer number="52" name="bDocu" color="7" fill="1" visible="yes" active="yes"/>
<layer number="90" name="Modules" color="5" fill="1" visible="no" active="no"/>
<layer number="91" name="Nets" color="2" fill="1" visible="no" active="no"/>
<layer number="92" name="Busses" color="1" fill="1" visible="no" active="no"/>
<layer number="93" name="Pins" color="2" fill="1" visible="no" active="no"/>
<layer number="94" name="Symbols" color="4" fill="1" visible="no" active="no"/>
<layer number="95" name="Names" color="7" fill="1" visible="no" active="no"/>
<layer number="96" name="Values" color="7" fill="1" visible="no" active="no"/>
<layer number="97" name="Info" color="7" fill="1" visible="no" active="no"/>
<layer number="98" name="Guide" color="6" fill="1" visible="no" active="no"/>
</layers>
<board>
<plain>
<wire x1="0" y1="0" x2="100" y2="0" width="0" layer="20"/>
<wire x1="100" y1="0" x2="100" y2="80" width="0" layer="20"/>
<wire x1="100" y1="80" x2="0" y2="80" width="0" layer="20"/>
<wire x1="0" y1="80" x2="0" y2="0" width="0" layer="20"/>
</plain>
<libraries>
<library name="STX3">
<packages>
<package name="STX3">
<smd name="1" x="-8.89" y="10.16" dx="2.032" dy="1.9304" layer="1"/>
<smd name="2" x="-8.89" y="7.62" dx="2.032" dy="1.9304" layer="1"/>
<smd name="3" x="-8.89" y="5.08" dx="2.032" dy="1.9304" layer="1"/>
<smd name="4" x="-8.89" y="2.54" dx="2.032" dy="1.9304" layer="1"/>
<smd name="5" x="-8.89" y="0" dx="2.032" dy="1.9304" layer="1"/>
<smd name="6" x="-8.89" y="-2.54" dx="2.032" dy="1.9304" layer="1"/>
<smd name="7" x="-8.89" y="-5.08" dx="2.032" dy="1.9304" layer="1"/>
<smd name="8" x="-8.89" y="-7.62" dx="2.032" dy="1.9304" layer="1"/>
<smd name="9" x="-8.89" y="-10.16" dx="2.032" dy="1.9304" layer="1"/>
<smd name="25" x="8.89" y="10.16" dx="2.032" dy="1.9304" layer="1"/>
<smd name="24" x="8.89" y="7.62" dx="2.032" dy="1.9304" layer="1"/>
<smd name="23" x="8.89" y="5.08" dx="2.032" dy="1.9304" layer="1"/>
<smd name="22" x="8.89" y="2.54" dx="2.032" dy="1.9304" layer="1"/>
<smd name="21" x="8.89" y="0" dx="2.032" dy="1.9304" layer="1"/>
<smd name="20" x="8.89" y="-2.54" dx="2.032" dy="1.9304" layer="1"/>
<smd name="19" x="8.89" y="-5.08" dx="2.032" dy="1.9304" layer="1"/>
<smd name="18" x="8.89" y="-7.62" dx="2.032" dy="1.9304" layer="1"/>
<smd name="17" x="8.89" y="-10.16" dx="2.032" dy="1.9304" layer="1"/>
<smd name="32" x="-7.62" y="12.7" dx="2.032" dy="1.9304" layer="1"/>
<smd name="31" x="-5.08" y="12.7" dx="2.032" dy="1.9304" layer="1"/>
<smd name="30" x="-2.54" y="12.7" dx="2.032" dy="1.9304" layer="1"/>
<smd name="29" x="0" y="12.7" dx="2.032" dy="1.9304" layer="1"/>
<smd name="28" x="2.54" y="12.7" dx="2.032" dy="1.9304" layer="1"/>
<smd name="27" x="5.08" y="12.7" dx="2.032" dy="1.9304" layer="1"/>
<smd name="26" x="7.62" y="12.7" dx="2.032" dy="1.9304" layer="1"/>
<smd name="10" x="-7.62" y="-12.7" dx="2.032" dy="1.9304" layer="1"/>
<smd name="11" x="-5.08" y="-12.7" dx="2.032" dy="1.9304" layer="1"/>
<smd name="12" x="-2.54" y="-12.7" dx="2.032" dy="1.9304" layer="1"/>
<smd name="16" x="7.62" y="-12.7" dx="2.032" dy="1.9304" layer="1"/>
<smd name="15" x="5.08" y="-12.7" dx="2.032" dy="1.9304" layer="1"/>
<smd name="14" x="2.54" y="-12.7" dx="2.032" dy="1.9304" layer="1"/>
<smd name="13" x="0" y="-12.7" dx="2.032" dy="1.9304" layer="1"/>
<text x="-2.54" y="5.08" size="1.27" layer="21">STX3</text>
</package>
<package name="GSANTENNA">
<polygon width="1" layer="1">
<vertex x="-35" y="20"/>
<vertex x="0" y="20"/>
<vertex x="10" y="10"/>
<vertex x="10" y="-20"/>
<vertex x="-25" y="-20"/>
<vertex x="-35" y="-10"/>
</polygon>
<pad name="P$1" x="0" y="0" drill="1" shape="square"/>
<smd name="GND" x="6.35" y="-19.05" dx="1.27" dy="0.635" layer="1"/>
</package>
</packages>
</library>
<library name="minicircuits">
<description>&lt;b&gt;RF/IF MICROWAVE COMPONENTS&lt;/b&gt;&lt;p&gt;
www.minicircuits.com&lt;br&gt;
&lt;author&gt;Created by librarian@cadsoft.de&lt;/author&gt;</description>
<packages>
<package name="DG983-1">
<description>DG983-1
Source: http://www.minicircuits.com .. HSWA2-30DR+.pdf</description>
<wire x1="-2" y1="2" x2="2" y2="2" width="0.2032" layer="51"/>
<wire x1="2" y1="2" x2="2" y2="-2" width="0.2032" layer="51"/>
<wire x1="2" y1="-2" x2="-2" y2="-2" width="0.2032" layer="51"/>
<wire x1="-2" y1="-2" x2="-2" y2="2" width="0.2032" layer="51"/>
<smd name="X" x="0" y="0" dx="1.78" dy="1.78" layer="1" stop="no"/>
<smd name="1" x="-1.775" y="1" dx="0.66" dy="0.31" layer="1" stop="no"/>
<smd name="2" x="-1.775" y="0.5" dx="0.66" dy="0.31" layer="1" stop="no"/>
<smd name="3" x="-1.775" y="0" dx="0.66" dy="0.31" layer="1" stop="no"/>
<smd name="4" x="-1.775" y="-0.5" dx="0.66" dy="0.31" layer="1" stop="no"/>
<smd name="5" x="-1.775" y="-1" dx="0.66" dy="0.31" layer="1" stop="no"/>
<smd name="6" x="-1" y="-1.775" dx="0.66" dy="0.31" layer="1" rot="R90" stop="no"/>
<smd name="7" x="-0.5" y="-1.775" dx="0.66" dy="0.31" layer="1" rot="R90" stop="no"/>
<smd name="8" x="0" y="-1.775" dx="0.66" dy="0.31" layer="1" rot="R90" stop="no"/>
<smd name="9" x="0.5" y="-1.775" dx="0.66" dy="0.31" layer="1" rot="R90" stop="no"/>
<smd name="10" x="1" y="-1.775" dx="0.66" dy="0.31" layer="1" rot="R90" stop="no"/>
<smd name="11" x="1.775" y="-1" dx="0.66" dy="0.31" layer="1" rot="R180" stop="no"/>
<smd name="12" x="1.775" y="-0.5" dx="0.66" dy="0.31" layer="1" rot="R180" stop="no"/>
<smd name="13" x="1.775" y="0" dx="0.66" dy="0.31" layer="1" rot="R180" stop="no"/>
<smd name="14" x="1.775" y="0.5" dx="0.66" dy="0.31" layer="1" rot="R180" stop="no"/>
<smd name="15" x="1.775" y="1" dx="0.66" dy="0.31" layer="1" rot="R180" stop="no"/>
<smd name="16" x="1" y="1.775" dx="0.66" dy="0.31" layer="1" rot="R270" stop="no"/>
<smd name="17" x="0.5" y="1.775" dx="0.66" dy="0.31" layer="1" rot="R270" stop="no"/>
<smd name="18" x="0" y="1.775" dx="0.66" dy="0.31" layer="1" rot="R270" stop="no"/>
<smd name="19" x="-0.5" y="1.775" dx="0.66" dy="0.31" layer="1" rot="R270" stop="no"/>
<smd name="20" x="-1" y="1.775" dx="0.66" dy="0.31" layer="1" rot="R270" stop="no"/>
<rectangle x1="-2" y1="1.5" x2="-1.5" y2="2" layer="1"/>
<rectangle x1="-2.15" y1="0.8" x2="-1.4" y2="1.2" layer="29"/>
<rectangle x1="-2.15" y1="0.3" x2="-1.4" y2="0.7" layer="29"/>
<rectangle x1="-2.15" y1="-0.2" x2="-1.4" y2="0.2" layer="29"/>
<rectangle x1="-2.15" y1="-0.7" x2="-1.4" y2="-0.3" layer="29"/>
<rectangle x1="-2.15" y1="-1.2" x2="-1.4" y2="-0.8" layer="29"/>
<rectangle x1="-1.375" y1="-1.975" x2="-0.625" y2="-1.575" layer="29" rot="R90"/>
<rectangle x1="-0.875" y1="-1.975" x2="-0.125" y2="-1.575" layer="29" rot="R90"/>
<rectangle x1="-0.375" y1="-1.975" x2="0.375" y2="-1.575" layer="29" rot="R90"/>
<rectangle x1="0.125" y1="-1.975" x2="0.875" y2="-1.575" layer="29" rot="R90"/>
<rectangle x1="0.625" y1="-1.975" x2="1.375" y2="-1.575" layer="29" rot="R90"/>
<rectangle x1="1.4" y1="-1.2" x2="2.15" y2="-0.8" layer="29" rot="R180"/>
<rectangle x1="1.4" y1="-0.7" x2="2.15" y2="-0.3" layer="29" rot="R180"/>
<rectangle x1="1.4" y1="-0.2" x2="2.15" y2="0.2" layer="29" rot="R180"/>
<rectangle x1="1.4" y1="0.3" x2="2.15" y2="0.7" layer="29" rot="R180"/>
<rectangle x1="1.4" y1="0.8" x2="2.15" y2="1.2" layer="29" rot="R180"/>
<rectangle x1="0.625" y1="1.575" x2="1.375" y2="1.975" layer="29" rot="R270"/>
<rectangle x1="0.125" y1="1.575" x2="0.875" y2="1.975" layer="29" rot="R270"/>
<rectangle x1="-0.375" y1="1.575" x2="0.375" y2="1.975" layer="29" rot="R270"/>
<rectangle x1="-0.875" y1="1.575" x2="-0.125" y2="1.975" layer="29" rot="R270"/>
<rectangle x1="-1.375" y1="1.575" x2="-0.625" y2="1.975" layer="29" rot="R270"/>
<rectangle x1="-0.95" y1="-0.95" x2="0.95" y2="0.95" layer="29"/>
</package>
</packages>
</library>
<library name="con-coax">
<description>&lt;b&gt;Coax Connectors&lt;/b&gt;&lt;p&gt;
Radiall  and M/A COM.&lt;p&gt;
&lt;author&gt;Created by librarian@cadsoft.de&lt;/author&gt;</description>
<packages>
<package name="SMA-SMD">
<description>&lt;b&gt;SMA 50 Ohm Straight Jack Receptacle - Surface Mount&lt;/b&gt;&lt;p&gt;
www.johnsoncomponents.com&lt;br&gt;
Source:  http://catalog.digikey.com .. 142-0711-201, 205, 202, 206.pdf</description>
<wire x1="-1.1" y1="3.2" x2="1.1" y2="3.2" width="0.2032" layer="21"/>
<wire x1="1.1" y1="-3.2" x2="-1.1" y2="-3.2" width="0.2032" layer="21"/>
<wire x1="-3.1999" y1="3.1999" x2="3.2" y2="3.2" width="0.2032" layer="51"/>
<wire x1="3.2" y1="3.2" x2="3.1999" y2="-3.1999" width="0.2032" layer="51"/>
<wire x1="3.1999" y1="-3.1999" x2="-3.2" y2="-3.2" width="0.2032" layer="51"/>
<wire x1="-3.2" y1="-3.2" x2="-3.1999" y2="3.1999" width="0.2032" layer="51"/>
<circle x="0" y="0" radius="3.1999" width="0.2032" layer="51"/>
<circle x="0" y="0" radius="1.7" width="0.2032" layer="21"/>
<smd name="1" x="0" y="0" dx="1.73" dy="1.73" layer="1" roundness="100"/>
<smd name="2@2" x="-2.375" y="-2.6" dx="2.35" dy="1.9" layer="1"/>
<smd name="2@1" x="-2.375" y="2.6" dx="2.35" dy="1.9" layer="1"/>
<smd name="2@5" x="-2.8" y="0" dx="1.5" dy="3.4" layer="1"/>
<smd name="2@4" x="2.375" y="2.6" dx="2.35" dy="1.9" layer="1" rot="R180"/>
<smd name="2@3" x="2.375" y="-2.6" dx="2.35" dy="1.9" layer="1" rot="R180"/>
<smd name="2@6" x="2.8" y="0" dx="1.5" dy="3.4" layer="1" rot="R180"/>
<text x="-2.54" y="4.445" size="1.27" layer="25">&gt;NAME</text>
<text x="-3.175" y="-5.715" size="1.27" layer="27">&gt;VALUE</text>
</package>
</packages>
</library>
<library name="Drifters">
<packages>
<package name="MCX-PCB">
<smd name="P$1" x="0" y="1.5" dx="1" dy="1" layer="1"/>
<smd name="RF" x="0" y="-1.5" dx="1" dy="1" layer="1"/>
<smd name="P$3" x="-1.45" y="0" dx="1.05" dy="2" layer="1"/>
<smd name="P$4" x="1.45" y="0" dx="1.05" dy="2" layer="1"/>
<wire x1="-1.4" y1="1.4" x2="-1.4" y2="0.9" width="0.127" layer="51"/>
<wire x1="-1.4" y1="0.9" x2="-1.4" y2="-0.9" width="0.127" layer="51"/>
<wire x1="-1.4" y1="-0.9" x2="-1.4" y2="-1.3" width="0.127" layer="51"/>
<wire x1="-1.4" y1="-1.3" x2="-1.3" y2="-1.4" width="0.127" layer="51"/>
<wire x1="-1.3" y1="-1.4" x2="1.4" y2="-1.4" width="0.127" layer="51"/>
<wire x1="1.4" y1="-1.4" x2="1.4" y2="-0.9" width="0.127" layer="51"/>
<wire x1="1.4" y1="-0.9" x2="1.4" y2="0.9" width="0.127" layer="51"/>
<wire x1="1.4" y1="0.9" x2="1.4" y2="1.4" width="0.127" layer="51"/>
<wire x1="1.4" y1="1.4" x2="0.3" y2="1.4" width="0.127" layer="51"/>
<wire x1="0.3" y1="1.4" x2="-1.4" y2="1.4" width="0.127" layer="51"/>
<wire x1="-0.3" y1="1.45" x2="-0.3" y2="1.55" width="0.127" layer="51"/>
<wire x1="-0.3" y1="1.55" x2="0.3" y2="1.55" width="0.127" layer="51"/>
<wire x1="0.3" y1="1.55" x2="0.3" y2="1.4" width="0.127" layer="51"/>
<wire x1="-1.4" y1="0.9" x2="-1.55" y2="0.9" width="0.127" layer="51"/>
<wire x1="-1.55" y1="0.9" x2="-1.55" y2="-0.9" width="0.127" layer="51"/>
<wire x1="-1.55" y1="-0.9" x2="-1.4" y2="-0.9" width="0.127" layer="51"/>
<wire x1="1.4" y1="-0.9" x2="1.5" y2="-0.9" width="0.127" layer="51"/>
<wire x1="1.5" y1="-0.9" x2="1.5" y2="0.9" width="0.127" layer="51"/>
<wire x1="1.5" y1="0.9" x2="1.4" y2="0.9" width="0.127" layer="51"/>
<wire x1="-2.3" y1="2.3" x2="-2.3" y2="-2.3" width="0.127" layer="21"/>
<wire x1="-2.3" y1="-2.3" x2="2.3" y2="-2.3" width="0.127" layer="21"/>
<wire x1="2.3" y1="-2.3" x2="2.3" y2="2.3" width="0.127" layer="21"/>
<wire x1="2.3" y1="2.3" x2="-2.3" y2="2.3" width="0.127" layer="21"/>
<circle x="-2.8" y="2.05" radius="0.05" width="0.8128" layer="21"/>
<text x="2.55" y="0.85" size="1.27" layer="25">&gt;NAME</text>
<text x="2.6" y="-1.05" size="1" layer="27">&gt;VALUE</text>
</package>
</packages>
</library>
<library name="con-lstb">
<description>&lt;b&gt;Pin Headers&lt;/b&gt;&lt;p&gt;
Naming:&lt;p&gt;
MA = male&lt;p&gt;
# contacts - # rows&lt;p&gt;
W = angled&lt;p&gt;
&lt;author&gt;Created by librarian@cadsoft.de&lt;/author&gt;</description>
<packages>
<package name="MA04-1">
<description>&lt;b&gt;PIN HEADER&lt;/b&gt;</description>
<wire x1="-4.445" y1="1.27" x2="-3.175" y2="1.27" width="0.1524" layer="21"/>
<wire x1="-3.175" y1="1.27" x2="-2.54" y2="0.635" width="0.1524" layer="21"/>
<wire x1="-2.54" y1="-0.635" x2="-3.175" y2="-1.27" width="0.1524" layer="21"/>
<wire x1="-2.54" y1="0.635" x2="-1.905" y2="1.27" width="0.1524" layer="21"/>
<wire x1="-1.905" y1="1.27" x2="-0.635" y2="1.27" width="0.1524" layer="21"/>
<wire x1="-0.635" y1="1.27" x2="0" y2="0.635" width="0.1524" layer="21"/>
<wire x1="0" y1="-0.635" x2="-0.635" y2="-1.27" width="0.1524" layer="21"/>
<wire x1="-0.635" y1="-1.27" x2="-1.905" y2="-1.27" width="0.1524" layer="21"/>
<wire x1="-1.905" y1="-1.27" x2="-2.54" y2="-0.635" width="0.1524" layer="21"/>
<wire x1="-5.08" y1="0.635" x2="-5.08" y2="-0.635" width="0.1524" layer="21"/>
<wire x1="-4.445" y1="1.27" x2="-5.08" y2="0.635" width="0.1524" layer="21"/>
<wire x1="-5.08" y1="-0.635" x2="-4.445" y2="-1.27" width="0.1524" layer="21"/>
<wire x1="-3.175" y1="-1.27" x2="-4.445" y2="-1.27" width="0.1524" layer="21"/>
<wire x1="0" y1="0.635" x2="0.635" y2="1.27" width="0.1524" layer="21"/>
<wire x1="0.635" y1="1.27" x2="1.905" y2="1.27" width="0.1524" layer="21"/>
<wire x1="1.905" y1="1.27" x2="2.54" y2="0.635" width="0.1524" layer="21"/>
<wire x1="2.54" y1="-0.635" x2="1.905" y2="-1.27" width="0.1524" layer="21"/>
<wire x1="1.905" y1="-1.27" x2="0.635" y2="-1.27" width="0.1524" layer="21"/>
<wire x1="0.635" y1="-1.27" x2="0" y2="-0.635" width="0.1524" layer="21"/>
<wire x1="3.175" y1="1.27" x2="4.445" y2="1.27" width="0.1524" layer="21"/>
<wire x1="4.445" y1="1.27" x2="5.08" y2="0.635" width="0.1524" layer="21"/>
<wire x1="5.08" y1="0.635" x2="5.08" y2="-0.635" width="0.1524" layer="21"/>
<wire x1="5.08" y1="-0.635" x2="4.445" y2="-1.27" width="0.1524" layer="21"/>
<wire x1="3.175" y1="1.27" x2="2.54" y2="0.635" width="0.1524" layer="21"/>
<wire x1="2.54" y1="-0.635" x2="3.175" y2="-1.27" width="0.1524" layer="21"/>
<wire x1="4.445" y1="-1.27" x2="3.175" y2="-1.27" width="0.1524" layer="21"/>
<pad name="1" x="-3.81" y="0" drill="1.016" shape="long" rot="R90"/>
<pad name="2" x="-1.27" y="0" drill="1.016" shape="long" rot="R90"/>
<pad name="3" x="1.27" y="0" drill="1.016" shape="long" rot="R90"/>
<pad name="4" x="3.81" y="0" drill="1.016" shape="long" rot="R90"/>
<text x="-5.08" y="1.651" size="1.27" layer="25" ratio="10">&gt;NAME</text>
<text x="-6.223" y="-0.635" size="1.27" layer="21" ratio="10">1</text>
<text x="0.635" y="1.651" size="1.27" layer="27" ratio="10">&gt;VALUE</text>
<text x="5.334" y="-0.635" size="1.27" layer="21" ratio="10">4</text>
<rectangle x1="-1.524" y1="-0.254" x2="-1.016" y2="0.254" layer="51"/>
<rectangle x1="-4.064" y1="-0.254" x2="-3.556" y2="0.254" layer="51"/>
<rectangle x1="1.016" y1="-0.254" x2="1.524" y2="0.254" layer="51"/>
<rectangle x1="3.556" y1="-0.254" x2="4.064" y2="0.254" layer="51"/>
</package>
<package name="MA10-1">
<description>&lt;b&gt;PIN HEADER&lt;/b&gt;</description>
<wire x1="-12.065" y1="1.27" x2="-10.795" y2="1.27" width="0.1524" layer="21"/>
<wire x1="-10.795" y1="1.27" x2="-10.16" y2="0.635" width="0.1524" layer="21"/>
<wire x1="-10.16" y1="-0.635" x2="-10.795" y2="-1.27" width="0.1524" layer="21"/>
<wire x1="-10.16" y1="0.635" x2="-9.525" y2="1.27" width="0.1524" layer="21"/>
<wire x1="-9.525" y1="1.27" x2="-8.255" y2="1.27" width="0.1524" layer="21"/>
<wire x1="-8.255" y1="1.27" x2="-7.62" y2="0.635" width="0.1524" layer="21"/>
<wire x1="-7.62" y1="-0.635" x2="-8.255" y2="-1.27" width="0.1524" layer="21"/>
<wire x1="-8.255" y1="-1.27" x2="-9.525" y2="-1.27" width="0.1524" layer="21"/>
<wire x1="-9.525" y1="-1.27" x2="-10.16" y2="-0.635" width="0.1524" layer="21"/>
<wire x1="-12.7" y1="0.635" x2="-12.7" y2="-0.635" width="0.1524" layer="21"/>
<wire x1="-12.065" y1="1.27" x2="-12.7" y2="0.635" width="0.1524" layer="21"/>
<wire x1="-12.7" y1="-0.635" x2="-12.065" y2="-1.27" width="0.1524" layer="21"/>
<wire x1="-10.795" y1="-1.27" x2="-12.065" y2="-1.27" width="0.1524" layer="21"/>
<wire x1="-7.62" y1="0.635" x2="-6.985" y2="1.27" width="0.1524" layer="21"/>
<wire x1="-6.985" y1="1.27" x2="-5.715" y2="1.27" width="0.1524" layer="21"/>
<wire x1="-5.715" y1="1.27" x2="-5.08" y2="0.635" width="0.1524" layer="21"/>
<wire x1="-5.08" y1="-0.635" x2="-5.715" y2="-1.27" width="0.1524" layer="21"/>
<wire x1="-5.715" y1="-1.27" x2="-6.985" y2="-1.27" width="0.1524" layer="21"/>
<wire x1="-6.985" y1="-1.27" x2="-7.62" y2="-0.635" width="0.1524" layer="21"/>
<wire x1="-4.445" y1="1.27" x2="-3.175" y2="1.27" width="0.1524" layer="21"/>
<wire x1="-3.175" y1="1.27" x2="-2.54" y2="0.635" width="0.1524" layer="21"/>
<wire x1="-2.54" y1="-0.635" x2="-3.175" y2="-1.27" width="0.1524" layer="21"/>
<wire x1="-4.445" y1="1.27" x2="-5.08" y2="0.635" width="0.1524" layer="21"/>
<wire x1="-5.08" y1="-0.635" x2="-4.445" y2="-1.27" width="0.1524" layer="21"/>
<wire x1="-3.175" y1="-1.27" x2="-4.445" y2="-1.27" width="0.1524" layer="21"/>
<wire x1="-1.905" y1="1.27" x2="-0.635" y2="1.27" width="0.1524" layer="21"/>
<wire x1="-0.635" y1="1.27" x2="0" y2="0.635" width="0.1524" layer="21"/>
<wire x1="0" y1="-0.635" x2="-0.635" y2="-1.27" width="0.1524" layer="21"/>
<wire x1="0" y1="0.635" x2="0.635" y2="1.27" width="0.1524" layer="21"/>
<wire x1="0.635" y1="1.27" x2="1.905" y2="1.27" width="0.1524" layer="21"/>
<wire x1="1.905" y1="1.27" x2="2.54" y2="0.635" width="0.1524" layer="21"/>
<wire x1="2.54" y1="-0.635" x2="1.905" y2="-1.27" width="0.1524" layer="21"/>
<wire x1="1.905" y1="-1.27" x2="0.635" y2="-1.27" width="0.1524" layer="21"/>
<wire x1="0.635" y1="-1.27" x2="0" y2="-0.635" width="0.1524" layer="21"/>
<wire x1="-1.905" y1="1.27" x2="-2.54" y2="0.635" width="0.1524" layer="21"/>
<wire x1="-2.54" y1="-0.635" x2="-1.905" y2="-1.27" width="0.1524" layer="21"/>
<wire x1="-0.635" y1="-1.27" x2="-1.905" y2="-1.27" width="0.1524" layer="21"/>
<wire x1="2.54" y1="0.635" x2="3.175" y2="1.27" width="0.1524" layer="21"/>
<wire x1="3.175" y1="1.27" x2="4.445" y2="1.27" width="0.1524" layer="21"/>
<wire x1="4.445" y1="1.27" x2="5.08" y2="0.635" width="0.1524" layer="21"/>
<wire x1="5.08" y1="-0.635" x2="4.445" y2="-1.27" width="0.1524" layer="21"/>
<wire x1="4.445" y1="-1.27" x2="3.175" y2="-1.27" width="0.1524" layer="21"/>
<wire x1="3.175" y1="-1.27" x2="2.54" y2="-0.635" width="0.1524" layer="21"/>
<wire x1="5.715" y1="1.27" x2="6.985" y2="1.27" width="0.1524" layer="21"/>
<wire x1="6.985" y1="1.27" x2="7.62" y2="0.635" width="0.1524" layer="21"/>
<wire x1="7.62" y1="-0.635" x2="6.985" y2="-1.27" width="0.1524" layer="21"/>
<wire x1="5.715" y1="1.27" x2="5.08" y2="0.635" width="0.1524" layer="21"/>
<wire x1="5.08" y1="-0.635" x2="5.715" y2="-1.27" width="0.1524" layer="21"/>
<wire x1="6.985" y1="-1.27" x2="5.715" y2="-1.27" width="0.1524" layer="21"/>
<wire x1="8.255" y1="1.27" x2="9.525" y2="1.27" width="0.1524" layer="21"/>
<wire x1="9.525" y1="1.27" x2="10.16" y2="0.635" width="0.1524" layer="21"/>
<wire x1="10.16" y1="-0.635" x2="9.525" y2="-1.27" width="0.1524" layer="21"/>
<wire x1="10.16" y1="0.635" x2="10.795" y2="1.27" width="0.1524" layer="21"/>
<wire x1="10.795" y1="1.27" x2="12.065" y2="1.27" width="0.1524" layer="21"/>
<wire x1="12.065" y1="1.27" x2="12.7" y2="0.635" width="0.1524" layer="21"/>
<wire x1="12.7" y1="-0.635" x2="12.065" y2="-1.27" width="0.1524" layer="21"/>
<wire x1="12.065" y1="-1.27" x2="10.795" y2="-1.27" width="0.1524" layer="21"/>
<wire x1="10.795" y1="-1.27" x2="10.16" y2="-0.635" width="0.1524" layer="21"/>
<wire x1="8.255" y1="1.27" x2="7.62" y2="0.635" width="0.1524" layer="21"/>
<wire x1="7.62" y1="-0.635" x2="8.255" y2="-1.27" width="0.1524" layer="21"/>
<wire x1="9.525" y1="-1.27" x2="8.255" y2="-1.27" width="0.1524" layer="21"/>
<wire x1="12.7" y1="0.635" x2="12.7" y2="-0.635" width="0.1524" layer="21"/>
<pad name="1" x="-11.43" y="0" drill="1.016" shape="long" rot="R90"/>
<pad name="2" x="-8.89" y="0" drill="1.016" shape="long" rot="R90"/>
<pad name="3" x="-6.35" y="0" drill="1.016" shape="long" rot="R90"/>
<pad name="4" x="-3.81" y="0" drill="1.016" shape="long" rot="R90"/>
<pad name="5" x="-1.27" y="0" drill="1.016" shape="long" rot="R90"/>
<pad name="6" x="1.27" y="0" drill="1.016" shape="long" rot="R90"/>
<pad name="7" x="3.81" y="0" drill="1.016" shape="long" rot="R90"/>
<pad name="8" x="6.35" y="0" drill="1.016" shape="long" rot="R90"/>
<pad name="9" x="8.89" y="0" drill="1.016" shape="long" rot="R90"/>
<pad name="10" x="11.43" y="0" drill="1.016" shape="long" rot="R90"/>
<text x="-12.7" y="1.651" size="1.27" layer="25" ratio="10">&gt;NAME</text>
<text x="-11.938" y="-2.921" size="1.27" layer="21" ratio="10">1</text>
<text x="10.795" y="1.651" size="1.27" layer="21" ratio="10">10</text>
<text x="1.27" y="-2.921" size="1.27" layer="27" ratio="10">&gt;VALUE</text>
<rectangle x1="-9.144" y1="-0.254" x2="-8.636" y2="0.254" layer="51"/>
<rectangle x1="-11.684" y1="-0.254" x2="-11.176" y2="0.254" layer="51"/>
<rectangle x1="-6.604" y1="-0.254" x2="-6.096" y2="0.254" layer="51"/>
<rectangle x1="-4.064" y1="-0.254" x2="-3.556" y2="0.254" layer="51"/>
<rectangle x1="1.016" y1="-0.254" x2="1.524" y2="0.254" layer="51"/>
<rectangle x1="-1.524" y1="-0.254" x2="-1.016" y2="0.254" layer="51"/>
<rectangle x1="3.556" y1="-0.254" x2="4.064" y2="0.254" layer="51"/>
<rectangle x1="6.096" y1="-0.254" x2="6.604" y2="0.254" layer="51"/>
<rectangle x1="11.176" y1="-0.254" x2="11.684" y2="0.254" layer="51"/>
<rectangle x1="8.636" y1="-0.254" x2="9.144" y2="0.254" layer="51"/>
</package>
</packages>
</library>
</libraries>
<attributes>
</attributes>
<variantdefs>
</variantdefs>
<classes>
<class number="0" name="default" width="0" drill="0">
</class>
</classes>
<designrules name="default">
<description language="de">&lt;b&gt;EAGLE Design Rules&lt;/b&gt;
&lt;p&gt;
Die Standard-Design-Rules sind so gewählt, dass sie für 
die meisten Anwendungen passen. Sollte ihre Platine 
besondere Anforderungen haben, treffen Sie die erforderlichen
Einstellungen hier und speichern die Design Rules unter 
einem neuen Namen ab.</description>
<description language="en">&lt;b&gt;EAGLE Design Rules&lt;/b&gt;
&lt;p&gt;
The default Design Rules have been set to cover
a wide range of applications. Your particular design
may have different requirements, so please make the
necessary adjustments and save your customized
design rules under a new name.</description>
<param name="layerSetup" value="(1*16)"/>
<param name="mtCopper" value="0.035mm 0.035mm 0.035mm 0.035mm 0.035mm 0.035mm 0.035mm 0.035mm 0.035mm 0.035mm 0.035mm 0.035mm 0.035mm 0.035mm 0.035mm 0.035mm"/>
<param name="mtIsolate" value="1.5mm 0.15mm 0.2mm 0.15mm 0.2mm 0.15mm 0.2mm 0.15mm 0.2mm 0.15mm 0.2mm 0.15mm 0.2mm 0.15mm 0.2mm"/>
<param name="mdWireWire" value="8mil"/>
<param name="mdWirePad" value="8mil"/>
<param name="mdWireVia" value="8mil"/>
<param name="mdPadPad" value="8mil"/>
<param name="mdPadVia" value="8mil"/>
<param name="mdViaVia" value="8mil"/>
<param name="mdSmdPad" value="8mil"/>
<param name="mdSmdVia" value="8mil"/>
<param name="mdSmdSmd" value="8mil"/>
<param name="mdViaViaSameLayer" value="8mil"/>
<param name="mnLayersViaInSmd" value="2"/>
<param name="mdCopperDimension" value="40mil"/>
<param name="mdDrill" value="8mil"/>
<param name="mdSmdStop" value="0mil"/>
<param name="msWidth" value="10mil"/>
<param name="msDrill" value="24mil"/>
<param name="msMicroVia" value="9.99mm"/>
<param name="msBlindViaRatio" value="0.5"/>
<param name="rvPadTop" value="0.25"/>
<param name="rvPadInner" value="0.25"/>
<param name="rvPadBottom" value="0.25"/>
<param name="rvViaOuter" value="0.25"/>
<param name="rvViaInner" value="0.25"/>
<param name="rvMicroViaOuter" value="0.25"/>
<param name="rvMicroViaInner" value="0.25"/>
<param name="rlMinPadTop" value="10mil"/>
<param name="rlMaxPadTop" value="20mil"/>
<param name="rlMinPadInner" value="10mil"/>
<param name="rlMaxPadInner" value="20mil"/>
<param name="rlMinPadBottom" value="10mil"/>
<param name="rlMaxPadBottom" value="20mil"/>
<param name="rlMinViaOuter" value="8mil"/>
<param name="rlMaxViaOuter" value="20mil"/>
<param name="rlMinViaInner" value="8mil"/>
<param name="rlMaxViaInner" value="20mil"/>
<param name="rlMinMicroViaOuter" value="4mil"/>
<param name="rlMaxMicroViaOuter" value="20mil"/>
<param name="rlMinMicroViaInner" value="4mil"/>
<param name="rlMaxMicroViaInner" value="20mil"/>
<param name="psTop" value="-1"/>
<param name="psBottom" value="-1"/>
<param name="psFirst" value="-1"/>
<param name="psElongationLong" value="100"/>
<param name="psElongationOffset" value="100"/>
<param name="mvStopFrame" value="1"/>
<param name="mvCreamFrame" value="0"/>
<param name="mlMinStopFrame" value="4mil"/>
<param name="mlMaxStopFrame" value="4mil"/>
<param name="mlMinCreamFrame" value="0mil"/>
<param name="mlMaxCreamFrame" value="0mil"/>
<param name="mlViaStopLimit" value="0mil"/>
<param name="srRoundness" value="0"/>
<param name="srMinRoundness" value="0mil"/>
<param name="srMaxRoundness" value="0mil"/>
<param name="slThermalIsolate" value="10mil"/>
<param name="slThermalsForVias" value="0"/>
<param name="dpMaxLengthDifference" value="10mm"/>
<param name="dpGapFactor" value="2.5"/>
<param name="checkGrid" value="0"/>
<param name="checkAngle" value="0"/>
<param name="checkFont" value="1"/>
<param name="checkRestrict" value="1"/>
<param name="useDiameter" value="13"/>
<param name="maxErrors" value="50"/>
</designrules>
<autorouter>
<pass name="Default">
<param name="RoutingGrid" value="50mil"/>
<param name="AutoGrid" value="1"/>
<param name="Efforts" value="2"/>
<param name="TopRouterVariant" value="1"/>
<param name="tpViaShape" value="round"/>
<param name="PrefDir.1" value="a"/>
<param name="PrefDir.2" value="0"/>
<param name="PrefDir.3" value="0"/>
<param name="PrefDir.4" value="0"/>
<param name="PrefDir.5" value="0"/>
<param name="PrefDir.6" value="0"/>
<param name="PrefDir.7" value="0"/>
<param name="PrefDir.8" value="0"/>
<param name="PrefDir.9" value="0"/>
<param name="PrefDir.10" value="0"/>
<param name="PrefDir.11" value="0"/>
<param name="PrefDir.12" value="0"/>
<param name="PrefDir.13" value="0"/>
<param name="PrefDir.14" value="0"/>
<param name="PrefDir.15" value="0"/>
<param name="PrefDir.16" value="a"/>
<param name="cfVia" value="8"/>
<param name="cfNonPref" value="5"/>
<param name="cfChangeDir" value="2"/>
<param name="cfOrthStep" value="2"/>
<param name="cfDiagStep" value="3"/>
<param name="cfExtdStep" value="0"/>
<param name="cfBonusStep" value="1"/>
<param name="cfMalusStep" value="1"/>
<param name="cfPadImpact" value="4"/>
<param name="cfSmdImpact" value="4"/>
<param name="cfBusImpact" value="0"/>
<param name="cfHugging" value="3"/>
<param name="cfAvoid" value="4"/>
<param name="cfPolygon" value="10"/>
<param name="cfBase.1" value="0"/>
<param name="cfBase.2" value="1"/>
<param name="cfBase.3" value="1"/>
<param name="cfBase.4" value="1"/>
<param name="cfBase.5" value="1"/>
<param name="cfBase.6" value="1"/>
<param name="cfBase.7" value="1"/>
<param name="cfBase.8" value="1"/>
<param name="cfBase.9" value="1"/>
<param name="cfBase.10" value="1"/>
<param name="cfBase.11" value="1"/>
<param name="cfBase.12" value="1"/>
<param name="cfBase.13" value="1"/>
<param name="cfBase.14" value="1"/>
<param name="cfBase.15" value="1"/>
<param name="cfBase.16" value="0"/>
<param name="mnVias" value="20"/>
<param name="mnSegments" value="9999"/>
<param name="mnExtdSteps" value="9999"/>
<param name="mnRipupLevel" value="10"/>
<param name="mnRipupSteps" value="100"/>
<param name="mnRipupTotal" value="100"/>
</pass>
<pass name="Follow-me" refer="Default" active="yes">
</pass>
<pass name="Busses" refer="Default" active="yes">
<param name="cfNonPref" value="4"/>
<param name="cfBusImpact" value="4"/>
<param name="cfHugging" value="0"/>
<param name="mnVias" value="0"/>
</pass>
<pass name="Route" refer="Default" active="yes">
</pass>
<pass name="Optimize1" refer="Default" active="yes">
<param name="cfVia" value="99"/>
<param name="cfExtdStep" value="10"/>
<param name="cfHugging" value="1"/>
<param name="mnExtdSteps" value="1"/>
<param name="mnRipupLevel" value="0"/>
</pass>
<pass name="Optimize2" refer="Optimize1" active="yes">
<param name="cfNonPref" value="0"/>
<param name="cfChangeDir" value="6"/>
<param name="cfExtdStep" value="0"/>
<param name="cfBonusStep" value="2"/>
<param name="cfMalusStep" value="2"/>
<param name="cfPadImpact" value="2"/>
<param name="cfSmdImpact" value="2"/>
<param name="cfHugging" value="0"/>
</pass>
<pass name="Optimize3" refer="Optimize2" active="yes">
<param name="cfChangeDir" value="8"/>
<param name="cfPadImpact" value="0"/>
<param name="cfSmdImpact" value="0"/>
</pass>
<pass name="Optimize4" refer="Optimize3" active="yes">
<param name="cfChangeDir" value="25"/>
</pass>
</autorouter>
<elements>
<element name="U$1" library="STX3" package="STX3" value="" x="27.94" y="29.21" rot="R90"/>
<element name="U$2" library="STX3" package="GSANTENNA" value="GSANTENNA" x="62.23" y="22.86" rot="R180"/>
<element name="IC1" library="minicircuits" package="DG983-1" value="HSWA2-30DR+" x="25.4" y="8.89">
<attribute name="OC_NEWARK" value="unknown" x="25.4" y="8.89" size="1.778" layer="27" display="off"/>
<attribute name="MPN" value="" x="25.4" y="8.89" size="1.778" layer="27" display="off"/>
<attribute name="MF" value="" x="25.4" y="8.89" size="1.778" layer="27" display="off"/>
<attribute name="OC_FARNELL" value="unknown" x="25.4" y="8.89" size="1.778" layer="27" display="off"/>
</element>
<element name="X1" library="con-coax" package="SMA-SMD" value="SMA-SMD" x="19.05" y="5.08">
<attribute name="OC_NEWARK" value="unknown" x="19.05" y="5.08" size="1.778" layer="27" display="off"/>
<attribute name="MPN" value="" x="19.05" y="5.08" size="1.778" layer="27" display="off"/>
<attribute name="MF" value="" x="19.05" y="5.08" size="1.778" layer="27" display="off"/>
<attribute name="OC_FARNELL" value="unknown" x="19.05" y="5.08" size="1.778" layer="27" display="off"/>
</element>
<element name="RFCON1" library="Drifters" package="MCX-PCB" value="" x="30.48" y="5.08"/>
<element name="SV1" library="con-lstb" package="MA04-1" value="" x="3.81" y="7.62" rot="R90">
<attribute name="OC_NEWARK" value="unknown" x="3.81" y="7.62" size="1.778" layer="27" rot="R90" display="off"/>
<attribute name="MPN" value="" x="3.81" y="7.62" size="1.778" layer="27" rot="R90" display="off"/>
<attribute name="MF" value="" x="3.81" y="7.62" size="1.778" layer="27" rot="R90" display="off"/>
<attribute name="OC_FARNELL" value="unknown" x="3.81" y="7.62" size="1.778" layer="27" rot="R90" display="off"/>
</element>
<element name="SV2" library="con-lstb" package="MA10-1" value="" x="3.81" y="29.21" rot="R90">
<attribute name="OC_NEWARK" value="unknown" x="3.81" y="29.21" size="1.778" layer="27" rot="R90" display="off"/>
<attribute name="MPN" value="" x="3.81" y="29.21" size="1.778" layer="27" rot="R90" display="off"/>
<attribute name="MF" value="" x="3.81" y="29.21" size="1.778" layer="27" rot="R90" display="off"/>
<attribute name="OC_FARNELL" value="unknown" x="3.81" y="29.21" size="1.778" layer="27" rot="R90" display="off"/>
</element>
</elements>
<signals>
<signal name="GND">
<contactref element="IC1" pad="1"/>
<contactref element="IC1" pad="2"/>
<contactref element="IC1" pad="4"/>
<contactref element="IC1" pad="5"/>
<contactref element="IC1" pad="6"/>
<contactref element="IC1" pad="7"/>
<contactref element="IC1" pad="9"/>
<contactref element="IC1" pad="10"/>
<contactref element="IC1" pad="11"/>
<contactref element="IC1" pad="12"/>
<contactref element="IC1" pad="14"/>
<contactref element="IC1" pad="15"/>
<contactref element="IC1" pad="18"/>
<contactref element="IC1" pad="19"/>
<contactref element="RFCON1" pad="P$1"/>
<contactref element="RFCON1" pad="P$3"/>
<contactref element="RFCON1" pad="P$4"/>
<wire x1="31.7754" y1="5.2578" x2="30.6324" y2="6.4008" width="0.254" layer="1"/>
<wire x1="30.6324" y1="6.4008" x2="30.48" y2="6.58" width="0.254" layer="1"/>
<wire x1="31.7754" y1="5.2578" x2="31.93" y2="5.08" width="0.254" layer="1"/>
<wire x1="30.4038" y1="6.6294" x2="29.0322" y2="5.2578" width="0.254" layer="1"/>
<wire x1="29.0322" y1="5.2578" x2="29.03" y2="5.08" width="0.254" layer="1"/>
<wire x1="30.4038" y1="6.6294" x2="30.48" y2="6.58" width="0.254" layer="1"/>
<wire x1="23.5712" y1="9.8298" x2="23.5458" y2="9.8298" width="0.254" layer="1"/>
<wire x1="23.622" y1="10.795" x2="23.5712" y2="9.8298" width="0.254" layer="1"/>
<wire x1="24.638" y1="9.7028" x2="23.622" y2="10.795" width="0.254" layer="1"/>
<wire x1="25.3492" y1="9.652" x2="24.638" y2="9.7028" width="0.254" layer="1"/>
<wire x1="25.4508" y1="9.652" x2="25.3492" y2="9.652" width="0.254" layer="1"/>
<wire x1="25.3746" y1="10.7442" x2="25.146" y2="10.7188" width="0.254" layer="1"/>
<wire x1="25.146" y1="10.7188" x2="25.4508" y2="9.652" width="0.254" layer="1"/>
<wire x1="23.5458" y1="9.8298" x2="23.625" y2="9.89" width="0.254" layer="1"/>
<wire x1="25.3746" y1="10.7442" x2="25.4" y2="10.665" width="0.254" layer="1"/>
<wire x1="25.146" y1="10.7188" x2="24.9174" y2="10.7442" width="0.254" layer="1"/>
<wire x1="24.9174" y1="10.7442" x2="24.9" y2="10.665" width="0.254" layer="1"/>
<wire x1="23.7744" y1="8.001" x2="24.4602" y2="7.3152" width="0.254" layer="1"/>
<wire x1="24.4602" y1="7.3152" x2="24.4" y2="7.115" width="0.254" layer="1"/>
<wire x1="23.7744" y1="8.001" x2="23.625" y2="7.89" width="0.254" layer="1"/>
<wire x1="26.9748" y1="7.7724" x2="26.5176" y2="7.3152" width="0.254" layer="1"/>
<wire x1="26.5176" y1="7.3152" x2="26.4" y2="7.115" width="0.254" layer="1"/>
<wire x1="26.9748" y1="7.7724" x2="27.175" y2="7.89" width="0.254" layer="1"/>
<wire x1="26.3652" y1="9.652" x2="27.178" y2="9.6012" width="0.254" layer="1"/>
<wire x1="27.178" y1="9.6012" x2="27.2034" y2="9.3218" width="0.254" layer="1"/>
<wire x1="26.3652" y1="8.2042" x2="26.3652" y2="9.652" width="0.254" layer="1"/>
<wire x1="27.2034" y1="7.7724" x2="27.14625" y2="8.22325" width="0.254" layer="1"/>
<wire x1="27.14625" y1="8.22325" x2="26.3652" y2="8.2042" width="0.254" layer="1"/>
<wire x1="27.2034" y1="9.3218" x2="27.175" y2="9.89" width="0.254" layer="1"/>
<wire x1="27.2034" y1="7.7724" x2="27.175" y2="7.89" width="0.254" layer="1"/>
<wire x1="25.146" y1="7.6708" x2="24.4602" y2="7.0866" width="0.254" layer="1"/>
<wire x1="25.8318" y1="7.6708" x2="25.146" y2="7.6708" width="0.254" layer="1"/>
<wire x1="26.5176" y1="7.0866" x2="25.8318" y2="7.6708" width="0.254" layer="1"/>
<wire x1="24.4602" y1="7.0866" x2="24.4" y2="7.115" width="0.254" layer="1"/>
<wire x1="24.7904" y1="8.9916" x2="25.4508" y2="9.652" width="0.254" layer="1"/>
<wire x1="25.7048" y1="8.9916" x2="24.7904" y2="8.9916" width="0.254" layer="1"/>
<wire x1="25.908" y1="9.5504" x2="25.7048" y2="8.9916" width="0.254" layer="1"/>
<wire x1="27.178" y1="9.6012" x2="25.908" y2="9.5504" width="0.254" layer="1"/>
<wire x1="28.3464" y1="5.2578" x2="28.8036" y2="5.2578" width="0.254" layer="1"/>
<wire x1="26.5176" y1="7.0866" x2="28.3464" y2="5.2578" width="0.254" layer="1"/>
<wire x1="28.8036" y1="5.2578" x2="29.03" y2="5.08" width="0.254" layer="1"/>
<wire x1="26.5176" y1="7.0866" x2="26.4" y2="7.115" width="0.254" layer="1"/>
<wire x1="24.4475" y1="7.3025" x2="24.765" y2="7.0485" width="0.254" layer="1"/>
<wire x1="24.765" y1="7.0485" x2="24.9" y2="7.115" width="0.254" layer="1"/>
<wire x1="24.4475" y1="7.3025" x2="24.4" y2="7.115" width="0.254" layer="1"/>
<wire x1="26.3525" y1="7.3025" x2="26.035" y2="7.3025" width="0.254" layer="1"/>
<wire x1="26.035" y1="7.3025" x2="25.9" y2="7.115" width="0.254" layer="1"/>
<wire x1="26.3525" y1="7.3025" x2="26.4" y2="7.115" width="0.254" layer="1"/>
<wire x1="23.8125" y1="7.9375" x2="23.8125" y2="8.001" width="0.254" layer="1"/>
<wire x1="23.8125" y1="8.001" x2="23.625" y2="8.39" width="0.254" layer="1"/>
<wire x1="23.8125" y1="7.9375" x2="23.625" y2="7.89" width="0.254" layer="1"/>
<wire x1="23.5585" y1="9.3345" x2="23.5585" y2="9.525" width="0.254" layer="1"/>
<wire x1="23.5585" y1="9.525" x2="23.625" y2="9.39" width="0.254" layer="1"/>
<wire x1="23.5585" y1="9.3345" x2="23.625" y2="9.89" width="0.254" layer="1"/>
<wire x1="27.3685" y1="8.255" x2="27.305" y2="8.255" width="0.254" layer="1"/>
<wire x1="27.305" y1="8.255" x2="27.175" y2="8.39" width="0.254" layer="1"/>
<wire x1="27.3685" y1="8.255" x2="27.14625" y2="8.22325" width="0.254" layer="1"/>
<wire x1="27.305" y1="9.8425" x2="27.305" y2="9.525" width="0.254" layer="1"/>
<wire x1="27.305" y1="9.525" x2="27.175" y2="9.39" width="0.254" layer="1"/>
<wire x1="27.305" y1="9.8425" x2="27.175" y2="9.89" width="0.254" layer="1"/>
<contactref element="U$2" pad="GND"/>
<wire x1="55.88" y1="41.91" x2="55.626" y2="41.91" width="0.4064" layer="1"/>
<wire x1="55.626" y1="41.91" x2="55.626" y2="36.83" width="0.4064" layer="1"/>
<wire x1="55.626" y1="36.83" x2="40.64" y2="36.83" width="0.4064" layer="1"/>
<wire x1="40.64" y1="36.83" x2="40.64" y2="36.576" width="0.4064" layer="1"/>
<wire x1="27.175" y1="9.89" x2="27.178" y2="9.89" width="0.4064" layer="1"/>
<wire x1="27.178" y1="9.89" x2="27.178" y2="9.906" width="0.4064" layer="1"/>
<wire x1="27.178" y1="9.906" x2="40.64" y2="36.576" width="0" layer="19" extent="1-16"/>
</signal>
<signal name="N$1">
<contactref element="U$1" pad="1"/>
<contactref element="SV2" pad="1"/>
<wire x1="6.1722" y1="20.1168" x2="17.6022" y2="20.1168" width="0.254" layer="1"/>
<wire x1="3.8862" y1="17.8308" x2="6.1722" y2="20.1168" width="0.254" layer="1"/>
<wire x1="17.6022" y1="20.1168" x2="17.78" y2="20.32" width="0.254" layer="1"/>
<wire x1="3.8862" y1="17.8308" x2="3.81" y2="17.78" width="0.254" layer="1"/>
</signal>
<signal name="N$2">
<contactref element="U$1" pad="2"/>
<contactref element="SV2" pad="2"/>
<wire x1="18.288" y1="18.288" x2="20.32" y2="20.32" width="0.254" layer="1"/>
<wire x1="6.6294" y1="18.288" x2="18.288" y2="18.288" width="0.254" layer="1"/>
<wire x1="5.0292" y1="16.6878" x2="6.6294" y2="18.288" width="0.254" layer="1"/>
<wire x1="2.5146" y1="16.6878" x2="5.0292" y2="16.6878" width="0.254" layer="1"/>
<wire x1="1.8288" y1="17.3736" x2="2.5146" y2="16.6878" width="0.254" layer="1"/>
<wire x1="1.8288" y1="18.288" x2="1.8288" y2="17.3736" width="0.254" layer="1"/>
<wire x1="3.6576" y1="20.1168" x2="1.8288" y2="18.288" width="0.254" layer="1"/>
<wire x1="3.6576" y1="20.1168" x2="3.81" y2="20.32" width="0.254" layer="1"/>
</signal>
<signal name="N$3">
<contactref element="U$1" pad="27"/>
<contactref element="SV2" pad="4"/>
<wire x1="13.2588" y1="34.29" x2="15.24" y2="34.29" width="0.254" layer="1"/>
<wire x1="4.572" y1="25.6032" x2="13.2588" y2="34.29" width="0.254" layer="1"/>
<wire x1="3.8862" y1="25.6032" x2="4.572" y2="25.6032" width="0.254" layer="1"/>
<wire x1="3.8862" y1="25.6032" x2="3.81" y2="25.4" width="0.254" layer="1"/>
</signal>
<signal name="N$4">
<contactref element="U$1" pad="26"/>
<contactref element="SV2" pad="3"/>
<wire x1="4.8006" y1="26.5176" x2="15.0876" y2="36.8046" width="0.254" layer="1"/>
<wire x1="2.5146" y1="26.5176" x2="4.8006" y2="26.5176" width="0.254" layer="1"/>
<wire x1="1.8288" y1="25.8318" x2="2.5146" y2="26.5176" width="0.254" layer="1"/>
<wire x1="1.8288" y1="24.6888" x2="1.8288" y2="25.8318" width="0.254" layer="1"/>
<wire x1="3.6576" y1="22.86" x2="1.8288" y2="24.6888" width="0.254" layer="1"/>
<wire x1="15.0876" y1="36.8046" x2="15.24" y2="36.83" width="0.254" layer="1"/>
<wire x1="3.6576" y1="22.86" x2="3.81" y2="22.86" width="0.254" layer="1"/>
</signal>
<signal name="N$5">
<contactref element="U$1" pad="32"/>
<contactref element="SV1" pad="4"/>
<contactref element="IC1" pad="20"/>
<wire x1="2.5146" y1="21.4884" x2="15.0876" y2="21.4884" width="0.254" layer="1"/>
<wire x1="1.3716" y1="20.3454" x2="2.5146" y2="21.4884" width="0.254" layer="1"/>
<wire x1="1.3716" y1="13.716" x2="1.3716" y2="20.3454" width="0.254" layer="1"/>
<wire x1="3.6576" y1="11.43" x2="1.3716" y2="13.716" width="0.254" layer="1"/>
<wire x1="15.0876" y1="21.4884" x2="15.24" y2="21.59" width="0.254" layer="1"/>
<wire x1="3.6576" y1="11.43" x2="3.81" y2="11.43" width="0.254" layer="1"/>
<wire x1="24.4" y1="10.665" x2="24.4" y2="12.43" width="0.4064" layer="1"/>
<wire x1="24.4" y1="12.43" x2="24.13" y2="12.7" width="0.4064" layer="1"/>
<wire x1="24.13" y1="12.7" x2="12.7" y2="12.7" width="0.4064" layer="16"/>
<wire x1="12.7" y1="12.7" x2="12.7" y2="11.43" width="0.4064" layer="16"/>
<wire x1="12.7" y1="11.43" x2="3.81" y2="11.43" width="0.4064" layer="16"/>
<via x="24.13" y="12.7" extent="1-16" drill="0.6" shape="square"/>
</signal>
<signal name="N$6">
<contactref element="U$1" pad="24"/>
<contactref element="SV2" pad="5"/>
<wire x1="19.2024" y1="39.0906" x2="20.1168" y2="38.1762" width="0.254" layer="1"/>
<wire x1="19.2024" y1="39.3192" x2="19.2024" y2="39.0906" width="0.254" layer="1"/>
<wire x1="18.9738" y1="39.5478" x2="19.2024" y2="39.3192" width="0.254" layer="1"/>
<wire x1="15.3162" y1="39.5478" x2="18.9738" y2="39.5478" width="0.254" layer="1"/>
<wire x1="3.8862" y1="28.1178" x2="15.3162" y2="39.5478" width="0.254" layer="1"/>
<wire x1="20.1168" y1="38.1762" x2="20.32" y2="38.1" width="0.254" layer="1"/>
<wire x1="3.8862" y1="28.1178" x2="3.81" y2="27.94" width="0.254" layer="1"/>
</signal>
<signal name="N$7">
<contactref element="U$1" pad="14"/>
<contactref element="IC1" pad="8"/>
<wire x1="40.64" y1="31.75" x2="43.18" y2="31.75" width="0.4064" layer="1"/>
<wire x1="25.4" y1="7.115" x2="25.4" y2="5.08" width="0.4064" layer="1"/>
<wire x1="25.4" y1="5.08" x2="26.67" y2="5.08" width="0.4064" layer="1"/>
<wire x1="26.67" y1="5.08" x2="30.48" y2="8.89" width="0.4064" layer="16"/>
<wire x1="30.48" y1="8.89" x2="43.18" y2="8.89" width="0.4064" layer="16"/>
<wire x1="43.18" y1="8.89" x2="43.18" y2="31.75" width="0.4064" layer="1"/>
<via x="26.67" y="5.08" extent="1-16" drill="0.6" shape="square"/>
<via x="43.18" y="8.89" extent="1-16" drill="0.6" shape="square"/>
</signal>
<signal name="N$8">
<contactref element="IC1" pad="13"/>
<contactref element="X1" pad="1"/>
<contactref element="RFCON1" pad="RF"/>
<wire x1="25.146" y1="3.429" x2="30.4038" y2="3.429" width="0.254" layer="1"/>
<wire x1="22.86" y1="1.143" x2="25.146" y2="3.429" width="0.254" layer="1"/>
<wire x1="20.1168" y1="1.143" x2="22.86" y2="1.143" width="0.254" layer="1"/>
<wire x1="19.2024" y1="2.0574" x2="20.1168" y2="1.143" width="0.254" layer="1"/>
<wire x1="19.2024" y1="5.0292" x2="19.2024" y2="2.0574" width="0.254" layer="1"/>
<wire x1="30.4038" y1="3.429" x2="30.48" y2="3.58" width="0.254" layer="1"/>
<wire x1="19.2024" y1="5.0292" x2="19.05" y2="5.08" width="0.254" layer="1"/>
<wire x1="27.175" y1="8.89" x2="34.29" y2="8.89" width="0.4064" layer="1"/>
<wire x1="34.29" y1="8.89" x2="34.29" y2="2.54" width="0.4064" layer="1"/>
<wire x1="34.29" y1="2.54" x2="30.48" y2="2.54" width="0.4064" layer="1"/>
<wire x1="30.48" y1="2.54" x2="30.48" y2="3.58" width="0.4064" layer="1"/>
</signal>
<signal name="N$9">
<contactref element="IC1" pad="16"/>
<contactref element="SV2" pad="6"/>
<wire x1="26.5176" y1="15.6972" x2="26.5176" y2="10.7442" width="0.254" layer="1"/>
<wire x1="16.0528" y1="15.6972" x2="26.5176" y2="15.6972" width="0.254" layer="16"/>
<wire x1="3.81" y1="30.48" x2="16.0528" y2="15.6972" width="0.254" layer="16"/>
<wire x1="26.5176" y1="10.7442" x2="26.4" y2="10.665" width="0.254" layer="1"/>
<via x="26.5176" y="15.6972" extent="1-16" drill="0.6096"/>
</signal>
<signal name="N$11">
<contactref element="IC1" pad="3"/>
<contactref element="U$2" pad="P$1"/>
<wire x1="22.86" y1="8.89" x2="23.625" y2="8.89" width="0.254" layer="1"/>
<wire x1="22.225" y1="9.525" x2="22.86" y2="8.89" width="0.254" layer="1"/>
<wire x1="22.225" y1="16.51" x2="22.225" y2="9.525" width="0.254" layer="1"/>
<wire x1="55.88" y1="16.51" x2="22.225" y2="16.51" width="0.254" layer="16"/>
<wire x1="62.23" y1="22.86" x2="55.88" y2="16.51" width="0.254" layer="16"/>
<via x="22.225" y="16.51" extent="1-16" drill="0.6" shape="square"/>
</signal>
<signal name="N$14">
<contactref element="U$1" pad="7"/>
<contactref element="SV1" pad="2"/>
<wire x1="30.6324" y1="17.8308" x2="32.9184" y2="20.1168" width="0.254" layer="1"/>
<wire x1="15.3162" y1="17.8308" x2="30.6324" y2="17.8308" width="0.254" layer="1"/>
<wire x1="3.8862" y1="6.4008" x2="15.3162" y2="17.8308" width="0.254" layer="1"/>
<wire x1="32.9184" y1="20.1168" x2="33.02" y2="20.32" width="0.254" layer="1"/>
<wire x1="3.8862" y1="6.4008" x2="3.81" y2="6.35" width="0.254" layer="1"/>
</signal>
<signal name="N$15">
<contactref element="IC1" pad="X"/>
<contactref element="SV1" pad="3"/>
<contactref element="U$1" pad="10"/>
<contactref element="U$1" pad="8"/>
<contactref element="U$1" pad="19"/>
<contactref element="X1" pad="2@6"/>
<contactref element="X1" pad="2@5"/>
<contactref element="X1" pad="2@4"/>
<contactref element="X1" pad="2@3"/>
<contactref element="X1" pad="2@1"/>
<contactref element="X1" pad="2@2"/>
<contactref element="U$1" pad="12"/>
<contactref element="U$1" pad="11"/>
<contactref element="SV1" pad="1"/>
<contactref element="U$1" pad="13"/>
<contactref element="U$1" pad="16"/>
<contactref element="U$1" pad="15"/>
<contactref element="U$1" pad="17"/>
<contactref element="U$1" pad="9"/>
<contactref element="U$1" pad="18"/>
<wire x1="40.64" y1="36.83" x2="40.64" y2="34.29" width="0.254" layer="1"/>
<wire x1="35.56" y1="38.1" x2="33.02" y2="38.1" width="0.254" layer="1"/>
<wire x1="35.56" y1="38.1" x2="38.1" y2="38.1" width="0.254" layer="1"/>
<wire x1="39.37" y1="38.1" x2="40.64" y2="36.83" width="0.254" layer="1"/>
<wire x1="38.1" y1="38.1" x2="39.37" y2="38.1" width="0.254" layer="1"/>
<wire x1="40.64" y1="29.21" x2="40.64" y2="26.67" width="0.254" layer="1"/>
<wire x1="38.1" y1="20.32" x2="35.56" y2="20.32" width="0.254" layer="1"/>
<wire x1="40.64" y1="24.13" x2="40.64" y2="21.59" width="0.254" layer="1"/>
<wire x1="39.37" y1="21.59" x2="38.1" y2="20.32" width="0.254" layer="1"/>
<wire x1="40.64" y1="21.59" x2="39.37" y2="21.59" width="0.254" layer="1"/>
<wire x1="40.64" y1="24.13" x2="40.64" y2="26.67" width="0.254" layer="1"/>
<wire x1="39.0525" y1="32.7025" x2="40.64" y2="34.29" width="0.254" layer="1"/>
<wire x1="39.0525" y1="29.21" x2="39.0525" y2="32.7025" width="0.254" layer="1"/>
<wire x1="40.64" y1="29.21" x2="39.0525" y2="29.21" width="0.254" layer="1"/>
<wire x1="1.905" y1="5.715" x2="3.81" y2="3.81" width="0.254" layer="1"/>
<wire x1="1.905" y1="8.89" x2="1.905" y2="5.715" width="0.254" layer="1"/>
<wire x1="3.81" y1="8.89" x2="1.905" y2="8.89" width="0.254" layer="1"/>
<wire x1="16.51" y1="5.08" x2="16.51" y2="3.81" width="0.254" layer="1"/>
<wire x1="16.51" y1="3.81" x2="16.51" y2="2.54" width="0.254" layer="1"/>
<wire x1="16.51" y1="2.54" x2="16.675" y2="2.48" width="0.254" layer="1"/>
<wire x1="16.51" y1="5.08" x2="16.51" y2="7.62" width="0.254" layer="1"/>
<wire x1="16.51" y1="7.62" x2="16.675" y2="7.68" width="0.254" layer="1"/>
<wire x1="16.51" y1="5.08" x2="16.25" y2="5.08" width="0.254" layer="1"/>
<wire x1="21.59" y1="5.08" x2="21.59" y2="2.54" width="0.254" layer="1"/>
<wire x1="21.59" y1="2.54" x2="21.425" y2="2.48" width="0.254" layer="1"/>
<wire x1="21.59" y1="5.08" x2="21.59" y2="7.62" width="0.254" layer="1"/>
<wire x1="21.59" y1="7.62" x2="21.425" y2="7.68" width="0.254" layer="1"/>
<wire x1="21.59" y1="5.08" x2="21.85" y2="5.08" width="0.254" layer="1"/>
<wire x1="21.2725" y1="7.62" x2="16.8275" y2="7.62" width="0.254" layer="1"/>
<wire x1="16.8275" y1="7.62" x2="16.675" y2="7.68" width="0.254" layer="1"/>
<wire x1="21.2725" y1="7.62" x2="21.425" y2="7.68" width="0.254" layer="1"/>
<wire x1="16.51" y1="3.81" x2="3.81" y2="3.81" width="0.254" layer="1"/>
<wire x1="16.51" y1="3.81" x2="16.25" y2="5.08" width="0.254" layer="1"/>
<wire x1="32.385" y1="17.145" x2="35.56" y2="20.32" width="0.254" layer="1"/>
<wire x1="21.9075" y1="17.145" x2="32.385" y2="17.145" width="0.254" layer="1"/>
<wire x1="21.59" y1="16.8275" x2="21.9075" y2="17.145" width="0.254" layer="1"/>
<wire x1="21.59" y1="7.9375" x2="21.59" y2="16.8275" width="0.254" layer="1"/>
<wire x1="21.59" y1="7.9375" x2="21.425" y2="7.68" width="0.254" layer="1"/>
<wire x1="25.4" y1="8.89" x2="24.13" y2="8.89" width="0.4064" layer="1"/>
<wire x1="24.13" y1="8.89" x2="24.13" y2="7.62" width="0.4064" layer="1"/>
<wire x1="24.13" y1="7.62" x2="21.425" y2="7.62" width="0.4064" layer="1"/>
<wire x1="21.425" y1="7.62" x2="21.425" y2="7.68" width="0.4064" layer="1"/>
</signal>
<signal name="N$16">
<contactref element="IC1" pad="17"/>
<contactref element="SV2" pad="7"/>
<wire x1="25.9" y1="10.665" x2="25.9" y2="13.47" width="0.4064" layer="1"/>
<wire x1="25.9" y1="13.47" x2="25.4" y2="13.97" width="0.4064" layer="1"/>
<wire x1="25.4" y1="13.97" x2="7.62" y2="13.97" width="0.4064" layer="16"/>
<wire x1="7.62" y1="13.97" x2="7.62" y2="24.13" width="0.4064" layer="16"/>
<wire x1="7.62" y1="24.13" x2="8.89" y2="26.67" width="0.4064" layer="1"/>
<wire x1="8.89" y1="26.67" x2="7.62" y2="33.02" width="0.4064" layer="16"/>
<wire x1="7.62" y1="33.02" x2="3.81" y2="33.02" width="0.4064" layer="1"/>
<via x="7.62" y="33.02" extent="1-16" drill="0.6" shape="square"/>
<via x="25.4" y="13.97" extent="1-16" drill="0.6" shape="square"/>
<via x="7.62" y="24.13" extent="1-16" drill="0.6" shape="square"/>
<via x="8.89" y="26.67" extent="1-16" drill="0.6" shape="square"/>
</signal>
</signals>
</board>
</drawing>
</eagle>
