EESchema Schematic File Version 2
LIBS:power
LIBS:device
LIBS:transistors
LIBS:conn
LIBS:linear
LIBS:regul
LIBS:74xx
LIBS:cmos4000
LIBS:adc-dac
LIBS:memory
LIBS:xilinx
LIBS:special
LIBS:microcontrollers
LIBS:dsp
LIBS:microchip
LIBS:analog_switches
LIBS:motorola
LIBS:texas
LIBS:intel
LIBS:audio
LIBS:interface
LIBS:digital-audio
LIBS:philips
LIBS:display
LIBS:cypress
LIBS:siliconi
LIBS:opto
LIBS:atmel
LIBS:contrib
LIBS:valves
LIBS:drifter
LIBS:proto_brd1-cache
EELAYER 27 0
EELAYER END
$Descr A4 11693 8268
encoding utf-8
Sheet 1 1
Title ""
Date "16 nov 2015"
Rev ""
Comp ""
Comment1 ""
Comment2 ""
Comment3 ""
Comment4 ""
$EndDescr
$Comp
L STX3 MOD1
U 1 1 5648C034
P 7450 5400
F 0 "MOD1" H 7350 4750 60  0000 C CNN
F 1 "STX3" H 7850 4750 60  0000 C CNN
F 2 "~" H 8550 5500 60  0000 C CNN
F 3 "~" H 8550 5500 60  0000 C CNN
F 4 "Satellite modem" H 7600 6050 60  0000 C CNN "Function"
	1    7450 5400
	1    0    0    -1  
$EndComp
$Comp
L RXM-GPS-RM MOD2
U 1 1 5648C04D
P 7700 3950
F 0 "MOD2" H 7500 3850 60  0000 C CNN
F 1 "RXM-GPS-RM" H 7700 3950 60  0000 C CNN
F 2 "~" H 7700 3950 60  0000 C CNN
F 3 "~" H 7700 3950 60  0000 C CNN
	1    7700 3950
	1    0    0    -1  
$EndComp
$Comp
L ATMEGA328-P IC1
U 1 1 5648C065
P 2000 3950
F 0 "IC1" H 1250 5200 40  0000 L BNN
F 1 "ATMEGA328-P" H 2400 2550 40  0000 L BNN
F 2 "DIL28" H 2000 3950 30  0000 C CIN
F 3 "~" H 2000 3950 60  0000 C CNN
	1    2000 3950
	1    0    0    -1  
$EndComp
$Comp
L PA45-1615-1575SA ANT1
U 1 1 5648C086
P 7000 4350
F 0 "ANT1" H 6750 4500 60  0000 C CNN
F 1 "PA45-1615-1575SA" H 6900 4200 60  0000 C CNN
F 2 "~" H 6500 4400 60  0000 C CNN
F 3 "~" H 7000 4350 60  0000 C CNN
F 4 "antenna" H 7150 4500 60  0000 C CNN "Function"
	1    7000 4350
	1    0    0    -1  
$EndComp
$Comp
L SN74LVC1G3157 IC3
U 1 1 5648C2DA
P 4850 4550
F 0 "IC3" H 4650 4750 60  0000 C CNN
F 1 "SN74LVC1G3157" H 4850 4350 60  0000 C CNN
F 2 "~" H 4850 4000 60  0000 C CNN
F 3 "~" H 4850 4000 60  0000 C CNN
	1    4850 4550
	-1   0    0    1   
$EndComp
$Comp
L SN74LVC1G3157 IC4
U 1 1 5648C2E7
P 4850 5000
F 0 "IC4" H 4650 5200 60  0000 C CNN
F 1 "SN74LVC1G3157" H 4850 4800 60  0000 C CNN
F 2 "~" H 4850 4450 60  0000 C CNN
F 3 "~" H 4850 4450 60  0000 C CNN
	1    4850 5000
	-1   0    0    1   
$EndComp
$Comp
L VCC #PWR01
U 1 1 5648C52C
P 4150 4550
F 0 "#PWR01" H 4150 4650 30  0001 C CNN
F 1 "VCC" H 4150 4650 30  0000 C CNN
F 2 "" H 4150 4550 60  0000 C CNN
F 3 "" H 4150 4550 60  0000 C CNN
	1    4150 4550
	0    -1   -1   0   
$EndComp
$Comp
L GND #PWR02
U 1 1 5648C564
P 5600 4550
F 0 "#PWR02" H 5600 4550 30  0001 C CNN
F 1 "GND" H 5600 4480 30  0001 C CNN
F 2 "" H 5600 4550 60  0000 C CNN
F 3 "" H 5600 4550 60  0000 C CNN
	1    5600 4550
	0    -1   -1   0   
$EndComp
$Comp
L GND #PWR03
U 1 1 5648C634
P 8350 6050
F 0 "#PWR03" H 8350 6050 30  0001 C CNN
F 1 "GND" H 8350 5980 30  0001 C CNN
F 2 "" H 8350 6050 60  0000 C CNN
F 3 "" H 8350 6050 60  0000 C CNN
	1    8350 6050
	1    0    0    -1  
$EndComp
$Comp
L VCC #PWR04
U 1 1 5648C94D
P 6900 6050
F 0 "#PWR04" H 6900 6150 30  0001 C CNN
F 1 "VCC" H 6900 6150 30  0000 C CNN
F 2 "" H 6900 6050 60  0000 C CNN
F 3 "" H 6900 6050 60  0000 C CNN
	1    6900 6050
	-1   0    0    1   
$EndComp
NoConn ~ 7050 3350
$Comp
L VCC #PWR05
U 1 1 5648C98C
P 6950 3650
F 0 "#PWR05" H 6950 3750 30  0001 C CNN
F 1 "VCC" H 6950 3750 30  0000 C CNN
F 2 "" H 6950 3650 60  0000 C CNN
F 3 "" H 6950 3650 60  0000 C CNN
	1    6950 3650
	0    -1   -1   0   
$EndComp
$Comp
L GND #PWR06
U 1 1 5648CA08
P 8850 3450
F 0 "#PWR06" H 8850 3450 30  0001 C CNN
F 1 "GND" H 8850 3380 30  0001 C CNN
F 2 "" H 8850 3450 60  0000 C CNN
F 3 "" H 8850 3450 60  0000 C CNN
	1    8850 3450
	1    0    0    -1  
$EndComp
NoConn ~ 8650 3950
$Comp
L VCC #PWR07
U 1 1 5648CCB3
P 8850 3800
F 0 "#PWR07" H 8850 3900 30  0001 C CNN
F 1 "VCC" H 8850 3900 30  0000 C CNN
F 2 "" H 8850 3800 60  0000 C CNN
F 3 "" H 8850 3800 60  0000 C CNN
	1    8850 3800
	-1   0    0    1   
$EndComp
$Comp
L VCC #PWR08
U 1 1 5648D1D9
P 4650 4050
F 0 "#PWR08" H 4650 4150 30  0001 C CNN
F 1 "VCC" H 4650 4150 30  0000 C CNN
F 2 "" H 4650 4050 60  0000 C CNN
F 3 "" H 4650 4050 60  0000 C CNN
	1    4650 4050
	0    -1   -1   0   
$EndComp
$Comp
L GND #PWR09
U 1 1 5648D327
P 4450 4200
F 0 "#PWR09" H 4450 4200 30  0001 C CNN
F 1 "GND" H 4450 4130 30  0001 C CNN
F 2 "" H 4450 4200 60  0000 C CNN
F 3 "" H 4450 4200 60  0000 C CNN
	1    4450 4200
	1    0    0    -1  
$EndComp
$Comp
L GND #PWR010
U 1 1 5648D3E4
P 1000 5250
F 0 "#PWR010" H 1000 5250 30  0001 C CNN
F 1 "GND" H 1000 5180 30  0001 C CNN
F 2 "" H 1000 5250 60  0000 C CNN
F 3 "" H 1000 5250 60  0000 C CNN
	1    1000 5250
	1    0    0    -1  
$EndComp
$Comp
L VCC #PWR011
U 1 1 5648D58E
P 6900 5050
F 0 "#PWR011" H 6900 5150 30  0001 C CNN
F 1 "VCC" H 6900 5150 30  0000 C CNN
F 2 "" H 6900 5050 60  0000 C CNN
F 3 "" H 6900 5050 60  0000 C CNN
	1    6900 5050
	0    -1   -1   0   
$EndComp
NoConn ~ 7000 5250
NoConn ~ 7000 5850
$Comp
L GND #PWR012
U 1 1 5648DC67
P 5800 4050
F 0 "#PWR012" H 5800 4050 30  0001 C CNN
F 1 "GND" H 5800 3980 30  0001 C CNN
F 2 "" H 5800 4050 60  0000 C CNN
F 3 "" H 5800 4050 60  0000 C CNN
	1    5800 4050
	1    0    0    -1  
$EndComp
$Comp
L 24AA64T-DIP8 IC5
U 1 1 5648DF1D
P 5200 3950
F 0 "IC5" H 4900 4250 60  0000 C CNN
F 1 "24AA64T-DIP8" H 5200 3650 60  0000 C CNN
F 2 "DIP-8_300" V 5350 3950 60  0000 C CNN
F 3 "~" H 5200 3900 60  0000 C CNN
F 4 "EEPROM" H 5250 4250 60  0000 C CNN "Function"
	1    5200 3950
	1    0    0    -1  
$EndComp
$Comp
L MMA8452Q IC2
U 1 1 5648E3DF
P 4200 2150
F 0 "IC2" H 3950 2900 60  0000 C CNN
F 1 "MMA8452Q" H 4250 1700 60  0000 C CNN
F 2 "16-QFN" H 4300 2900 60  0000 C CNN
F 3 "~" H 4200 2150 60  0000 C CNN
F 4 "accelerometer" V 4400 2350 60  0000 C CNN "Function"
	1    4200 2150
	0    -1   -1   0   
$EndComp
$Comp
L GND #PWR013
U 1 1 5648E5AE
P 4250 2800
F 0 "#PWR013" H 4250 2800 30  0001 C CNN
F 1 "GND" H 4250 2730 30  0001 C CNN
F 2 "" H 4250 2800 60  0000 C CNN
F 3 "" H 4250 2800 60  0000 C CNN
	1    4250 2800
	1    0    0    -1  
$EndComp
$Comp
L VCC #PWR014
U 1 1 5648E73B
P 4550 2800
F 0 "#PWR014" H 4550 2900 30  0001 C CNN
F 1 "VCC" H 4550 2900 30  0000 C CNN
F 2 "" H 4550 2800 60  0000 C CNN
F 3 "" H 4550 2800 60  0000 C CNN
	1    4550 2800
	-1   0    0    1   
$EndComp
NoConn ~ 3550 2700
NoConn ~ 3950 2700
NoConn ~ 4150 2700
$Comp
L VCC #PWR015
U 1 1 5648EC42
P 750 3600
F 0 "#PWR015" H 750 3700 30  0001 C CNN
F 1 "VCC" H 750 3700 30  0000 C CNN
F 2 "" H 750 3600 60  0000 C CNN
F 3 "" H 750 3600 60  0000 C CNN
	1    750  3600
	-1   0    0    1   
$EndComp
$Comp
L C C1
U 1 1 5648ED54
P 1000 3750
F 0 "C1" H 1000 3850 40  0000 L CNN
F 1 "100nF" H 1006 3665 40  0000 L CNN
F 2 "~" H 1038 3600 30  0000 C CNN
F 3 "~" H 1000 3750 60  0000 C CNN
	1    1000 3750
	1    0    0    -1  
$EndComp
$Comp
L CONN_5X2 P1
U 1 1 5648D99E
P 1350 1250
F 0 "P1" H 1350 1550 60  0000 C CNN
F 1 "CONN_5X2" V 1350 1250 50  0000 C CNN
F 2 "~" H 1350 1250 60  0000 C CNN
F 3 "~" H 1350 1250 60  0000 C CNN
	1    1350 1250
	1    0    0    -1  
$EndComp
$Comp
L GND #PWR016
U 1 1 5648DAD8
P 2550 1000
F 0 "#PWR016" H 2550 1000 30  0001 C CNN
F 1 "GND" H 2550 930 30  0001 C CNN
F 2 "" H 2550 1000 60  0000 C CNN
F 3 "" H 2550 1000 60  0000 C CNN
	1    2550 1000
	0    1    1    0   
$EndComp
$Comp
L VCC #PWR017
U 1 1 5648DADE
P 2550 1100
F 0 "#PWR017" H 2550 1200 30  0001 C CNN
F 1 "VCC" H 2550 1200 30  0000 C CNN
F 2 "" H 2550 1100 60  0000 C CNN
F 3 "" H 2550 1100 60  0000 C CNN
	1    2550 1100
	0    -1   -1   0   
$EndComp
$Comp
L VCC #PWR018
U 1 1 5648E27F
P 1850 1050
F 0 "#PWR018" H 1850 1150 30  0001 C CNN
F 1 "VCC" H 1850 1150 30  0000 C CNN
F 2 "" H 1850 1050 60  0000 C CNN
F 3 "" H 1850 1050 60  0000 C CNN
	1    1850 1050
	0    1    1    0   
$EndComp
$Comp
L GND #PWR019
U 1 1 5648E285
P 1850 1550
F 0 "#PWR019" H 1850 1550 30  0001 C CNN
F 1 "GND" H 1850 1480 30  0001 C CNN
F 2 "" H 1850 1550 60  0000 C CNN
F 3 "" H 1850 1550 60  0000 C CNN
	1    1850 1550
	1    0    0    -1  
$EndComp
NoConn ~ 950  1150
Text Label 750  1050 0    60   ~ 0
MOSI
Text Label 750  1250 0    60   ~ 0
RST
Text Label 750  1350 0    60   ~ 0
SCK
Text Label 750  1450 0    60   ~ 0
MISO
Text Label 3200 3350 0    60   ~ 0
SCK
Text Label 3200 3250 0    60   ~ 0
MISO
Text Label 3200 3150 0    60   ~ 0
MOSI
Text Label 3200 4300 0    60   ~ 0
RST
$Comp
L CONN_4X2 P2
U 1 1 5649E732
P 3200 1150
F 0 "P2" H 3200 1400 50  0000 C CNN
F 1 "CONN_4X2" V 3200 1150 40  0000 C CNN
F 2 "~" H 3200 1150 60  0000 C CNN
F 3 "~" H 3200 1150 60  0000 C CNN
	1    3200 1150
	1    0    0    -1  
$EndComp
$Comp
L CONN_6 P3
U 1 1 5649E9A0
P 3550 3750
F 0 "P3" V 3500 3750 60  0000 C CNN
F 1 "CONN_6" V 3600 3750 60  0000 C CNN
F 2 "~" H 3550 3750 60  0000 C CNN
F 3 "~" H 3550 3750 60  0000 C CNN
	1    3550 3750
	1    0    0    -1  
$EndComp
Wire Wire Line
	7050 3750 6250 3750
Wire Wire Line
	6250 3750 6250 5150
Wire Wire Line
	6250 4350 6650 4350
Wire Wire Line
	6250 5150 7000 5150
Connection ~ 6250 4350
Wire Wire Line
	5400 4450 5950 4450
Wire Wire Line
	5950 4450 5950 3450
Wire Wire Line
	5950 3450 7050 3450
Wire Wire Line
	6100 3550 7050 3550
Wire Wire Line
	6100 4900 5400 4900
Wire Wire Line
	6100 3550 6100 4900
Wire Wire Line
	5400 4650 5950 4650
Wire Wire Line
	5950 4650 5950 5350
Wire Wire Line
	5950 5350 7000 5350
Wire Wire Line
	5400 5100 5850 5100
Wire Wire Line
	5850 5100 5850 5450
Wire Wire Line
	5850 5450 7000 5450
Wire Wire Line
	4100 5100 4350 5100
Wire Wire Line
	4100 4650 4100 5100
Wire Wire Line
	4100 4650 4350 4650
Wire Wire Line
	4350 5000 4200 5000
Wire Wire Line
	4200 5000 4200 4550
Wire Wire Line
	4150 4550 4350 4550
Wire Wire Line
	3000 4450 4350 4450
Wire Wire Line
	4350 4900 4000 4900
Wire Wire Line
	4000 4900 4000 4550
Wire Wire Line
	4000 4550 3000 4550
Wire Wire Line
	5400 5000 5500 5000
Wire Wire Line
	5500 5000 5500 4550
Wire Wire Line
	5400 4550 5600 4550
Connection ~ 4200 4550
Connection ~ 5500 4550
Wire Wire Line
	8350 4850 8350 6050
Wire Wire Line
	8350 4850 8250 4850
Wire Wire Line
	8250 4950 8350 4950
Connection ~ 8350 4950
Wire Wire Line
	8250 5050 8350 5050
Connection ~ 8350 5050
Wire Wire Line
	8250 5150 8350 5150
Connection ~ 8350 5150
Wire Wire Line
	8250 5250 8350 5250
Connection ~ 8350 5250
Wire Wire Line
	8250 5350 8350 5350
Connection ~ 8350 5350
Wire Wire Line
	8250 5450 8350 5450
Connection ~ 8350 5450
Wire Wire Line
	8250 5550 8350 5550
Connection ~ 8350 5550
Wire Wire Line
	8250 5650 8350 5650
Connection ~ 8350 5650
Wire Wire Line
	8250 5750 8350 5750
Connection ~ 8350 5750
Wire Wire Line
	8250 5850 8350 5850
Connection ~ 8350 5850
Wire Wire Line
	8250 5950 8350 5950
Connection ~ 8350 5950
Wire Wire Line
	7000 5950 6900 5950
Wire Wire Line
	6900 5950 6900 6050
Wire Wire Line
	7050 3650 6950 3650
Wire Wire Line
	8750 3350 8750 3650
Wire Wire Line
	8650 3350 8850 3350
Wire Wire Line
	8850 3350 8850 3450
Connection ~ 8750 3350
Wire Wire Line
	8650 3450 8750 3450
Connection ~ 8750 3450
Wire Wire Line
	8650 3550 8750 3550
Connection ~ 8750 3550
Wire Wire Line
	8750 3650 8650 3650
Wire Wire Line
	8650 3750 8850 3750
Wire Wire Line
	8750 3750 8750 3850
Wire Wire Line
	8750 3850 8650 3850
Wire Wire Line
	8850 3750 8850 3800
Connection ~ 8750 3750
Wire Wire Line
	3450 4800 4100 4800
Connection ~ 4100 4800
Wire Wire Line
	3450 4850 3450 4800
Wire Wire Line
	3450 4850 3000 4850
Wire Wire Line
	7000 4850 6350 4850
Wire Wire Line
	6350 4850 6350 5250
Wire Wire Line
	6350 5250 3850 5250
Wire Wire Line
	3700 2850 3700 5550
Wire Wire Line
	3700 5550 6450 5550
Wire Wire Line
	6450 5550 6450 4950
Wire Wire Line
	6450 4950 7000 4950
Wire Wire Line
	3000 4200 4350 4200
Wire Wire Line
	4350 4200 4350 3750
Wire Wire Line
	4350 3750 4700 3750
Wire Wire Line
	4250 3950 4700 3950
Wire Wire Line
	4250 4100 4250 3950
Wire Wire Line
	3000 4100 4250 4100
Wire Wire Line
	4650 4050 4700 4050
Wire Wire Line
	4700 4150 4450 4150
Wire Wire Line
	4450 3850 4450 4200
Wire Wire Line
	4450 3850 4700 3850
Connection ~ 4450 4150
Wire Wire Line
	1100 5050 1000 5050
Wire Wire Line
	1000 3950 1000 5250
Wire Wire Line
	1100 5150 1000 5150
Connection ~ 1000 5150
Wire Wire Line
	7000 5050 6900 5050
Wire Wire Line
	3000 5150 3850 5150
Wire Wire Line
	3850 5150 3850 5250
Wire Wire Line
	3700 2850 3000 2850
Wire Wire Line
	7000 5550 6550 5550
Wire Wire Line
	6550 5550 6550 5650
Wire Wire Line
	6550 5650 3200 5650
Wire Wire Line
	3200 5650 3200 4950
Wire Wire Line
	3200 4950 3000 4950
Wire Wire Line
	7000 5650 6650 5650
Wire Wire Line
	6650 5650 6650 5750
Wire Wire Line
	6650 5750 3100 5750
Wire Wire Line
	3100 5750 3100 5050
Wire Wire Line
	3100 5050 3000 5050
Wire Wire Line
	5700 3750 5800 3750
Wire Wire Line
	5800 3750 5800 4050
Wire Wire Line
	5700 3850 5800 3850
Connection ~ 5800 3850
Wire Wire Line
	5700 3950 5800 3950
Connection ~ 5800 3950
Wire Wire Line
	4250 2700 4350 2700
Wire Wire Line
	4250 2700 4250 2800
Wire Wire Line
	4450 2700 4550 2700
Wire Wire Line
	4550 2700 4550 2800
Wire Wire Line
	3750 2700 3750 4200
Connection ~ 3750 4200
Wire Wire Line
	3850 2700 3850 4100
Connection ~ 3850 4100
Wire Wire Line
	4050 2700 4050 2800
Wire Wire Line
	4050 2800 3950 2800
Wire Wire Line
	3950 2800 3950 4650
Wire Wire Line
	3950 4650 3000 4650
Wire Wire Line
	1100 2850 750  2850
Wire Wire Line
	750  2850 750  3600
Wire Wire Line
	1100 3150 750  3150
Connection ~ 750  3150
Connection ~ 1000 5050
Wire Wire Line
	1000 3550 1000 3450
Wire Wire Line
	750  3450 1100 3450
Connection ~ 750  3450
Connection ~ 1000 3450
Wire Wire Line
	2550 1000 3600 1000
Wire Wire Line
	2550 1100 3600 1100
Wire Wire Line
	750  1050 950  1050
Wire Wire Line
	950  1250 750  1250
Wire Wire Line
	950  1350 750  1350
Wire Wire Line
	950  1450 750  1450
Wire Wire Line
	1750 1150 1850 1150
Wire Wire Line
	1850 1150 1850 1550
Wire Wire Line
	1850 1450 1750 1450
Connection ~ 1850 1450
Wire Wire Line
	1750 1350 1850 1350
Connection ~ 1850 1350
Wire Wire Line
	1750 1250 1850 1250
Connection ~ 1850 1250
Wire Wire Line
	1750 1050 1850 1050
Wire Wire Line
	3000 4300 3200 4300
Wire Wire Line
	3000 3150 3200 3150
Wire Wire Line
	3000 3250 3200 3250
Wire Wire Line
	3000 3350 3200 3350
Connection ~ 2800 1000
Connection ~ 2800 1100
Wire Wire Line
	2800 1200 3600 1200
Wire Wire Line
	3600 1300 2800 1300
Wire Wire Line
	3200 4000 3200 4200
Connection ~ 3200 4200
Connection ~ 3150 4100
Wire Wire Line
	3000 3900 3050 3900
Wire Wire Line
	3050 3900 3050 3850
Wire Wire Line
	3150 3750 3200 3750
Wire Wire Line
	3200 3750 3200 3700
Wire Wire Line
	3200 3900 3200 3950
Wire Wire Line
	3200 3950 3150 3950
Wire Wire Line
	3150 3950 3150 4100
Wire Wire Line
	3200 3800 3200 3850
Wire Wire Line
	3200 3850 3150 3850
Wire Wire Line
	3150 3850 3150 3900
Wire Wire Line
	3150 3900 3100 3900
Wire Wire Line
	3100 3900 3100 4000
Wire Wire Line
	3100 4000 3000 4000
Wire Wire Line
	3050 3850 3100 3850
Wire Wire Line
	3100 3850 3100 3800
Wire Wire Line
	3100 3800 3150 3800
Wire Wire Line
	3150 3800 3150 3750
Wire Wire Line
	3200 3600 3200 3650
Wire Wire Line
	3200 3650 3150 3650
Wire Wire Line
	3150 3650 3150 3700
Wire Wire Line
	3150 3700 3100 3700
Wire Wire Line
	3100 3700 3100 3750
Wire Wire Line
	3100 3750 3050 3750
Wire Wire Line
	3050 3750 3050 3800
Wire Wire Line
	3050 3800 3000 3800
Wire Wire Line
	3200 3500 3200 3550
Wire Wire Line
	3200 3550 3150 3550
Wire Wire Line
	3150 3550 3150 3600
Wire Wire Line
	3150 3600 3100 3600
Wire Wire Line
	3100 3600 3100 3650
Wire Wire Line
	3100 3650 3050 3650
Wire Wire Line
	3050 3650 3050 3700
Wire Wire Line
	3050 3700 3000 3700
$Comp
L CONN_5 P4
U 1 1 5649EC8D
P 3550 3150
F 0 "P4" V 3500 3150 50  0000 C CNN
F 1 "CONN_5" V 3600 3150 50  0000 C CNN
F 2 "~" H 3550 3150 60  0000 C CNN
F 3 "~" H 3550 3150 60  0000 C CNN
	1    3550 3150
	1    0    0    -1  
$EndComp
Wire Wire Line
	3000 3050 3150 3050
Wire Wire Line
	3150 2950 3000 2950
Connection ~ 3150 3350
Connection ~ 3150 3250
Connection ~ 3150 3150
Connection ~ 3150 3050
Connection ~ 3150 2950
$Comp
L CONN_14 P5
U 1 1 5649F9E0
P 6600 2000
F 0 "P5" V 6570 2000 60  0000 C CNN
F 1 "CONN_14" V 6680 2000 60  0000 C CNN
F 2 "~" H 6600 2000 60  0000 C CNN
F 3 "~" H 6600 2000 60  0000 C CNN
	1    6600 2000
	1    0    0    -1  
$EndComp
Wire Wire Line
	6050 1350 6250 1350
Wire Wire Line
	6250 1450 6050 1450
Wire Wire Line
	6050 1550 6250 1550
Wire Wire Line
	6050 1650 6250 1650
Wire Wire Line
	6050 1750 6250 1750
Wire Wire Line
	6050 1850 6250 1850
Wire Wire Line
	6050 1950 6250 1950
Wire Wire Line
	6050 2050 6250 2050
Wire Wire Line
	6050 2150 6250 2150
Wire Wire Line
	6050 2250 6250 2250
Wire Wire Line
	6050 2350 6250 2350
Wire Wire Line
	6050 2450 6250 2450
Wire Wire Line
	6050 2550 6250 2550
Wire Wire Line
	6050 2650 6250 2650
Text Label 6050 1350 0    60   ~ 0
RST
Text Label 6050 1450 0    60   ~ 0
2
Text Label 6050 1550 0    60   ~ 0
3
Text Label 6050 1650 0    60   ~ 0
4
Text Label 6050 1750 0    60   ~ 0
5
Text Label 6050 1850 0    60   ~ 0
6
Text Label 6050 1950 0    60   ~ 0
7
Text Label 6050 2050 0    60   ~ 0
8
Text Label 6050 2150 0    60   ~ 0
9
Text Label 6050 2250 0    60   ~ 0
10
Text Label 6050 2350 0    60   ~ 0
11
Text Label 6050 2450 0    60   ~ 0
12
Text Label 6050 2550 0    60   ~ 0
13
Text Label 6050 2650 0    60   ~ 0
14
Text Label 3150 4450 0    60   ~ 0
2
Text Label 3150 4550 0    60   ~ 0
3
Text Label 3150 4650 0    60   ~ 0
4
Text Label 3150 4750 0    60   ~ 0
5
Text Label 3200 4850 0    60   ~ 0
6
Text Label 850  2850 0    60   ~ 0
7
Text Label 1050 5150 0    60   ~ 0
8
Text Label 3100 3450 0    60   ~ 0
9
Text Label 3100 3550 0    60   ~ 0
10
Text Label 3200 4950 0    60   ~ 0
11
Text Label 3100 5050 0    60   ~ 0
12
Text Label 3300 5150 0    60   ~ 0
13
Text Label 3100 2850 0    60   ~ 0
14
Wire Wire Line
	3000 3450 3100 3450
Wire Wire Line
	3000 3550 3100 3550
Wire Wire Line
	3000 4750 3150 4750
$EndSCHEMATC
