EESchema Schematic File Version 2
LIBS:small_brd-rescue
LIBS:power
LIBS:device
LIBS:transistors
LIBS:conn
LIBS:linear
LIBS:regul
LIBS:74xx
LIBS:cmos4000
LIBS:adc-dac
LIBS:memory
LIBS:xilinx
LIBS:microcontrollers
LIBS:dsp
LIBS:microchip
LIBS:analog_switches
LIBS:motorola
LIBS:texas
LIBS:intel
LIBS:audio
LIBS:interface
LIBS:digital-audio
LIBS:philips
LIBS:display
LIBS:cypress
LIBS:siliconi
LIBS:opto
LIBS:atmel
LIBS:contrib
LIBS:valves
LIBS:drifter
LIBS:globalstar
LIBS:gps_mod
LIBS:rf_switch
LIBS:small_brd-cache
EELAYER 25 0
EELAYER END
$Descr A4 11693 8268
encoding utf-8
Sheet 1 1
Title ""
Date ""
Rev ""
Comp ""
Comment1 ""
Comment2 ""
Comment3 ""
Comment4 ""
$EndDescr
$Comp
L STX3-RESCUE-small_brd MOD2
U 1 1 577E9F1D
P 9350 5000
F 0 "MOD2" H 9250 4350 60  0000 C CNN
F 1 "STX3" H 9750 4350 60  0000 C CNN
F 2 "globalstar:STX3" H 10450 5100 60  0001 C CNN
F 3 "" H 10450 5100 60  0000 C CNN
F 4 "Satellite modem" H 9500 5650 60  0000 C CNN "Function"
	1    9350 5000
	1    0    0    -1  
$EndComp
$Comp
L LM4132 U3
U 1 1 577EA18C
P 5700 2000
F 0 "U3" H 5500 2300 60  0000 C CNN
F 1 "LM4132" H 5700 2150 60  0000 C CNN
F 2 "TO_SOT_Packages_SMD:SOT-23-5" H 5700 2000 60  0001 C CNN
F 3 "" H 5700 2000 60  0000 C CNN
	1    5700 2000
	0    -1   -1   0   
$EndComp
$Comp
L LMT70YFQR U1
U 1 1 577EA456
P 2800 5700
F 0 "U1" H 3100 5850 60  0000 C CNN
F 1 "LMT70YFQR" H 2750 5800 60  0000 C CNN
F 2 "lib:4BGAx0.4mm_alt" H 2800 5700 60  0001 C CNN
F 3 "" H 2800 5700 60  0000 C CNN
	1    2800 5700
	1    0    0    -1  
$EndComp
$Comp
L GND #PWR01
U 1 1 578511A5
P 10150 5650
F 0 "#PWR01" H 10150 5400 50  0001 C CNN
F 1 "GND" H 10150 5500 50  0000 C CNN
F 2 "" H 10150 5650 50  0000 C CNN
F 3 "" H 10150 5650 50  0000 C CNN
	1    10150 5650
	1    0    0    -1  
$EndComp
$Comp
L VCC #PWR02
U 1 1 57853092
P 2750 2400
F 0 "#PWR02" H 2750 2250 50  0001 C CNN
F 1 "VCC" H 2750 2550 50  0000 C CNN
F 2 "" H 2750 2400 50  0000 C CNN
F 3 "" H 2750 2400 50  0000 C CNN
	1    2750 2400
	1    0    0    -1  
$EndComp
NoConn ~ 10050 3000
$Comp
L GND #PWR03
U 1 1 5785762F
P 2750 5050
F 0 "#PWR03" H 2750 4800 50  0001 C CNN
F 1 "GND" H 2750 4900 50  0000 C CNN
F 2 "" H 2750 5050 50  0000 C CNN
F 3 "" H 2750 5050 50  0000 C CNN
	1    2750 5050
	1    0    0    -1  
$EndComp
$Comp
L LMT70YFQR U2
U 1 1 57857E64
P 2800 6100
F 0 "U2" H 3100 6250 60  0000 C CNN
F 1 "LMT70YFQR" H 2750 6200 60  0000 C CNN
F 2 "lib:4BGAx0.4mm_alt" H 2800 6100 60  0001 C CNN
F 3 "" H 2800 6100 60  0000 C CNN
	1    2800 6100
	1    0    0    -1  
$EndComp
$Comp
L GND #PWR04
U 1 1 57857FC4
P 2300 5700
F 0 "#PWR04" H 2300 5450 50  0001 C CNN
F 1 "GND" H 2300 5550 50  0000 C CNN
F 2 "" H 2300 5700 50  0000 C CNN
F 3 "" H 2300 5700 50  0000 C CNN
	1    2300 5700
	0    1    1    0   
$EndComp
$Comp
L GND #PWR05
U 1 1 57858033
P 2300 6100
F 0 "#PWR05" H 2300 5850 50  0001 C CNN
F 1 "GND" H 2300 5950 50  0000 C CNN
F 2 "" H 2300 6100 50  0000 C CNN
F 3 "" H 2300 6100 50  0000 C CNN
	1    2300 6100
	0    1    1    0   
$EndComp
$Comp
L GND #PWR06
U 1 1 578594DC
P 5650 2400
F 0 "#PWR06" H 5650 2150 50  0001 C CNN
F 1 "GND" H 5650 2250 50  0000 C CNN
F 2 "" H 5650 2400 50  0000 C CNN
F 3 "" H 5650 2400 50  0000 C CNN
	1    5650 2400
	1    0    0    -1  
$EndComp
$Comp
L VCC #PWR07
U 1 1 5785A60E
P 5650 1050
F 0 "#PWR07" H 5650 900 50  0001 C CNN
F 1 "VCC" H 5650 1200 50  0000 C CNN
F 2 "" H 5650 1050 50  0000 C CNN
F 3 "" H 5650 1050 50  0000 C CNN
	1    5650 1050
	1    0    0    -1  
$EndComp
$Comp
L Crystal_Small Y1
U 1 1 5785AA3F
P 5900 3500
F 0 "Y1" H 5900 3600 50  0000 C CNN
F 1 "Crystal_Small" H 5900 3400 50  0000 C CNN
F 2 "lib:abracon_crystal" H 5900 3500 50  0001 C CNN
F 3 "" H 5900 3500 50  0000 C CNN
	1    5900 3500
	0    1    1    0   
$EndComp
$Comp
L C C10
U 1 1 5785ABE1
P 6250 3600
F 0 "C10" V 6300 3650 50  0000 L CNN
F 1 "15pf" V 6200 3650 50  0000 L CNN
F 2 "Capacitors_SMD:C_1206" H 6288 3450 50  0001 C CNN
F 3 "" H 6250 3600 50  0000 C CNN
	1    6250 3600
	0    -1   -1   0   
$EndComp
$Comp
L C C9
U 1 1 5785AC97
P 6250 3400
F 0 "C9" V 6200 3450 50  0000 L CNN
F 1 "15pf" V 6300 3450 50  0000 L CNN
F 2 "Capacitors_SMD:C_1206" H 6288 3250 50  0001 C CNN
F 3 "" H 6250 3400 50  0000 C CNN
	1    6250 3400
	0    -1   -1   0   
$EndComp
$Comp
L MMA8452Q-RESCUE-small_brd IC2
U 1 1 5785B94B
P 4900 1600
F 0 "IC2" H 4650 2350 60  0000 C CNN
F 1 "MMA8452Q" H 4950 1150 60  0000 C CNN
F 2 "lib:MMA8452Q" H 5000 2350 60  0001 C CNN
F 3 "" H 4900 1600 60  0000 C CNN
F 4 "accelerometer" V 5100 1800 60  0000 C CNN "Function"
	1    4900 1600
	0    -1   -1   0   
$EndComp
$Comp
L PA45-1615-1575SA ANT2
U 1 1 5785C8CE
P 4100 6750
F 0 "ANT2" H 4550 6800 60  0000 C CNN
F 1 "PA45-1615-1575SA" H 4000 6600 60  0000 C CNN
F 2 "drifter:PA45-1615-1575SA" H 3600 6800 60  0001 C CNN
F 3 "" H 4100 6750 60  0000 C CNN
F 4 "antenna" H 4250 6900 60  0000 C CNN "Function"
	1    4100 6750
	-1   0    0    1   
$EndComp
$Comp
L VCC #PWR08
U 1 1 5785541A
P 7050 4250
F 0 "#PWR08" H 7050 4100 50  0001 C CNN
F 1 "VCC" H 7150 4350 50  0000 C CNN
F 2 "" H 7050 4250 50  0000 C CNN
F 3 "" H 7050 4250 50  0000 C CNN
	1    7050 4250
	0    1    1    0   
$EndComp
$Comp
L RXM-GPS-RM MOD1
U 1 1 577E9FBB
P 9100 3000
F 0 "MOD1" H 8900 2900 60  0000 C CNN
F 1 "RXM-GPS-RM" H 9100 3000 60  0000 C CNN
F 2 "drifter:RXM-GPS-RM" H 9100 3000 60  0001 C CNN
F 3 "" H 9100 3000 60  0000 C CNN
	1    9100 3000
	1    0    0    -1  
$EndComp
$Comp
L VCC #PWR09
U 1 1 5785E9CE
P 10450 2800
F 0 "#PWR09" H 10450 2650 50  0001 C CNN
F 1 "VCC" H 10450 2950 50  0000 C CNN
F 2 "" H 10450 2800 50  0000 C CNN
F 3 "" H 10450 2800 50  0000 C CNN
	1    10450 2800
	0    1    1    0   
$EndComp
$Comp
L VCC #PWR010
U 1 1 5785ED6D
P 5850 4150
F 0 "#PWR010" H 5850 4000 50  0001 C CNN
F 1 "VCC" H 5850 4300 50  0000 C CNN
F 2 "" H 5850 4150 50  0000 C CNN
F 3 "" H 5850 4150 50  0000 C CNN
	1    5850 4150
	0    1    1    0   
$EndComp
Text GLabel 5750 1400 1    60   Input ~ 0
VREF
Text GLabel 3250 5700 2    60   Input ~ 0
VREF
Text GLabel 3250 6100 2    60   Input ~ 0
VREF
$Comp
L R R1
U 1 1 57867AD1
P 5700 4150
F 0 "R1" V 5780 4150 50  0000 C CNN
F 1 "4.7k" V 5700 4150 50  0000 C CNN
F 2 "Resistors_SMD:R_1206" V 5630 4150 50  0001 C CNN
F 3 "" H 5700 4150 50  0000 C CNN
	1    5700 4150
	0    1    1    0   
$EndComp
$Comp
L GND #PWR011
U 1 1 578686B7
P 4650 2250
F 0 "#PWR011" H 4650 2000 50  0001 C CNN
F 1 "GND" H 4650 2100 50  0000 C CNN
F 2 "" H 4650 2250 50  0000 C CNN
F 3 "" H 4650 2250 50  0000 C CNN
	1    4650 2250
	1    0    0    -1  
$EndComp
$Comp
L cap C5
U 1 1 57869234
P 5050 2300
F 0 "C5" H 5050 2400 60  0000 C CNN
F 1 "4.7uF" H 4900 2350 60  0000 C CNN
F 2 "Capacitors_SMD:C_1206" H 5050 2300 60  0001 C CNN
F 3 "" H 5050 2300 60  0000 C CNN
	1    5050 2300
	1    0    0    -1  
$EndComp
$Comp
L VCC #PWR012
U 1 1 5786A09D
P 5350 2350
F 0 "#PWR012" H 5350 2200 50  0001 C CNN
F 1 "VCC" H 5350 2500 50  0000 C CNN
F 2 "" H 5350 2350 50  0000 C CNN
F 3 "" H 5350 2350 50  0000 C CNN
	1    5350 2350
	-1   0    0    1   
$EndComp
$Comp
L cap C4
U 1 1 5786A567
P 4250 2300
F 0 "C4" H 4200 2400 60  0000 C CNN
F 1 "0.1uF" H 4200 2200 60  0000 C CNN
F 2 "Capacitors_SMD:C_1206" H 4250 2300 60  0001 C CNN
F 3 "" H 4250 2300 60  0000 C CNN
	1    4250 2300
	0    1    1    0   
$EndComp
$Comp
L GND #PWR013
U 1 1 5786AA2C
P 4250 2400
F 0 "#PWR013" H 4250 2150 50  0001 C CNN
F 1 "GND" H 4250 2250 50  0000 C CNN
F 2 "" H 4250 2400 50  0000 C CNN
F 3 "" H 4250 2400 50  0000 C CNN
	1    4250 2400
	1    0    0    -1  
$EndComp
Text GLabel 2650 3300 0    60   Input ~ 0
VREF
$Comp
L CONN_02X03 P1
U 1 1 5786D227
P 1150 2900
F 0 "P1" H 1150 3100 50  0000 C CNN
F 1 "ISP" H 1150 2700 50  0000 C CNN
F 2 "lib:ISP" H 1150 1700 50  0001 C CNN
F 3 "" H 1150 1700 50  0000 C CNN
	1    1150 2900
	1    0    0    -1  
$EndComp
Text GLabel 2150 2900 2    60   Input ~ 0
MOSI
Text GLabel 800  2750 0    60   Input ~ 0
MISO
Text GLabel 800  2900 0    60   Input ~ 0
SCK
Text GLabel 800  3050 0    60   Input ~ 0
RST
$Comp
L GND #PWR014
U 1 1 5786DA3B
P 2000 3050
F 0 "#PWR014" H 2000 2800 50  0001 C CNN
F 1 "GND" H 2000 2900 50  0000 C CNN
F 2 "" H 2000 3050 50  0000 C CNN
F 3 "" H 2000 3050 50  0000 C CNN
	1    2000 3050
	1    0    0    -1  
$EndComp
Text GLabel 5500 4100 1    60   Input ~ 0
RST
Text GLabel 5200 3100 2    60   Input ~ 0
MISO
Text GLabel 5200 3000 2    60   Input ~ 0
MOSI
Text GLabel 5600 3200 2    60   Input ~ 0
SCK
$Comp
L D_Small D13
U 1 1 5786F34B
P 2750 2550
F 0 "D13" H 2700 2630 50  0000 L CNN
F 1 "D_Small" H 2700 2450 50  0000 L CNN
F 2 "lib:DB2J317" V 2750 2550 50  0001 C CNN
F 3 "" V 2750 2550 50  0000 C CNN
	1    2750 2550
	0    -1   -1   0   
$EndComp
$Comp
L GND #PWR015
U 1 1 5786FEFB
P 1100 1450
F 0 "#PWR015" H 1100 1200 50  0001 C CNN
F 1 "GND" H 1100 1300 50  0000 C CNN
F 2 "" H 1100 1450 50  0000 C CNN
F 3 "" H 1100 1450 50  0000 C CNN
	1    1100 1450
	1    0    0    -1  
$EndComp
$Comp
L D_Small D2
U 1 1 578709B3
P 1900 1350
F 0 "D2" H 1850 1430 50  0000 L CNN
F 1 "D_Small" H 1850 1250 50  0000 L CNN
F 2 "lib:DB2J317" V 1900 1350 50  0001 C CNN
F 3 "" V 1900 1350 50  0000 C CNN
	1    1900 1350
	-1   0    0    1   
$EndComp
$Comp
L D_Small D8
U 1 1 57870A93
P 2150 1250
F 0 "D8" H 2100 1330 50  0000 L CNN
F 1 "D_Small" H 2100 1150 50  0000 L CNN
F 2 "lib:DB2J317" V 2150 1250 50  0001 C CNN
F 3 "" V 2150 1250 50  0000 C CNN
	1    2150 1250
	-1   0    0    1   
$EndComp
$Comp
L D_Small D1
U 1 1 57870B26
P 1900 1150
F 0 "D1" H 1850 1230 50  0000 L CNN
F 1 "D_Small" H 1850 1050 50  0000 L CNN
F 2 "lib:DB2J317" V 1900 1150 50  0001 C CNN
F 3 "" V 1900 1150 50  0000 C CNN
	1    1900 1150
	-1   0    0    1   
$EndComp
$Comp
L cap C1
U 1 1 5787361E
P 2600 2900
F 0 "C1" V 2550 3000 60  0000 C CNN
F 1 "0.1uF" V 2450 2900 60  0000 C CNN
F 2 "Capacitors_SMD:C_1206" H 2600 2900 60  0001 C CNN
F 3 "" H 2600 2900 60  0000 C CNN
	1    2600 2900
	0    1    1    0   
$EndComp
Text Notes 1400 1700 0    60   ~ 0
Battery connector\n
$Comp
L cap C7
U 1 1 5787BC1E
P 5450 1200
F 0 "C7" V 5400 1050 60  0000 C CNN
F 1 "4.7uF" V 5300 1200 60  0000 C CNN
F 2 "Capacitors_SMD:C_1206" H 5450 1200 60  0001 C CNN
F 3 "" H 5450 1200 60  0000 C CNN
	1    5450 1200
	0    1    1    0   
$EndComp
$Comp
L GND #PWR016
U 1 1 5787ECAA
P 5450 1300
F 0 "#PWR016" H 5450 1050 50  0001 C CNN
F 1 "GND" H 5450 1150 50  0000 C CNN
F 2 "" H 5450 1300 50  0000 C CNN
F 3 "" H 5450 1300 50  0000 C CNN
	1    5450 1300
	1    0    0    -1  
$EndComp
NoConn ~ 8450 2400
$Comp
L R R2
U 1 1 5788510F
P 5850 3000
F 0 "R2" V 5900 2850 50  0000 C CNN
F 1 "4.7k" V 5850 3000 50  0000 C CNN
F 2 "Resistors_SMD:R_1206" V 5780 3000 50  0001 C CNN
F 3 "" H 5850 3000 50  0000 C CNN
	1    5850 3000
	0    1    1    0   
$EndComp
$Comp
L R R4
U 1 1 57885245
P 5450 3100
F 0 "R4" V 5500 3250 50  0000 C CNN
F 1 "4.7k" V 5450 3100 50  0000 C CNN
F 2 "Resistors_SMD:R_1206" V 5380 3100 50  0001 C CNN
F 3 "" H 5450 3100 50  0000 C CNN
	1    5450 3100
	0    1    1    0   
$EndComp
$Comp
L R R3
U 1 1 578852F2
P 6000 3200
F 0 "R3" V 6050 3050 50  0000 C CNN
F 1 "4.7k" V 6000 3200 50  0000 C CNN
F 2 "Resistors_SMD:R_1206" V 5930 3200 50  0001 C CNN
F 3 "" H 6000 3200 50  0000 C CNN
	1    6000 3200
	0    1    1    0   
$EndComp
$Comp
L GND #PWR017
U 1 1 578E4ADF
P 10250 2400
F 0 "#PWR017" H 10250 2150 50  0001 C CNN
F 1 "GND" H 10250 2250 50  0000 C CNN
F 2 "" H 10250 2400 50  0000 C CNN
F 3 "" H 10250 2400 50  0000 C CNN
	1    10250 2400
	1    0    0    -1  
$EndComp
$Comp
L MIC5019-RESCUE-small_brd IC4
U 1 1 578E5C77
P 10400 1800
F 0 "IC4" H 10650 1950 60  0000 C CNN
F 1 "MIC5019" H 10450 1650 60  0000 C CNN
F 2 "lib:MIC-4QFN" H 10400 1800 60  0001 C CNN
F 3 "" H 10400 1800 60  0000 C CNN
	1    10400 1800
	1    0    0    -1  
$EndComp
$Comp
L VCC #PWR018
U 1 1 578E60BB
P 9950 1700
F 0 "#PWR018" H 9950 1550 50  0001 C CNN
F 1 "VCC" H 9950 1850 50  0000 C CNN
F 2 "" H 9950 1700 50  0000 C CNN
F 3 "" H 9950 1700 50  0000 C CNN
	1    9950 1700
	1    0    0    -1  
$EndComp
$Comp
L GND #PWR019
U 1 1 578E622B
P 10950 1900
F 0 "#PWR019" H 10950 1650 50  0001 C CNN
F 1 "GND" H 10950 1750 50  0000 C CNN
F 2 "" H 10950 1900 50  0000 C CNN
F 3 "" H 10950 1900 50  0000 C CNN
	1    10950 1900
	1    0    0    -1  
$EndComp
$Comp
L cap C2
U 1 1 578E6741
P 9750 1750
F 0 "C2" H 9750 1850 60  0000 C CNN
F 1 "4.7uF" H 9750 1650 60  0000 C CNN
F 2 "Capacitors_SMD:C_1206" H 9750 1750 60  0001 C CNN
F 3 "" H 9750 1750 60  0000 C CNN
	1    9750 1750
	1    0    0    -1  
$EndComp
$Comp
L GND #PWR020
U 1 1 578E6B6B
P 9550 1750
F 0 "#PWR020" H 9550 1500 50  0001 C CNN
F 1 "GND" H 9550 1600 50  0000 C CNN
F 2 "" H 9550 1750 50  0000 C CNN
F 3 "" H 9550 1750 50  0000 C CNN
	1    9550 1750
	1    0    0    -1  
$EndComp
$Comp
L MIC5019-RESCUE-small_brd IC3
U 1 1 578E71C1
P 7050 4550
F 0 "IC3" H 7300 4700 60  0000 C CNN
F 1 "MIC5019" H 7100 4400 60  0000 C CNN
F 2 "lib:MIC-4QFN" H 7050 4550 60  0001 C CNN
F 3 "" H 7050 4550 60  0000 C CNN
	1    7050 4550
	1    0    0    -1  
$EndComp
$Comp
L GND #PWR021
U 1 1 578E7DE1
P 7600 4650
F 0 "#PWR021" H 7600 4400 50  0001 C CNN
F 1 "GND" H 7600 4500 50  0000 C CNN
F 2 "" H 7600 4650 50  0000 C CNN
F 3 "" H 7600 4650 50  0000 C CNN
	1    7600 4650
	1    0    0    -1  
$EndComp
$Comp
L cap C3
U 1 1 578E81FD
P 6500 4350
F 0 "C3" H 6500 4450 60  0000 C CNN
F 1 "4.7uF" H 6500 4250 60  0000 C CNN
F 2 "Capacitors_SMD:C_1206" H 6500 4350 60  0001 C CNN
F 3 "" H 6500 4350 60  0000 C CNN
	1    6500 4350
	1    0    0    -1  
$EndComp
$Comp
L GND #PWR022
U 1 1 578E838F
P 6350 4450
F 0 "#PWR022" H 6350 4200 50  0001 C CNN
F 1 "GND" H 6350 4300 50  0000 C CNN
F 2 "" H 6350 4450 50  0000 C CNN
F 3 "" H 6350 4450 50  0000 C CNN
	1    6350 4450
	1    0    0    -1  
$EndComp
$Comp
L Q_NMOS_GSD Q2
U 1 1 578E9110
P 10500 3050
F 0 "Q2" H 10400 3100 50  0000 R CNN
F 1 "T2N7002BK" H 10400 2900 50  0000 R CNN
F 2 "TO_SOT_Packages_SMD:SOT-23" H 10700 3150 50  0001 C CNN
F 3 "" H 10500 3050 50  0000 C CNN
	1    10500 3050
	-1   0    0    -1  
$EndComp
$Comp
L Q_NMOS_GSD Q1
U 1 1 578E9514
P 7950 4550
F 0 "Q1" V 7900 4450 50  0000 R CNN
F 1 "T2N7002BK" V 8200 4700 50  0000 R CNN
F 2 "TO_SOT_Packages_SMD:SOT-23" H 8150 4650 50  0001 C CNN
F 3 "" H 7950 4550 50  0000 C CNN
	1    7950 4550
	0    -1   1    0   
$EndComp
Text GLabel 6300 2700 2    60   Input ~ 0
STX3_RST
Text GLabel 8850 5450 0    60   Input ~ 0
STX3_RST
Text GLabel 8850 4850 0    60   Input ~ 0
STX3-P_EN
Text GLabel 8850 4950 0    60   Input ~ 0
STX3-Tx
Text GLabel 8850 5050 0    60   Input ~ 0
STX3-Rx
Text GLabel 8850 5150 0    60   Input ~ 0
STX3-T2
Text GLabel 8850 5250 0    60   Input ~ 0
STX3-T1
Text GLabel 6300 3200 2    60   Input ~ 0
STX3-P_EN
Text GLabel 6300 3100 2    60   Input ~ 0
STX3-Tx
Text GLabel 6300 3000 2    60   Input ~ 0
STX3-Rx
Text GLabel 6300 2900 2    60   Input ~ 0
STX3-T2
Text GLabel 6300 2800 2    60   Input ~ 0
STX3-T1
NoConn ~ 8450 2700
Text GLabel 8250 2500 0    60   Input ~ 0
GPS-Tx
Text GLabel 8250 2600 0    60   Input ~ 0
GPS-Rx
Text GLabel 8250 2150 0    60   Input ~ 0
GPS-P_EN
Text GLabel 5650 3750 2    60   Input ~ 0
GPS-P_EN
Text GLabel 5450 4300 2    60   Input ~ 0
GPS-Rx
Text GLabel 5450 4400 2    60   Input ~ 0
GPS-Tx
$Comp
L R J1
U 1 1 579270C8
P 7850 4200
F 0 "J1" V 7900 4050 50  0000 C CNN
F 1 "0" V 7850 4200 50  0000 C CNN
F 2 "Resistors_SMD:R_0603" V 7780 4200 50  0001 C CNN
F 3 "" H 7850 4200 50  0000 C CNN
	1    7850 4200
	0    1    1    0   
$EndComp
$Comp
L R J2
U 1 1 579277FA
P 10800 2750
F 0 "J2" V 10650 2750 50  0000 C CNN
F 1 "0" V 10800 2750 50  0000 C CNN
F 2 "Resistors_SMD:R_0603" V 10730 2750 50  0001 C CNN
F 3 "" H 10800 2750 50  0000 C CNN
	1    10800 2750
	-1   0    0    1   
$EndComp
$Comp
L ATMEGA168A-A-RESCUE-small_brd IC1
U 1 1 577E9E67
P 3650 3800
F 0 "IC1" H 3300 5050 50  0000 L BNN
F 1 "ATMEGA168PB" H 4050 2400 50  0000 L BNN
F 2 "Housings_QFP:TQFP-32_7x7mm_Pitch0.8mm" H 3650 3800 50  0001 C CIN
F 3 "" H 3650 3800 50  0000 C CNN
	1    3650 3800
	1    0    0    -1  
$EndComp
NoConn ~ 4850 2150
NoConn ~ 4650 3650
NoConn ~ 4650 3550
$Comp
L A3211-RESCUE-small_brd U4
U 1 1 57A24ECB
P 5250 5900
F 0 "U4" H 5150 6000 60  0000 C CNN
F 1 "A3211" H 5250 5900 60  0000 C CNN
F 2 "lib:SOT23W" H 5250 5900 60  0001 C CNN
F 3 "" H 5250 5900 60  0000 C CNN
	1    5250 5900
	-1   0    0    1   
$EndComp
$Comp
L GND #PWR023
U 1 1 57A25245
P 5250 5200
F 0 "#PWR023" H 5250 4950 50  0001 C CNN
F 1 "GND" H 5250 5050 50  0000 C CNN
F 2 "" H 5250 5200 50  0000 C CNN
F 3 "" H 5250 5200 50  0000 C CNN
	1    5250 5200
	1    0    0    -1  
$EndComp
$Comp
L VCC #PWR024
U 1 1 57A25352
P 5350 5300
F 0 "#PWR024" H 5350 5150 50  0001 C CNN
F 1 "VCC" H 5450 5400 50  0000 C CNN
F 2 "" H 5350 5300 50  0000 C CNN
F 3 "" H 5350 5300 50  0000 C CNN
	1    5350 5300
	1    0    0    -1  
$EndComp
Text GLabel 8250 2800 0    60   Input ~ 0
GPS_RF
Text GLabel 8850 4750 0    60   Input ~ 0
STX3_RF
$Comp
L L_Small L1
U 1 1 57AA337D
P 4700 6850
F 0 "L1" H 4730 6890 50  0000 L CNN
F 1 "L_Small" H 4730 6810 50  0000 L CNN
F 2 "Resistors_SMD:R_0603" H 4700 6850 50  0001 C CNN
F 3 "" H 4700 6850 50  0000 C CNN
	1    4700 6850
	1    0    0    -1  
$EndComp
$Comp
L cap C6
U 1 1 57AA387C
P 4550 6750
F 0 "C6" H 4600 6850 60  0000 C CNN
F 1 "33pF" H 4600 6950 60  0000 C CNN
F 2 "Capacitors_SMD:C_0402" H 4550 6750 60  0001 C CNN
F 3 "" H 4550 6750 60  0000 C CNN
	1    4550 6750
	-1   0    0    1   
$EndComp
$Comp
L GND #PWR025
U 1 1 57AA4136
P 4700 7000
F 0 "#PWR025" H 4700 6750 50  0001 C CNN
F 1 "GND" H 4700 6850 50  0000 C CNN
F 2 "" H 4700 7000 50  0000 C CNN
F 3 "" H 4700 7000 50  0000 C CNN
	1    4700 7000
	1    0    0    -1  
$EndComp
$Comp
L GND #PWR026
U 1 1 57AA446F
P 6450 6750
F 0 "#PWR026" H 6450 6500 50  0001 C CNN
F 1 "GND" H 6450 6600 50  0000 C CNN
F 2 "" H 6450 6750 50  0000 C CNN
F 3 "" H 6450 6750 50  0000 C CNN
	1    6450 6750
	1    0    0    -1  
$EndComp
Text GLabel 6550 6500 2    60   Input ~ 0
GPS_RF
Text GLabel 6550 7000 2    60   Input ~ 0
STX3_RF
$Comp
L VCC #PWR027
U 1 1 57AA5CFF
P 5100 7300
F 0 "#PWR027" H 5100 7150 50  0001 C CNN
F 1 "VCC" H 5200 7400 50  0000 C CNN
F 2 "" H 5100 7300 50  0000 C CNN
F 3 "" H 5100 7300 50  0000 C CNN
	1    5100 7300
	-1   0    0    1   
$EndComp
Text GLabel 2550 3850 0    60   Input ~ 0
SW1
Text GLabel 4650 4700 2    60   Input ~ 0
SW2
Text GLabel 5250 7000 0    60   Input ~ 0
SW1
Text GLabel 5250 6500 0    60   Input ~ 0
SW2
Wire Wire Line
	10150 4450 10150 5650
Connection ~ 10150 5550
Connection ~ 10150 4450
Connection ~ 10050 2600
Connection ~ 10050 2500
Connection ~ 10050 2400
Connection ~ 10050 2700
Connection ~ 2750 2700
Wire Wire Line
	6050 4100 6050 4700
Wire Wire Line
	6150 4000 6150 4800
Wire Wire Line
	2750 4800 2750 5050
Connection ~ 2750 5050
Connection ~ 2750 4900
Connection ~ 2750 4800
Connection ~ 2750 3000
Connection ~ 2300 6100
Connection ~ 2300 5700
Wire Wire Line
	2300 5800 2150 5800
Wire Wire Line
	2050 6200 2300 6200
Connection ~ 5650 2400
Wire Wire Line
	2150 5800 2150 4150
Wire Wire Line
	2150 4150 2750 4150
Wire Wire Line
	2050 6200 2050 4050
Wire Wire Line
	2050 4050 2750 4050
Wire Wire Line
	6400 3600 6450 3600
Wire Wire Line
	6400 3400 6450 3400
Connection ~ 10150 5450
Connection ~ 10150 5350
Connection ~ 10150 5250
Connection ~ 10150 5150
Connection ~ 10150 5050
Connection ~ 10150 4950
Connection ~ 10150 4850
Connection ~ 10150 4750
Connection ~ 10150 4650
Connection ~ 10150 4550
Wire Wire Line
	3200 6100 3250 6100
Wire Wire Line
	3200 5700 3250 5700
Wire Wire Line
	5750 1600 5750 1400
Wire Wire Line
	4650 2150 4650 2250
Wire Wire Line
	5050 2200 5050 2150
Connection ~ 4950 2200
Wire Wire Line
	5100 2300 5150 2300
Wire Wire Line
	5150 2300 5150 2150
Connection ~ 4950 2300
Wire Wire Line
	5150 2150 5250 2150
Wire Wire Line
	5350 2350 5250 2350
Connection ~ 5250 2350
Wire Wire Line
	4250 2200 4250 2150
Wire Wire Line
	4250 2400 4250 2350
Wire Wire Line
	4550 2150 4550 2450
Wire Wire Line
	4550 2450 4800 2450
Wire Wire Line
	4800 2450 4800 3950
Wire Wire Line
	4800 3950 4650 3950
Wire Wire Line
	4650 4050 4700 4050
Wire Wire Line
	4700 4050 4700 2550
Wire Wire Line
	4700 2550 4450 2550
Wire Wire Line
	2750 3300 2650 3300
Wire Wire Line
	900  3000 800  3000
Wire Wire Line
	800  3000 800  3050
Wire Wire Line
	800  2900 900  2900
Wire Wire Line
	900  2800 800  2800
Wire Wire Line
	800  2800 800  2750
Connection ~ 5850 4150
Wire Wire Line
	2750 2450 2750 2400
Wire Wire Line
	1700 1150 1800 1150
Wire Wire Line
	1700 1250 2050 1250
Wire Wire Line
	1700 1350 1800 1350
Wire Wire Line
	2250 1050 2300 1050
Wire Wire Line
	2300 1350 2000 1350
Wire Wire Line
	2250 1250 2300 1250
Connection ~ 2300 1250
Connection ~ 2600 2800
Wire Wire Line
	2000 3000 2000 3050
Connection ~ 2000 3000
Wire Wire Line
	3200 6200 3200 6100
Wire Wire Line
	3200 5800 3200 5700
Wire Wire Line
	5650 1050 5650 1600
Wire Wire Line
	5450 1100 5650 1100
Connection ~ 5650 1100
Wire Wire Line
	5450 1250 5450 1300
Wire Wire Line
	5400 4800 5400 5000
Wire Wire Line
	6150 4800 5400 4800
Wire Wire Line
	5300 4700 5300 4900
Wire Wire Line
	6050 4700 5300 4700
Wire Wire Line
	4650 3100 5300 3100
Wire Wire Line
	2750 2650 2750 3000
Connection ~ 2750 2800
Wire Wire Line
	10050 2800 10450 2800
Wire Wire Line
	10400 2550 10400 2850
Connection ~ 10400 2800
Wire Wire Line
	10400 3250 10250 3250
Wire Wire Line
	10250 3250 10250 2900
Wire Wire Line
	10250 2900 10050 2900
Wire Wire Line
	10050 2300 10050 2700
Wire Wire Line
	10050 2300 10250 2300
Wire Wire Line
	10250 2300 10250 2400
Wire Wire Line
	8900 4000 8900 4450
Wire Wire Line
	8800 4100 8800 4550
Wire Wire Line
	8800 4550 8900 4550
Wire Wire Line
	8150 4650 8900 4650
Wire Wire Line
	10000 2150 10000 1850
Wire Wire Line
	9800 1750 10000 1750
Wire Wire Line
	9950 1750 9950 1700
Wire Wire Line
	10900 1850 10950 1850
Wire Wire Line
	10950 1850 10950 1900
Wire Wire Line
	10900 1750 11050 1750
Wire Wire Line
	11050 1750 11050 3050
Wire Wire Line
	11050 3050 10700 3050
Connection ~ 9950 1750
Wire Wire Line
	9550 1750 9650 1750
Wire Wire Line
	6650 4250 6650 4500
Wire Wire Line
	6550 4350 7750 4350
Wire Wire Line
	7750 4350 7750 4650
Connection ~ 6650 4350
Wire Wire Line
	7550 4500 7600 4500
Wire Wire Line
	7600 4500 7600 4300
Wire Wire Line
	7600 4300 8000 4300
Wire Wire Line
	7950 4300 7950 4350
Wire Wire Line
	7550 4600 7600 4600
Wire Wire Line
	7600 4600 7600 4650
Wire Wire Line
	6350 4450 6350 4350
Wire Wire Line
	6350 4350 6400 4350
Wire Wire Line
	6650 4250 7050 4250
Wire Wire Line
	8900 5550 8150 5550
Wire Wire Line
	8150 5550 8150 4650
Connection ~ 8150 4650
Wire Wire Line
	6050 4100 8800 4100
Wire Wire Line
	6150 4000 8900 4000
Connection ~ 6650 4600
Wire Wire Line
	5400 5000 4650 5000
Wire Wire Line
	5300 4900 4650 4900
Wire Wire Line
	5150 4800 5150 4600
Wire Wire Line
	5150 4600 6650 4600
Wire Wire Line
	4650 2700 6300 2700
Wire Wire Line
	8850 5450 8900 5450
Wire Wire Line
	4650 2800 6300 2800
Wire Wire Line
	4650 2900 6300 2900
Wire Wire Line
	6000 3000 6300 3000
Wire Wire Line
	5600 3100 6300 3100
Wire Wire Line
	6150 3200 6300 3200
Wire Wire Line
	8900 4850 8850 4850
Wire Wire Line
	8850 4950 8900 4950
Wire Wire Line
	8900 5050 8850 5050
Wire Wire Line
	8900 5150 8850 5150
Wire Wire Line
	8900 5250 8850 5250
Wire Wire Line
	8450 2500 8250 2500
Wire Wire Line
	8450 2600 8250 2600
Wire Wire Line
	10000 2150 8250 2150
Wire Wire Line
	4650 4400 5450 4400
Wire Wire Line
	4650 4300 5450 4300
Wire Wire Line
	1400 3000 2600 3000
Wire Wire Line
	4650 3750 5650 3750
Wire Wire Line
	4650 4150 5550 4150
Wire Wire Line
	5500 4100 5500 4150
Connection ~ 5500 4150
Wire Wire Line
	4650 4800 5150 4800
Wire Wire Line
	4450 2550 4450 2150
Wire Wire Line
	4650 3300 5800 3300
Wire Wire Line
	4650 3200 5850 3200
Wire Wire Line
	1400 2800 2750 2800
Wire Wire Line
	4650 3000 5700 3000
Wire Wire Line
	2600 3000 2600 2950
Wire Wire Line
	1400 2900 2150 2900
Wire Wire Line
	8000 4300 8000 4200
Connection ~ 7950 4300
Wire Wire Line
	7700 4200 7700 4350
Connection ~ 7700 4350
Wire Wire Line
	10800 2900 10800 3050
Connection ~ 10800 3050
Wire Wire Line
	10800 2600 10800 2550
Wire Wire Line
	10800 2550 10400 2550
Wire Wire Line
	6100 3400 5800 3400
Wire Wire Line
	5800 3400 5800 3300
Wire Wire Line
	4650 3400 5700 3400
Wire Wire Line
	5700 3400 5700 3600
Wire Wire Line
	5700 3600 6100 3600
Wire Wire Line
	5750 2400 5750 2750
Wire Wire Line
	5750 2750 5000 2750
Wire Wire Line
	5000 2750 5000 3850
Wire Wire Line
	5000 3850 4650 3850
Wire Wire Line
	4900 2400 4900 4500
Wire Wire Line
	4750 2150 4750 2400
Wire Wire Line
	4750 2400 4900 2400
Wire Wire Line
	4900 4500 4650 4500
Wire Wire Line
	5250 2350 5250 2150
Wire Wire Line
	4950 2150 4950 2300
Wire Wire Line
	4650 2200 5050 2200
Connection ~ 4650 2200
Wire Wire Line
	5350 5450 5350 5300
Wire Wire Line
	5250 5450 5250 5400
Wire Wire Line
	5250 5400 5150 5400
Wire Wire Line
	5150 5400 5150 5200
Wire Wire Line
	5150 5200 5250 5200
Wire Wire Line
	4900 5450 5150 5450
Wire Wire Line
	4900 4600 4900 5450
Wire Wire Line
	4650 4600 4900 4600
Wire Wire Line
	8850 4750 8900 4750
Wire Wire Line
	8250 2800 8450 2800
Wire Wire Line
	4450 6750 4500 6750
Connection ~ 4700 6750
Wire Wire Line
	4700 7000 4700 6950
Wire Wire Line
	4650 6750 5400 6750
Wire Wire Line
	2550 3850 2750 3850
$Comp
L MASWSS0115 SW1
U 1 1 57AA7E2B
P 5800 6750
F 0 "SW1" V 6150 6700 60  0000 C CNN
F 1 "MASWSS0115" H 5800 6700 60  0000 C CNN
F 2 "TO_SOT_Packages_SMD:SC-70-6" H 5800 6750 60  0001 C CNN
F 3 "" H 5800 6750 60  0000 C CNN
	1    5800 6750
	0    -1   -1   0   
$EndComp
Wire Wire Line
	5400 7000 5250 7000
Wire Wire Line
	5250 6500 5400 6500
Wire Wire Line
	6300 6750 6450 6750
$Comp
L cap C11
U 1 1 57BB6794
P 6400 7000
F 0 "C11" H 6450 7100 60  0000 C CNN
F 1 "39pF" H 6450 7200 60  0000 C CNN
F 2 "Capacitors_SMD:C_0402" H 6400 7000 60  0001 C CNN
F 3 "" H 6400 7000 60  0000 C CNN
	1    6400 7000
	-1   0    0    1   
$EndComp
$Comp
L cap C8
U 1 1 57BB6A42
P 6400 6500
F 0 "C8" H 6450 6600 60  0000 C CNN
F 1 "39pF" H 6450 6700 60  0000 C CNN
F 2 "Capacitors_SMD:C_0402" H 6400 6500 60  0001 C CNN
F 3 "" H 6400 6500 60  0000 C CNN
	1    6400 6500
	-1   0    0    1   
$EndComp
Wire Wire Line
	6500 7000 6550 7000
Wire Wire Line
	6350 7000 6300 7000
Wire Wire Line
	6350 6500 6300 6500
Wire Wire Line
	6500 6500 6550 6500
$Comp
L GND #PWR028
U 1 1 57BB7963
P 6450 3600
F 0 "#PWR028" H 6450 3350 50  0001 C CNN
F 1 "GND" H 6450 3450 50  0000 C CNN
F 2 "" H 6450 3600 50  0000 C CNN
F 3 "" H 6450 3600 50  0000 C CNN
	1    6450 3600
	1    0    0    -1  
$EndComp
Wire Wire Line
	6450 3400 6450 3600
Connection ~ 5900 3600
Connection ~ 5900 3400
Wire Wire Line
	1700 1050 2050 1050
$Comp
L D_Small D7
U 1 1 57870BB4
P 2150 1050
F 0 "D7" H 2100 1130 50  0000 L CNN
F 1 "D_Small" H 2100 950 50  0000 L CNN
F 2 "lib:DB2J317" V 2150 1050 50  0001 C CNN
F 3 "" V 2150 1050 50  0000 C CNN
	1    2150 1050
	-1   0    0    1   
$EndComp
$Comp
L CONN_02X04 P2
U 1 1 57BC9528
P 1450 1200
F 0 "P2" H 1450 1450 50  0000 C CNN
F 1 "CONN_02X04" H 1450 950 50  0000 C CNN
F 2 "lib:4x2-header" H 1450 0   50  0001 C CNN
F 3 "" H 1450 0   50  0000 C CNN
	1    1450 1200
	1    0    0    -1  
$EndComp
Wire Wire Line
	2000 1150 2300 1150
Connection ~ 2300 1150
Wire Wire Line
	1200 1050 1100 1050
Wire Wire Line
	1100 1050 1100 1450
Wire Wire Line
	2300 950  2300 1350
Connection ~ 2300 1050
$Comp
L VCC #PWR029
U 1 1 57BC9C59
P 2300 950
F 0 "#PWR029" H 2300 800 50  0001 C CNN
F 1 "VCC" H 2300 1100 50  0000 C CNN
F 2 "" H 2300 950 50  0000 C CNN
F 3 "" H 2300 950 50  0000 C CNN
	1    2300 950 
	1    0    0    -1  
$EndComp
Wire Wire Line
	1200 1150 1100 1150
Connection ~ 1100 1150
Wire Wire Line
	1200 1250 1100 1250
Connection ~ 1100 1250
Wire Wire Line
	1200 1350 1100 1350
Connection ~ 1100 1350
NoConn ~ 2750 3950
$EndSCHEMATC
