EESchema Schematic File Version 2
LIBS:STINGR_drifter-rescue
LIBS:power
LIBS:device
LIBS:transistors
LIBS:conn
LIBS:linear
LIBS:regul
LIBS:74xx
LIBS:cmos4000
LIBS:adc-dac
LIBS:memory
LIBS:xilinx
LIBS:microcontrollers
LIBS:dsp
LIBS:microchip
LIBS:analog_switches
LIBS:motorola
LIBS:texas
LIBS:intel
LIBS:audio
LIBS:interface
LIBS:digital-audio
LIBS:philips
LIBS:display
LIBS:cypress
LIBS:siliconi
LIBS:opto
LIBS:atmel
LIBS:contrib
LIBS:valves
LIBS:drifter
LIBS:dips-s
LIBS:STINGR_drifter-cache
EELAYER 25 0
EELAYER END
$Descr A4 11693 8268
encoding utf-8
Sheet 1 4
Title "Stokes Drifter"
Date "2017-02-02"
Rev "v1.1"
Comp "Florida State University"
Comment1 "John Easton"
Comment2 ""
Comment3 ""
Comment4 ""
$EndDescr
$Comp
L STINGR STINGR2
U 1 1 579F873A
P 8600 2450
F 0 "STINGR2" H 8450 1500 60  0000 C CNN
F 1 "STINGR" H 8500 3050 60  0000 C CNN
F 2 "lib:STINGR" H 8600 2450 60  0001 C CNN
F 3 "" H 8600 2450 60  0000 C CNN
F 4 "GPS/Globalstar satellite module" H 8600 2450 60  0001 C CNN "Field4"
	1    8600 2450
	-1   0    0    1   
$EndComp
$Comp
L GND #PWR01
U 1 1 57A8D784
P 9900 3400
F 0 "#PWR01" H 9900 3150 50  0001 C CNN
F 1 "GND" H 9900 3250 50  0000 C CNN
F 2 "" H 9900 3400 50  0000 C CNN
F 3 "" H 9900 3400 50  0000 C CNN
	1    9900 3400
	1    0    0    -1  
$EndComp
NoConn ~ 7800 1850
$Comp
L STINGR STINGR1
U 1 1 57A8E210
P 8500 5300
F 0 "STINGR1" H 8450 4350 60  0000 C CNN
F 1 "STINGR" H 8400 5900 60  0000 C CNN
F 2 "lib:STINGR" H 8500 5300 60  0001 C CNN
F 3 "" H 8500 5300 60  0001 C CNN
F 4 "GPS/Globalstar satellite module" H 8500 5300 60  0001 C CNN "Field4"
	1    8500 5300
	-1   0    0    1   
$EndComp
$Comp
L GND #PWR02
U 1 1 57A8E217
P 9800 6250
F 0 "#PWR02" H 9800 6000 50  0001 C CNN
F 1 "GND" H 9800 6100 50  0000 C CNN
F 2 "" H 9800 6250 50  0000 C CNN
F 3 "" H 9800 6250 50  0000 C CNN
	1    9800 6250
	1    0    0    -1  
$EndComp
$Comp
L VCC #PWR03
U 1 1 57A8E23E
P 10550 4250
F 0 "#PWR03" H 10550 4100 50  0001 C CNN
F 1 "VCC" H 10550 4400 50  0000 C CNN
F 2 "" H 10550 4250 50  0000 C CNN
F 3 "" H 10550 4250 50  0000 C CNN
	1    10550 4250
	1    0    0    -1  
$EndComp
NoConn ~ 7700 4700
$Comp
L ATMEGA168PB IC2
U 1 1 57AB6CB0
P 2250 3900
F 0 "IC2" H 1550 5150 50  0000 L BNN
F 1 "ATMEGA168PB" H 1550 2500 50  0000 L BNN
F 2 "Housings_QFP:TQFP-32_7x7mm_Pitch0.8mm" H 1700 2550 50  0001 C CNN
F 3 "" H 2250 3900 60  0000 C CNN
F 4 "Microprocessor" H 2250 3900 60  0001 C CNN "Field4"
	1    2250 3900
	1    0    0    -1  
$EndComp
$Comp
L CONN_02X03 P7
U 1 1 57AB6DB3
P 1450 950
F 0 "P7" H 1450 1150 50  0000 C CNN
F 1 "ISP" H 1450 750 50  0000 C CNN
F 2 "lib:ISP" H 1450 -250 50  0001 C CNN
F 3 "" H 1450 -250 50  0000 C CNN
F 4 "Programming connector" H 1450 950 60  0001 C CNN "Field4"
	1    1450 950 
	1    0    0    -1  
$EndComp
Text GLabel 1150 850  0    60   Input ~ 0
MISO
Text GLabel 1150 950  0    60   Input ~ 0
SCK
Text GLabel 1150 1050 0    60   Input ~ 0
RST
Text GLabel 1750 950  2    60   Input ~ 0
MOSI
$Comp
L GND #PWR04
U 1 1 57AB6F2D
P 1750 1100
F 0 "#PWR04" H 1750 850 50  0001 C CNN
F 1 "GND" H 1750 950 50  0000 C CNN
F 2 "" H 1750 1100 50  0000 C CNN
F 3 "" H 1750 1100 50  0000 C CNN
	1    1750 1100
	1    0    0    -1  
$EndComp
$Comp
L R R6
U 1 1 57AB996E
P 3950 3200
F 0 "R6" V 3900 3350 50  0000 C CNN
F 1 "4.7k" V 3950 3200 50  0000 C CNN
F 2 "Resistors_SMD:R_0603" V 3880 3200 50  0001 C CNN
F 3 "" H 3950 3200 50  0000 C CNN
F 4 "programming resistor" V 3950 3200 60  0001 C CNN "Field4"
	1    3950 3200
	0    1    1    0   
$EndComp
$Comp
L R R5
U 1 1 57AB99A1
P 3950 3100
F 0 "R5" V 3900 3250 50  0000 C CNN
F 1 "4.7k" V 3950 3100 50  0000 C CNN
F 2 "Resistors_SMD:R_0603" V 3880 3100 50  0001 C CNN
F 3 "" H 3950 3100 50  0000 C CNN
F 4 "programming resistor" V 3950 3100 60  0001 C CNN "Field4"
	1    3950 3100
	0    1    1    0   
$EndComp
$Comp
L Crystal_Small Y1
U 1 1 57AB9BF8
P 3850 3500
F 0 "Y1" V 4000 3500 50  0000 C CNN
F 1 "3.6864MHZ" V 3700 3450 50  0000 C CNN
F 2 "lib:abracon_crystal" H 3850 3500 50  0001 C CNN
F 3 "" H 3850 3500 50  0000 C CNN
F 4 "MCU clock" V 3850 3500 60  0001 C CNN "Field4"
	1    3850 3500
	0    -1   -1   0   
$EndComp
$Comp
L cap C11
U 1 1 57AB9C6C
P 4200 3600
F 0 "C11" H 4300 3550 60  0000 C CNN
F 1 "15pf" H 4200 3700 60  0000 C CNN
F 2 "Capacitors_SMD:C_1206" H 4200 3600 60  0001 C CNN
F 3 "" H 4200 3600 60  0000 C CNN
F 4 "clock cap" H 4200 3600 60  0001 C CNN "Field4"
	1    4200 3600
	-1   0    0    1   
$EndComp
$Comp
L cap C10
U 1 1 57AB9D61
P 4200 3400
F 0 "C10" H 4300 3350 60  0000 C CNN
F 1 "15pf" H 4300 3450 60  0000 C CNN
F 2 "Capacitors_SMD:C_1206" H 4200 3400 60  0001 C CNN
F 3 "" H 4200 3400 60  0000 C CNN
F 4 "clock cap" H 4200 3400 60  0001 C CNN "Field4"
	1    4200 3400
	-1   0    0    1   
$EndComp
Text GLabel 3450 3100 2    60   Input ~ 0
MOSI
Text GLabel 3450 3200 2    60   Input ~ 0
MISO
Text GLabel 3450 3300 2    60   Input ~ 0
SCK
Text GLabel 3500 4250 2    60   Input ~ 0
RST
$Comp
L GND #PWR05
U 1 1 57ABAE3B
P 1300 5100
F 0 "#PWR05" H 1300 4850 50  0001 C CNN
F 1 "GND" H 1300 4950 50  0000 C CNN
F 2 "" H 1300 5100 50  0000 C CNN
F 3 "" H 1300 5100 50  0000 C CNN
	1    1300 5100
	1    0    0    -1  
$EndComp
$Comp
L GND #PWR06
U 1 1 57ABB603
P 4400 3650
F 0 "#PWR06" H 4400 3400 50  0001 C CNN
F 1 "GND" H 4400 3500 50  0000 C CNN
F 2 "" H 4400 3650 50  0000 C CNN
F 3 "" H 4400 3650 50  0000 C CNN
	1    4400 3650
	1    0    0    -1  
$EndComp
Text GLabel 1200 3250 2    60   Input ~ 0
VREF
Text GLabel 7200 2550 0    60   Input ~ 0
STINGR1_TxD
Text GLabel 7200 2650 0    60   Input ~ 0
STINGR1_RxD
Text GLabel 7200 2750 0    60   Input ~ 0
STINGR1_RTS
Text GLabel 7200 2850 0    60   Input ~ 0
STINGR1_CTS
Text GLabel 7100 5400 0    60   Input ~ 0
STINGR2_TxD
Text GLabel 7100 5500 0    60   Input ~ 0
STINGR2_RxD
Text GLabel 7100 5600 0    60   Input ~ 0
STINGR2_RTS
Text GLabel 7100 5700 0    60   Input ~ 0
STINGR2_CTS
Text GLabel 3700 4400 2    60   Input ~ 0
STINGR1_TxD
Text GLabel 3700 4500 2    60   Input ~ 0
STINGR1_RxD
Text GLabel 4200 3200 2    60   Input ~ 0
STINGR2_TxD
Text GLabel 3700 4800 2    60   Input ~ 0
STINGR1_RTS
Text GLabel 1300 4200 0    60   Input ~ 0
STINGR1_CTS
Text GLabel 4200 2800 2    60   Input ~ 0
STINGR2_RTS
Text GLabel 4200 3000 2    60   Input ~ 0
STINGR2_CTS
Text GLabel 7400 4900 0    60   Input ~ 0
STINGR2_PWREN
Text GLabel 7600 2100 0    60   Input ~ 0
STINGR1_PWREN
Text GLabel 3300 3950 2    60   Input ~ 0
STINGR1_PWREN
Text GLabel 3700 5100 2    60   Input ~ 0
STINGR2_PWREN
$Comp
L R R7
U 1 1 57AC18E3
P 3950 4250
F 0 "R7" V 3900 4400 50  0000 C CNN
F 1 "4.7k" V 3950 4250 50  0000 C CNN
F 2 "Resistors_SMD:R_0603" V 3880 4250 50  0001 C CNN
F 3 "" H 3950 4250 50  0000 C CNN
F 4 "pullup" V 3950 4250 60  0001 C CNN "Field4"
	1    3950 4250
	0    1    1    0   
$EndComp
Text GLabel 3300 3750 2    60   Input ~ 0
VREF_EN
Text GLabel 1300 3900 0    60   Input ~ 0
TEMP1
$Comp
L R J4
U 1 1 57AC3312
P 7450 5200
F 0 "J4" V 7400 5050 50  0000 C CNN
F 1 "J" V 7450 5200 50  0000 C CNN
F 2 "Resistors_SMD:R_0603" V 7380 5200 50  0001 C CNN
F 3 "" H 7450 5200 50  0000 C CNN
F 4 "STINGR1-Test2" V 7450 5200 60  0001 C CNN "Field4"
	1    7450 5200
	0    1    1    0   
$EndComp
$Comp
L R J3
U 1 1 57AC33A7
P 7450 5100
F 0 "J3" V 7400 4950 50  0000 C CNN
F 1 "J" V 7450 5100 50  0000 C CNN
F 2 "Resistors_SMD:R_0603" V 7380 5100 50  0001 C CNN
F 3 "" H 7450 5100 50  0000 C CNN
F 4 "STINGR1-Test1" V 7450 5100 60  0001 C CNN "Field4"
	1    7450 5100
	0    1    1    0   
$EndComp
$Comp
L R J6
U 1 1 57AC3610
P 7550 2350
F 0 "J6" V 7500 2200 50  0000 C CNN
F 1 "J" V 7550 2350 50  0000 C CNN
F 2 "Resistors_SMD:R_0603" V 7480 2350 50  0001 C CNN
F 3 "" H 7550 2350 50  0000 C CNN
F 4 "STING2-Test2" V 7550 2350 60  0001 C CNN "Field4"
	1    7550 2350
	0    1    1    0   
$EndComp
$Comp
L R J5
U 1 1 57AC3703
P 7550 2250
F 0 "J5" V 7500 2100 50  0000 C CNN
F 1 "J" V 7550 2250 50  0000 C CNN
F 2 "Resistors_SMD:R_0603" V 7480 2250 50  0001 C CNN
F 3 "" H 7550 2250 50  0000 C CNN
F 4 "STINGR2-Test1" V 7550 2250 60  0001 C CNN "Field4"
	1    7550 2250
	0    1    1    0   
$EndComp
$Comp
L GND #PWR07
U 1 1 57AC3B59
P 7200 5200
F 0 "#PWR07" H 7200 4950 50  0001 C CNN
F 1 "GND" H 7200 5050 50  0000 C CNN
F 2 "" H 7200 5200 50  0000 C CNN
F 3 "" H 7200 5200 50  0000 C CNN
	1    7200 5200
	1    0    0    -1  
$EndComp
$Comp
L GND #PWR08
U 1 1 57AC3D57
P 7300 2350
F 0 "#PWR08" H 7300 2100 50  0001 C CNN
F 1 "GND" H 7300 2200 50  0000 C CNN
F 2 "" H 7300 2350 50  0000 C CNN
F 3 "" H 7300 2350 50  0000 C CNN
	1    7300 2350
	1    0    0    -1  
$EndComp
$Comp
L MMA8452Q IC1
U 1 1 57AC5B99
P 950 6850
F 0 "IC1" H 800 7600 60  0000 C CNN
F 1 "MMA8452Q" H 1000 6300 60  0000 C CNN
F 2 "lib:MMA8452Q" V 1300 6650 60  0000 C CNN
F 3 "" H 950 6850 60  0000 C CNN
F 4 "accelerometer" V 1150 7050 60  0000 C CNN "Function"
	1    950  6850
	-1   0    0    1   
$EndComp
$Comp
L C C4
U 1 1 57AC5DD5
P 1750 7500
F 0 "C4" V 1700 7350 50  0000 L CNN
F 1 "100nF" V 1800 7200 50  0000 L CNN
F 2 "Capacitors_SMD:C_1206" H 1788 7350 50  0001 C CNN
F 3 "" H 1750 7500 50  0000 C CNN
F 4 "accelerometer decouple" V 1750 7500 60  0001 C CNN "Field4"
	1    1750 7500
	0    1    1    0   
$EndComp
$Comp
L VCC #PWR09
U 1 1 57AC6452
P 1600 6100
F 0 "#PWR09" H 1600 5950 50  0001 C CNN
F 1 "VCC" H 1600 6250 50  0000 C CNN
F 2 "" H 1600 6100 50  0000 C CNN
F 3 "" H 1600 6100 50  0000 C CNN
	1    1600 6100
	1    0    0    -1  
$EndComp
Text GLabel 1650 7200 2    60   Input ~ 0
SDA
Text GLabel 1650 7300 2    60   Input ~ 0
SCL
Text GLabel 5150 4050 2    60   Input ~ 0
SDA
Text GLabel 5150 4150 2    60   Input ~ 0
SCL
NoConn ~ 1500 6900
$Comp
L GND #PWR010
U 1 1 57AC7217
P 2150 7550
F 0 "#PWR010" H 2150 7300 50  0001 C CNN
F 1 "GND" H 2150 7400 50  0000 C CNN
F 2 "" H 2150 7550 50  0000 C CNN
F 3 "" H 2150 7550 50  0000 C CNN
	1    2150 7550
	1    0    0    -1  
$EndComp
$Comp
L C C6
U 1 1 57AC935E
P 1950 6500
F 0 "C6" V 1900 6350 50  0000 L CNN
F 1 "4.7uF" V 2000 6200 50  0000 L CNN
F 2 "Capacitors_SMD:C_1206" H 1988 6350 50  0001 C CNN
F 3 "" H 1950 6500 50  0000 C CNN
F 4 "acceleromter bypass" V 1950 6500 60  0001 C CNN "Field4"
	1    1950 6500
	0    1    1    0   
$EndComp
$Comp
L C C2
U 1 1 57AC9D32
P 900 3150
F 0 "C2" V 850 3000 50  0000 L CNN
F 1 "100nF" V 750 3100 50  0000 L CNN
F 2 "Capacitors_SMD:C_1206" H 938 3000 50  0001 C CNN
F 3 "" H 900 3150 50  0000 C CNN
F 4 "MCU decouple" V 900 3150 60  0001 C CNN "Field4"
	1    900  3150
	-1   0    0    1   
$EndComp
$Comp
L MIC5019 IC4
U 1 1 57ACAB34
P 10500 4750
F 0 "IC4" V 10250 4550 60  0000 C CNN
F 1 "MIC5019" H 10550 4600 60  0000 C CNN
F 2 "lib:MIC-4QFN" H 10500 4750 60  0001 C CNN
F 3 "" H 10500 4750 60  0000 C CNN
F 4 "STINGR1 switch driver" V 10500 4750 60  0001 C CNN "Field4"
	1    10500 4750
	0    1    1    0   
$EndComp
$Comp
L VCC #PWR011
U 1 1 57ACC16B
P 10650 1400
F 0 "#PWR011" H 10650 1250 50  0001 C CNN
F 1 "VCC" H 10650 1550 50  0000 C CNN
F 2 "" H 10650 1400 50  0000 C CNN
F 3 "" H 10650 1400 50  0000 C CNN
	1    10650 1400
	1    0    0    -1  
$EndComp
$Comp
L MIC5019 IC5
U 1 1 57ACC171
P 10600 1900
F 0 "IC5" V 10350 1700 60  0000 C CNN
F 1 "MIC5019" H 10650 1750 60  0000 C CNN
F 2 "lib:MIC-4QFN" H 10600 1900 60  0001 C CNN
F 3 "" H 10600 1900 60  0000 C CNN
F 4 "STINGR2 switch driver" V 10600 1900 60  0001 C CNN "Field4"
	1    10600 1900
	0    1    1    0   
$EndComp
Text GLabel 10550 1400 1    60   Input ~ 0
STINGR1_EN
Text GLabel 10450 4200 1    60   Input ~ 0
STINGR2_EN
Text GLabel 5850 4900 2    60   Input ~ 0
STINGR2_EN
Text GLabel 3700 5000 2    60   Input ~ 0
STINGR1_EN
$Comp
L R J7
U 1 1 57ACD77B
P 10150 6100
F 0 "J7" V 10100 5950 50  0000 C CNN
F 1 "J" V 10150 6100 50  0000 C CNN
F 2 "Resistors_SMD:R_0603" V 10080 6100 50  0001 C CNN
F 3 "" H 10150 6100 50  0000 C CNN
F 4 "Bypass STINGR1 switch" V 10150 6100 60  0001 C CNN "Field4"
	1    10150 6100
	0    1    1    0   
$EndComp
$Comp
L R J8
U 1 1 57ACDDE4
P 10250 3250
F 0 "J8" V 10200 3100 50  0000 C CNN
F 1 "J" V 10250 3250 50  0000 C CNN
F 2 "Resistors_SMD:R_0603" V 10180 3250 50  0001 C CNN
F 3 "" H 10250 3250 50  0000 C CNN
F 4 "Bypass STINGR2 switch" V 10250 3250 60  0001 C CNN "Field4"
	1    10250 3250
	0    1    1    0   
$EndComp
$Comp
L GND #PWR012
U 1 1 57B2050F
P 700 2550
F 0 "#PWR012" H 700 2300 50  0001 C CNN
F 1 "GND" H 700 2400 50  0000 C CNN
F 2 "" H 700 2550 50  0000 C CNN
F 3 "" H 700 2550 50  0000 C CNN
	1    700  2550
	1    0    0    -1  
$EndComp
$Comp
L D_Small D4
U 1 1 57B20F63
P 800 2400
F 0 "D4" H 650 2450 50  0000 L CNN
F 1 "D_Small" H 450 2450 50  0001 L CNN
F 2 "lib:DB2J317" V 800 2400 50  0001 C CNN
F 3 "" V 800 2400 50  0000 C CNN
F 4 "Protection Diode" H 800 2400 60  0001 C CNN "Field4"
	1    800  2400
	1    0    0    -1  
$EndComp
$Comp
L D_Small D3
U 1 1 57B21065
P 800 2050
F 0 "D3" H 650 2100 50  0000 L CNN
F 1 "D_Small" H 450 2100 50  0001 L CNN
F 2 "lib:DB2J317" V 800 2050 50  0001 C CNN
F 3 "" V 800 2050 50  0000 C CNN
F 4 "Protection Diode" H 800 2050 60  0001 C CNN "Field4"
	1    800  2050
	1    0    0    -1  
$EndComp
$Comp
L D_Small D2
U 1 1 57B210D7
P 800 1650
F 0 "D2" H 650 1700 50  0000 L CNN
F 1 "D_Small" H 450 1700 50  0001 L CNN
F 2 "lib:DB2J317" V 800 1650 50  0001 C CNN
F 3 "" V 800 1650 50  0000 C CNN
F 4 "Protection Diode" H 800 1650 60  0001 C CNN "Field4"
	1    800  1650
	1    0    0    -1  
$EndComp
$Comp
L D_Small D1
U 1 1 57B2114A
P 800 1250
F 0 "D1" H 650 1300 50  0000 L CNN
F 1 "D_Small" H 450 1300 50  0001 L CNN
F 2 "lib:DB2J317" V 800 1250 50  0001 C CNN
F 3 "" V 800 1250 50  0000 C CNN
F 4 "Protection Diode" H 800 1250 60  0001 C CNN "Field4"
	1    800  1250
	1    0    0    -1  
$EndComp
$Comp
L GND #PWR013
U 1 1 57B328D4
P 900 3350
F 0 "#PWR013" H 900 3100 50  0001 C CNN
F 1 "GND" H 900 3200 50  0000 C CNN
F 2 "" H 900 3350 50  0000 C CNN
F 3 "" H 900 3350 50  0000 C CNN
	1    900  3350
	1    0    0    -1  
$EndComp
$Comp
L C C17
U 1 1 57D19C22
P 10900 1650
F 0 "C17" V 10950 1500 50  0000 L CNN
F 1 "4.7uF" V 10850 1350 50  0000 L CNN
F 2 "Capacitors_SMD:C_1206" H 10938 1500 50  0001 C CNN
F 3 "" H 10900 1650 50  0000 C CNN
F 4 "sting2 switch driver decoupling" V 10900 1650 60  0001 C CNN "Field4"
	1    10900 1650
	1    0    0    -1  
$EndComp
$Comp
L GND #PWR014
U 1 1 57D1A537
P 10900 1850
F 0 "#PWR014" H 10900 1600 50  0001 C CNN
F 1 "GND" H 10900 1700 50  0000 C CNN
F 2 "" H 10900 1850 50  0000 C CNN
F 3 "" H 10900 1850 50  0000 C CNN
	1    10900 1850
	1    0    0    -1  
$EndComp
$Comp
L C C16
U 1 1 57D1A994
P 10800 4500
F 0 "C16" V 10850 4350 50  0000 L CNN
F 1 "4.7uF" V 10750 4200 50  0000 L CNN
F 2 "Capacitors_SMD:C_1206" H 10838 4350 50  0001 C CNN
F 3 "" H 10800 4500 50  0000 C CNN
F 4 "STINGR1 switch driver decoupling" V 10800 4500 60  0001 C CNN "Field4"
	1    10800 4500
	1    0    0    -1  
$EndComp
$Comp
L GND #PWR015
U 1 1 57D1AB96
P 10800 4700
F 0 "#PWR015" H 10800 4450 50  0001 C CNN
F 1 "GND" H 10800 4550 50  0000 C CNN
F 2 "" H 10800 4700 50  0000 C CNN
F 3 "" H 10800 4700 50  0000 C CNN
	1    10800 4700
	1    0    0    -1  
$EndComp
$Comp
L C C1
U 1 1 57D1B31C
P 700 3050
F 0 "C1" V 650 2900 50  0000 L CNN
F 1 "100nF" V 750 2750 50  0000 L CNN
F 2 "Capacitors_SMD:C_1206" H 738 2900 50  0001 C CNN
F 3 "" H 700 3050 50  0000 C CNN
F 4 "MCU decouple" V 700 3050 60  0001 C CNN "Field4"
	1    700  3050
	-1   0    0    1   
$EndComp
$Comp
L GND #PWR016
U 1 1 57D1B540
P 700 3300
F 0 "#PWR016" H 700 3050 50  0001 C CNN
F 1 "GND" H 700 3150 50  0000 C CNN
F 2 "" H 700 3300 50  0000 C CNN
F 3 "" H 700 3300 50  0000 C CNN
	1    700  3300
	1    0    0    -1  
$EndComp
Text GLabel 1650 7000 2    60   Input ~ 0
Accel_int
Text GLabel 3700 4600 2    60   Input ~ 0
Accel_int
$Comp
L 74LVC1G04GW U2
U 1 1 57D2BAB6
P 5000 5000
F 0 "U2" H 5050 5150 50  0000 C CNN
F 1 "74LVC1G04GW" H 5250 4850 50  0000 C CNN
F 2 "TO_SOT_Packages_SMD:SOT-353" H 5000 4800 50  0000 C CNN
F 3 "" H 5145 5115 50  0000 C CNN
F 4 "STINGER selector" H 5000 5000 60  0001 C CNN "Field4"
	1    5000 5000
	1    0    0    -1  
$EndComp
$Comp
L GND #PWR017
U 1 1 57D2C392
P 4950 5250
F 0 "#PWR017" H 4950 5000 50  0001 C CNN
F 1 "GND" H 4950 5100 50  0000 C CNN
F 2 "" H 4950 5250 50  0000 C CNN
F 3 "" H 4950 5250 50  0000 C CNN
	1    4950 5250
	1    0    0    -1  
$EndComp
Text GLabel 1300 4100 0    60   Input ~ 0
Buzz_EN
$Comp
L VCC #PWR018
U 1 1 57E19D4D
P 5750 6450
F 0 "#PWR018" H 5750 6300 50  0001 C CNN
F 1 "VCC" H 5750 6600 50  0000 C CNN
F 2 "" H 5750 6450 50  0000 C CNN
F 3 "" H 5750 6450 50  0000 C CNN
	1    5750 6450
	1    0    0    -1  
$EndComp
$Comp
L C C5
U 1 1 582B3E20
P 1950 6300
F 0 "C5" V 1900 6150 50  0000 L CNN
F 1 "100nF" V 2000 6000 50  0000 L CNN
F 2 "Capacitors_SMD:C_1206" H 1988 6150 50  0001 C CNN
F 3 "" H 1950 6300 50  0000 C CNN
F 4 "acceleromter decouple" V 1950 6300 60  0001 C CNN "Field4"
	1    1950 6300
	0    1    1    0   
$EndComp
$Comp
L R R10
U 1 1 582B5132
P 5700 5200
F 0 "R10" V 5650 5350 50  0000 C CNN
F 1 "4.7k" V 5700 5200 50  0000 C CNN
F 2 "Resistors_SMD:R_0603" V 5630 5200 50  0001 C CNN
F 3 "" H 5700 5200 50  0000 C CNN
F 4 "pulldown" V 5700 5200 60  0001 C CNN "Field4"
	1    5700 5200
	-1   0    0    1   
$EndComp
$Comp
L GND #PWR019
U 1 1 582B5619
P 5700 5400
F 0 "#PWR019" H 5700 5150 50  0001 C CNN
F 1 "GND" H 5700 5250 50  0000 C CNN
F 2 "" H 5700 5400 50  0000 C CNN
F 3 "" H 5700 5400 50  0000 C CNN
	1    5700 5400
	1    0    0    -1  
$EndComp
$Comp
L R R8
U 1 1 582B5BF6
P 4900 4000
F 0 "R8" V 5000 3950 50  0000 C CNN
F 1 "4.7k" V 4900 4000 50  0000 C CNN
F 2 "Resistors_SMD:R_0603" V 4830 4000 50  0001 C CNN
F 3 "" H 4900 4000 50  0000 C CNN
F 4 "pullup" V 4900 4000 60  0001 C CNN "Field4"
	1    4900 4000
	-1   0    0    1   
$EndComp
$Comp
L R R9
U 1 1 582B5EA9
P 5050 3900
F 0 "R9" V 4950 3850 50  0000 C CNN
F 1 "4.7k" V 5050 3900 50  0000 C CNN
F 2 "Resistors_SMD:R_0603" V 4980 3900 50  0001 C CNN
F 3 "" H 5050 3900 50  0000 C CNN
F 4 "pullup" V 5050 3900 60  0001 C CNN "Field4"
	1    5050 3900
	-1   0    0    1   
$EndComp
$Comp
L VCC #PWR020
U 1 1 582B6F9D
P 5050 3550
F 0 "#PWR020" H 5050 3400 50  0001 C CNN
F 1 "VCC" H 5050 3700 50  0000 C CNN
F 2 "" H 5050 3550 50  0000 C CNN
F 3 "" H 5050 3550 50  0000 C CNN
	1    5050 3550
	1    0    0    -1  
$EndComp
$Comp
L VCC #PWR021
U 1 1 582B7CC9
P 900 2850
F 0 "#PWR021" H 900 2700 50  0001 C CNN
F 1 "VCC" H 900 3000 50  0000 C CNN
F 2 "" H 900 2850 50  0000 C CNN
F 3 "" H 900 2850 50  0000 C CNN
	1    900  2850
	1    0    0    -1  
$EndComp
Text GLabel 550  1200 1    60   Input ~ 0
VBATT
$Comp
L VCC #PWR022
U 1 1 582B9847
P 1750 800
F 0 "#PWR022" H 1750 650 50  0001 C CNN
F 1 "VCC" H 1750 950 50  0000 C CNN
F 2 "" H 1750 800 50  0000 C CNN
F 3 "" H 1750 800 50  0000 C CNN
	1    1750 800 
	1    0    0    -1  
$EndComp
NoConn ~ 9700 1950
NoConn ~ 9600 4800
Text GLabel 2800 800  0    60   Input ~ 0
Buzz_EN
$Comp
L GND #PWR023
U 1 1 582CFC36
P 2750 950
F 0 "#PWR023" H 2750 700 50  0001 C CNN
F 1 "GND" H 2750 800 50  0000 C CNN
F 2 "" H 2750 950 50  0000 C CNN
F 3 "" H 2750 950 50  0000 C CNN
	1    2750 950 
	1    0    0    -1  
$EndComp
$Comp
L VCC #PWR024
U 1 1 582D67CE
P 2800 650
F 0 "#PWR024" H 2800 500 50  0001 C CNN
F 1 "VCC" H 2800 800 50  0000 C CNN
F 2 "" H 2800 650 50  0000 C CNN
F 3 "" H 2800 650 50  0000 C CNN
	1    2800 650 
	1    0    0    -1  
$EndComp
$Comp
L CONN_01X03 P12
U 1 1 582F28C6
P 6800 4200
F 0 "P12" H 6800 4400 50  0000 C CNN
F 1 "CONN_01X03" V 6900 4200 50  0000 C CNN
F 2 "lib:JST_ZH-3pos-top-through_hole" H 6800 4200 50  0001 C CNN
F 3 "" H 6800 4200 50  0000 C CNN
F 4 "Probe2" H 6800 4200 60  0001 C CNN "Field4"
	1    6800 4200
	1    0    0    -1  
$EndComp
$Comp
L CONN_01X03 P11
U 1 1 582F29B6
P 6800 3600
F 0 "P11" H 6800 3800 50  0000 C CNN
F 1 "CONN_01X03" V 6900 3600 50  0000 C CNN
F 2 "lib:JST_ZH-3pos-top-through_hole" H 6800 3600 50  0001 C CNN
F 3 "" H 6800 3600 50  0000 C CNN
F 4 "probe1" H 6800 3600 60  0001 C CNN "Field4"
	1    6800 3600
	1    0    0    -1  
$EndComp
Text GLabel 6000 3600 0    60   Input ~ 0
Probe1
Text GLabel 5900 4200 0    60   Input ~ 0
Probe2
Text GLabel 3300 3650 2    60   Input ~ 0
Probe1
Text GLabel 1300 4000 0    60   Input ~ 0
Probe2
Text GLabel 3700 4700 2    60   Input ~ 0
HALL_SW
$Comp
L VCC #PWR025
U 1 1 5830B33D
P 4200 4250
F 0 "#PWR025" H 4200 4100 50  0001 C CNN
F 1 "VCC" H 4200 4400 50  0000 C CNN
F 2 "" H 4200 4250 50  0000 C CNN
F 3 "" H 4200 4250 50  0000 C CNN
	1    4200 4250
	0    1    1    0   
$EndComp
Text GLabel 4400 5400 0    60   Input ~ 0
HALL_SW
Text GLabel 4000 5700 0    60   Input ~ 0
VBATT
Text GLabel 4400 5500 0    60   Input ~ 0
PWR_EN
$Comp
L CONN_01X04 P8
U 1 1 5836284D
P 4700 5550
F 0 "P8" H 4700 5800 50  0000 C CNN
F 1 "CONN_01X04" V 4800 5550 50  0000 C CNN
F 2 "lib:conn_2178713-4" H 4700 5550 50  0001 C CNN
F 3 "" H 4700 5550 50  0000 C CNN
F 4 "Activation connector" H 4700 5550 60  0001 C CNN "Field4"
	1    4700 5550
	1    0    0    -1  
$EndComp
$Comp
L R R14
U 1 1 584070E5
P 6450 4350
F 0 "R14" V 6550 4300 50  0000 C CNN
F 1 "10k" V 6450 4350 50  0000 C CNN
F 2 "Resistors_SMD:R_0603" V 6380 4350 50  0001 C CNN
F 3 "" H 6450 4350 50  0000 C CNN
F 4 "Probe 2 voltage divider" V 6450 4350 60  0001 C CNN "Field4"
	1    6450 4350
	-1   0    0    1   
$EndComp
$Comp
L R R13
U 1 1 5840759F
P 6450 3750
F 0 "R13" V 6550 3700 50  0000 C CNN
F 1 "10k" V 6450 3750 50  0000 C CNN
F 2 "Resistors_SMD:R_0603" V 6380 3750 50  0001 C CNN
F 3 "" H 6450 3750 50  0000 C CNN
F 4 "probe1 voltage divider" V 6450 3750 60  0001 C CNN "Field4"
	1    6450 3750
	-1   0    0    1   
$EndComp
$Comp
L R R16
U 1 1 5840A70B
P 10200 3350
F 0 "R16" V 10100 3300 50  0000 C CNN
F 1 "120" V 10200 3350 50  0000 C CNN
F 2 "Resistors_SMD:R_0603" V 10130 3350 50  0001 C CNN
F 3 "" H 10200 3350 50  0000 C CNN
F 4 "LED resistor" V 10200 3350 60  0001 C CNN "Field4"
	1    10200 3350
	0    -1   -1   0   
$EndComp
$Comp
L R R15
U 1 1 5840BB53
P 10100 6200
F 0 "R15" V 10000 6150 50  0000 C CNN
F 1 "120" V 10100 6200 50  0000 C CNN
F 2 "Resistors_SMD:R_0603" V 10030 6200 50  0001 C CNN
F 3 "" H 10100 6200 50  0000 C CNN
F 4 "LED resistor" V 10100 6200 60  0001 C CNN "Field4"
	1    10100 6200
	0    -1   -1   0   
$EndComp
$Comp
L GND #PWR026
U 1 1 5840BB59
P 10600 6250
F 0 "#PWR026" H 10600 6000 50  0001 C CNN
F 1 "GND" H 10600 6100 50  0000 C CNN
F 2 "" H 10600 6250 50  0000 C CNN
F 3 "" H 10600 6250 50  0000 C CNN
	1    10600 6250
	1    0    0    -1  
$EndComp
$Comp
L Led_Small_drifter D8
U 1 1 584141EA
P 10550 3350
F 0 "D8" H 10500 3475 50  0000 L CNN
F 1 "Led_Small_drifter" H 9900 3300 50  0000 L CNN
F 2 "lib:3.2x2.7mm_LED" V 10550 3350 50  0001 C CNN
F 3 "" V 10550 3350 50  0000 C CNN
F 4 "STINGR2 indicator" H 10550 3350 60  0001 C CNN "Field4"
	1    10550 3350
	-1   0    0    1   
$EndComp
$Comp
L Led_Small_drifter D7
U 1 1 58414314
P 10450 6200
F 0 "D7" H 10400 6325 50  0000 L CNN
F 1 "Led_Small_drifter" H 9750 6150 50  0000 L CNN
F 2 "lib:3.2x2.7mm_LED" V 10450 6200 50  0001 C CNN
F 3 "" V 10450 6200 50  0000 C CNN
F 4 "STINGR1 indicator" H 10450 6200 60  0001 C CNN "Field4"
	1    10450 6200
	-1   0    0    1   
$EndComp
$Comp
L GND #PWR027
U 1 1 57E573AD
P 1150 3650
F 0 "#PWR027" H 1150 3400 50  0001 C CNN
F 1 "GND" H 1150 3500 50  0000 C CNN
F 2 "" H 1150 3650 50  0000 C CNN
F 3 "" H 1150 3650 50  0000 C CNN
	1    1150 3650
	1    0    0    -1  
$EndComp
$Comp
L C C3
U 1 1 57E572E9
P 1150 3450
F 0 "C3" V 1100 3550 50  0000 L CNN
F 1 "100nF" V 1000 3400 50  0000 L CNN
F 2 "Capacitors_SMD:C_1206" H 1188 3300 50  0001 C CNN
F 3 "" H 1150 3450 50  0000 C CNN
F 4 "MCU VREF decouple" V 1150 3450 60  0001 C CNN "Field4"
	1    1150 3450
	-1   0    0    1   
$EndComp
$Sheet
S 5600 650  550  200 
U 5842328B
F0 "Noise circuit" 60
F1 "file5842328A.sch" 60
F2 "N_VREF" I L 5600 700 60 
F3 "TIMER_IN" I L 5600 800 60 
$EndSheet
$Comp
L R J2
U 1 1 58424E8B
P 5400 700
F 0 "J2" V 5350 550 50  0000 C CNN
F 1 "J" V 5400 700 50  0000 C CNN
F 2 "Resistors_SMD:R_0603" V 5330 700 50  0001 C CNN
F 3 "" H 5400 700 50  0000 C CNN
F 4 "connect noise circuit" V 5400 700 60  0001 C CNN "Field4"
	1    5400 700 
	0    1    1    0   
$EndComp
Text GLabel 5200 700  0    60   Input ~ 0
VREF
Text GLabel 5200 800  0    60   Input ~ 0
Noise_gen
Text GLabel 3400 2900 2    60   Input ~ 0
Noise_gen
Text GLabel 4200 3100 2    60   Input ~ 0
STINGR2_RxD
Text GLabel 3300 3850 2    60   Input ~ 0
Batt_health
$Comp
L R R11
U 1 1 584AA576
P 2000 1850
F 0 "R11" V 2100 1850 50  0000 C CNN
F 1 "10k" V 2000 1850 50  0000 C CNN
F 2 "Resistors_SMD:R_0603" V 1930 1850 50  0001 C CNN
F 3 "" H 2000 1850 50  0000 C CNN
F 4 "battery voltage divider (top)" V 2000 1850 60  0001 C CNN "Field4"
	1    2000 1850
	-1   0    0    1   
$EndComp
$Comp
L R R12
U 1 1 584AB360
P 2000 2250
F 0 "R12" V 2100 2250 50  0000 C CNN
F 1 "10k" V 2000 2250 50  0000 C CNN
F 2 "Resistors_SMD:R_0603" V 1930 2250 50  0001 C CNN
F 3 "" H 2000 2250 50  0000 C CNN
F 4 "battery voltage divider (bottom)" V 2000 2250 60  0001 C CNN "Field4"
	1    2000 2250
	-1   0    0    1   
$EndComp
Text GLabel 2500 1550 2    60   Input ~ 0
VBATT
Text Notes 2150 2400 0    60   ~ 0
Pull STINGR2_RTS high\nto read battery level
Text GLabel 6100 4650 2    60   Input ~ 0
SCK
Text Notes 7000 3950 0    60   ~ 0
Drive SCK low to\nuse voltage divider\n(for thermistor\ntemperature probes)
$Comp
L GND #PWR028
U 1 1 584B6369
P 6600 4650
F 0 "#PWR028" H 6600 4400 50  0001 C CNN
F 1 "GND" H 6600 4500 50  0000 C CNN
F 2 "" H 6600 4650 50  0000 C CNN
F 3 "" H 6600 4650 50  0000 C CNN
	1    6600 4650
	1    0    0    -1  
$EndComp
$Comp
L GND #PWR029
U 1 1 584B6BD7
P 6250 3950
F 0 "#PWR029" H 6250 3700 50  0001 C CNN
F 1 "GND" H 6250 3800 50  0000 C CNN
F 2 "" H 6250 3950 50  0000 C CNN
F 3 "" H 6250 3950 50  0000 C CNN
	1    6250 3950
	1    0    0    -1  
$EndComp
$Comp
L VCC #PWR030
U 1 1 585195BC
P 6550 3450
F 0 "#PWR030" H 6550 3300 50  0001 C CNN
F 1 "VCC" H 6550 3600 50  0000 C CNN
F 2 "" H 6550 3450 50  0000 C CNN
F 3 "" H 6550 3450 50  0000 C CNN
	1    6550 3450
	1    0    0    -1  
$EndComp
$Comp
L VCC #PWR031
U 1 1 58519849
P 6550 4100
F 0 "#PWR031" H 6550 3950 50  0001 C CNN
F 1 "VCC" H 6550 4250 50  0000 C CNN
F 2 "" H 6550 4100 50  0000 C CNN
F 3 "" H 6550 4100 50  0000 C CNN
	1    6550 4100
	0    -1   -1   0   
$EndComp
$Comp
L CONN_01X02 P3
U 1 1 5851D2C5
P 1200 1300
F 0 "P3" H 1200 1450 50  0000 C CNN
F 1 "CONN_01X02" H 1200 1150 50  0000 C CNN
F 2 "lib:9175-700_two-pin" H 1200 1300 50  0001 C CNN
F 3 "" H 1200 1300 50  0000 C CNN
F 4 "Battery connector" H 1200 1300 60  0001 C CNN "Field4"
	1    1200 1300
	1    0    0    -1  
$EndComp
$Comp
L CONN_01X02 P4
U 1 1 5851DDFB
P 1200 1700
F 0 "P4" H 1200 1850 50  0000 C CNN
F 1 "CONN_01X02" H 1200 1550 50  0000 C CNN
F 2 "lib:9175-700_two-pin" H 1200 1700 50  0001 C CNN
F 3 "" H 1200 1700 50  0000 C CNN
F 4 "Battery connector" H 1200 1700 60  0001 C CNN "Field4"
	1    1200 1700
	1    0    0    -1  
$EndComp
$Comp
L CONN_01X02 P5
U 1 1 5851DEB6
P 1200 2100
F 0 "P5" H 1200 2250 50  0000 C CNN
F 1 "CONN_01X02" H 1200 1950 50  0000 C CNN
F 2 "lib:9175-700_two-pin" H 1200 2100 50  0001 C CNN
F 3 "" H 1200 2100 50  0000 C CNN
F 4 "Battery connector" H 1200 2100 60  0001 C CNN "Field4"
	1    1200 2100
	1    0    0    -1  
$EndComp
$Comp
L CONN_01X02 P6
U 1 1 5851DEBC
P 1200 2450
F 0 "P6" H 1200 2600 50  0000 C CNN
F 1 "CONN_01X02" H 1250 2300 50  0000 C CNN
F 2 "lib:9175-700_two-pin" H 1200 2450 50  0001 C CNN
F 3 "" H 1200 2450 50  0000 C CNN
F 4 "Battery connector" H 1200 2450 60  0001 C CNN "Field4"
	1    1200 2450
	1    0    0    -1  
$EndComp
$Comp
L fiducial F1
U 1 1 58581951
P 6850 700
F 0 "F1" H 6850 550 60  0000 C CNN
F 1 "fiducial" H 6850 850 60  0000 C CNN
F 2 "Fiducials:Fiducial_1mm_Dia_2.54mm_Outer_CopperTop" H 6850 700 60  0001 C CNN
F 3 "" H 6850 700 60  0001 C CNN
	1    6850 700 
	1    0    0    -1  
$EndComp
$Comp
L fiducial F2
U 1 1 58581BB4
P 7250 700
F 0 "F2" H 7250 550 60  0000 C CNN
F 1 "fiducial" H 7250 850 60  0000 C CNN
F 2 "Fiducials:Fiducial_1mm_Dia_2.54mm_Outer_CopperTop" H 7250 700 60  0001 C CNN
F 3 "" H 7250 700 60  0001 C CNN
	1    7250 700 
	1    0    0    -1  
$EndComp
$Comp
L fiducial F3
U 1 1 58581CC3
P 7650 700
F 0 "F3" H 7650 550 60  0000 C CNN
F 1 "fiducial" H 7650 850 60  0000 C CNN
F 2 "Fiducials:Fiducial_1mm_Dia_2.54mm_Outer_CopperTop" H 7650 700 60  0001 C CNN
F 3 "" H 7650 700 60  0001 C CNN
	1    7650 700 
	1    0    0    -1  
$EndComp
$Comp
L fiducial F4
U 1 1 58581DE4
P 8050 700
F 0 "F4" H 8050 550 60  0000 C CNN
F 1 "fiducial" H 8050 850 60  0000 C CNN
F 2 "Fiducials:Fiducial_1mm_Dia_2.54mm_Outer_CopperTop" H 8050 700 60  0001 C CNN
F 3 "" H 8050 700 60  0001 C CNN
	1    8050 700 
	1    0    0    -1  
$EndComp
$Comp
L Hole_mount H1
U 1 1 58582B40
P 8650 700
F 0 "H1" H 8650 600 60  0000 C CNN
F 1 "Hole_mount" H 8700 850 60  0000 C CNN
F 2 "Mounting_Holes:MountingHole_3.2mm_M3_DIN965" H 8650 700 60  0001 C CNN
F 3 "" H 8650 700 60  0001 C CNN
	1    8650 700 
	1    0    0    -1  
$EndComp
$Comp
L Hole_mount H3
U 1 1 58582D43
P 9250 700
F 0 "H3" H 9250 600 60  0000 C CNN
F 1 "Hole_mount" H 9300 850 60  0000 C CNN
F 2 "Mounting_Holes:MountingHole_3.2mm_M3_DIN965" H 9250 700 60  0001 C CNN
F 3 "" H 9250 700 60  0001 C CNN
	1    9250 700 
	1    0    0    -1  
$EndComp
$Comp
L Hole_mount H4
U 1 1 58582E74
P 9250 1050
F 0 "H4" H 9250 950 60  0000 C CNN
F 1 "Hole_mount" H 9300 1200 60  0000 C CNN
F 2 "Mounting_Holes:MountingHole_3.2mm_M3_DIN965" H 9250 1050 60  0001 C CNN
F 3 "" H 9250 1050 60  0001 C CNN
	1    9250 1050
	1    0    0    -1  
$EndComp
$Comp
L Hole_mount H2
U 1 1 58583042
P 8650 1050
F 0 "H2" H 8650 950 60  0000 C CNN
F 1 "Hole_mount" H 8700 1200 60  0000 C CNN
F 2 "Mounting_Holes:MountingHole_3.2mm_M3_DIN965" H 8650 1050 60  0001 C CNN
F 3 "" H 8650 1050 60  0001 C CNN
	1    8650 1050
	1    0    0    -1  
$EndComp
$Comp
L VCC #PWR032
U 1 1 58588BD6
P 4000 5800
F 0 "#PWR032" H 4000 5650 50  0001 C CNN
F 1 "VCC" H 4000 5950 50  0000 C CNN
F 2 "" H 4000 5800 50  0000 C CNN
F 3 "" H 4000 5800 50  0000 C CNN
	1    4000 5800
	0    -1   -1   0   
$EndComp
$Comp
L R J9
U 1 1 585890B5
P 4200 5700
F 0 "J9" V 4150 5550 50  0000 C CNN
F 1 "J" V 4200 5700 50  0000 C CNN
F 2 "Resistors_SMD:R_0603" V 4130 5700 50  0001 C CNN
F 3 "" H 4200 5700 50  0000 C CNN
F 4 "VBATT to external" V 4200 5700 60  0001 C CNN "Field4"
	1    4200 5700
	0    1    1    0   
$EndComp
$Comp
L R J10
U 1 1 585897B8
P 4200 5800
F 0 "J10" V 4150 5650 50  0000 C CNN
F 1 "J" V 4200 5800 50  0000 C CNN
F 2 "Resistors_SMD:R_0603" V 4130 5800 50  0001 C CNN
F 3 "" H 4200 5800 50  0000 C CNN
F 4 "VCC to external" V 4200 5800 60  0001 C CNN "Field4"
	1    4200 5800
	0    1    1    0   
$EndComp
$Sheet
S 2850 650  550  350 
U 585967B0
F0 "buzzer" 60
F1 "file585967AF.sch" 60
F2 "GND" I L 2850 900 60 
F3 "Power" I L 2850 700 60 
F4 "Enable" I L 2850 800 60 
$EndSheet
$Comp
L GND #PWR033
U 1 1 5859E548
P 2000 2450
F 0 "#PWR033" H 2000 2200 50  0001 C CNN
F 1 "GND" H 2000 2300 50  0000 C CNN
F 2 "" H 2000 2450 50  0000 C CNN
F 3 "" H 2000 2450 50  0000 C CNN
	1    2000 2450
	1    0    0    -1  
$EndComp
$Comp
L Q_NMOS_GSD Q2
U 1 1 585A327E
P 10350 2800
F 0 "Q2" H 10400 3000 50  0000 R CNN
F 1 "Q_NMOS_GSD" V 10550 3100 50  0000 R CNN
F 2 "TO_SOT_Packages_SMD:SOT-23" H 10550 2900 50  0001 C CNN
F 3 "" H 10350 2800 50  0000 C CNN
F 4 "STING2 switch" H 10350 2800 60  0001 C CNN "Field4"
	1    10350 2800
	-1   0    0    1   
$EndComp
$Comp
L Q_NMOS_GSD Q3
U 1 1 585A569E
P 2250 1650
F 0 "Q3" V 2250 1850 50  0000 R CNN
F 1 "Q_NMOS_GSD" V 2450 1950 50  0000 R CNN
F 2 "TO_SOT_Packages_SMD:SOT-23" H 2450 1750 50  0001 C CNN
F 3 "" H 2250 1650 50  0000 C CNN
F 4 "battery monitor switch" V 2250 1650 60  0001 C CNN "Field4"
	1    2250 1650
	0    1    -1   0   
$EndComp
$Comp
L MIC5019 IC6
U 1 1 585A6744
P 3050 1850
F 0 "IC6" V 2800 1650 60  0000 C CNN
F 1 "MIC5019" H 3100 1700 60  0000 C CNN
F 2 "lib:MIC-4QFN" H 3050 1850 60  0001 C CNN
F 3 "" H 3050 1850 60  0000 C CNN
F 4 "battery monitor switch driver" V 3050 1850 60  0001 C CNN "Field4"
	1    3050 1850
	-1   0    0    1   
$EndComp
$Comp
L GND #PWR034
U 1 1 585A936F
P 2500 1800
F 0 "#PWR034" H 2500 1550 50  0001 C CNN
F 1 "GND" V 2450 1850 50  0000 C CNN
F 2 "" H 2500 1800 50  0000 C CNN
F 3 "" H 2500 1800 50  0000 C CNN
	1    2500 1800
	0    1    1    0   
$EndComp
$Comp
L VCC #PWR035
U 1 1 585A9DEC
P 3550 1950
F 0 "#PWR035" H 3550 1800 50  0001 C CNN
F 1 "VCC" H 3550 2100 50  0000 C CNN
F 2 "" H 3550 1950 50  0000 C CNN
F 3 "" H 3550 1950 50  0000 C CNN
	1    3550 1950
	0    1    1    0   
$EndComp
$Comp
L Q_NMOS_GSD Q1
U 1 1 585AAF32
P 10300 5600
F 0 "Q1" H 10350 5800 50  0000 R CNN
F 1 "Q_NMOS_GSD" V 10500 5900 50  0000 R CNN
F 2 "TO_SOT_Packages_SMD:SOT-23" H 10500 5700 50  0001 C CNN
F 3 "" H 10300 5600 50  0000 C CNN
F 4 "STINGR1 switch" H 10300 5600 60  0001 C CNN "Field4"
	1    10300 5600
	-1   0    0    1   
$EndComp
Text GLabel 2050 2050 2    60   Input ~ 0
Batt_health
$Comp
L GND #PWR036
U 1 1 586C75DA
P 3900 5550
F 0 "#PWR036" H 3900 5300 50  0001 C CNN
F 1 "GND" H 3900 5400 50  0000 C CNN
F 2 "" H 3900 5550 50  0000 C CNN
F 3 "" H 3900 5550 50  0000 C CNN
	1    3900 5550
	0    1    1    0   
$EndComp
$Comp
L GND #PWR037
U 1 1 586CC36F
P 10950 3450
F 0 "#PWR037" H 10950 3200 50  0001 C CNN
F 1 "GND" H 10950 3300 50  0000 C CNN
F 2 "" H 10950 3450 50  0000 C CNN
F 3 "" H 10950 3450 50  0000 C CNN
	1    10950 3450
	1    0    0    -1  
$EndComp
Text GLabel 3550 1800 2    60   Input ~ 0
Noise_gen
$Comp
L PWR_FLAG #FLG038
U 1 1 586D2B13
P 10100 5150
F 0 "#FLG038" H 10100 5245 50  0001 C CNN
F 1 "PWR_FLAG" H 10100 5330 50  0000 C CNN
F 2 "" H 10100 5150 50  0000 C CNN
F 3 "" H 10100 5150 50  0000 C CNN
	1    10100 5150
	1    0    0    -1  
$EndComp
$Comp
L PWR_FLAG #FLG039
U 1 1 586DA9E9
P 10200 2200
F 0 "#FLG039" H 10200 2295 50  0001 C CNN
F 1 "PWR_FLAG" H 10200 2380 50  0000 C CNN
F 2 "" H 10200 2200 50  0000 C CNN
F 3 "" H 10200 2200 50  0000 C CNN
	1    10200 2200
	1    0    0    -1  
$EndComp
$Comp
L GND #PWR040
U 1 1 586D3998
P 3500 2350
F 0 "#PWR040" H 3500 2100 50  0001 C CNN
F 1 "GND" H 3500 2200 50  0000 C CNN
F 2 "" H 3500 2350 50  0000 C CNN
F 3 "" H 3500 2350 50  0000 C CNN
	1    3500 2350
	1    0    0    -1  
$EndComp
$Comp
L C C21
U 1 1 586D7390
P 3500 2150
F 0 "C21" V 3550 2200 50  0000 L CNN
F 1 "4.7uF" V 3550 1850 50  0000 L CNN
F 2 "Capacitors_SMD:C_1206" H 3538 2000 50  0001 C CNN
F 3 "" H 3500 2150 50  0000 C CNN
F 4 "battery monitor switch decoupling" V 3500 2150 60  0001 C CNN "Field4"
	1    3500 2150
	1    0    0    -1  
$EndComp
$Comp
L C C22
U 1 1 586E79D6
P 10950 2950
F 0 "C22" V 11000 2750 50  0000 L CNN
F 1 "10uF" V 10900 2650 50  0000 L CNN
F 2 "Capacitors_SMD:C_1206" H 10988 2800 50  0001 C CNN
F 3 "" H 10950 2950 50  0000 C CNN
F 4 "STINGER decoupling" V 10950 2950 60  0001 C CNN "Field4"
	1    10950 2950
	1    0    0    -1  
$EndComp
$Sheet
S 5850 6400 850  500 
U 586E974F
F0 "3V3_supply" 60
F1 "file586E974E.sch" 60
F2 "BATT" I L 5850 6700 60 
F3 "GND" I L 5850 6800 60 
F4 "Power_out" I L 5850 6500 60 
F5 "Enable" I L 5850 6600 60 
$EndSheet
$Comp
L PWR_FLAG #FLG041
U 1 1 586DD19E
P 5500 6850
F 0 "#FLG041" H 5500 6945 50  0001 C CNN
F 1 "PWR_FLAG" H 5500 7030 50  0000 C CNN
F 2 "" H 5500 6850 50  0000 C CNN
F 3 "" H 5500 6850 50  0000 C CNN
	1    5500 6850
	-1   0    0    1   
$EndComp
$Comp
L GND #PWR042
U 1 1 586F2BF8
P 5750 6850
F 0 "#PWR042" H 5750 6600 50  0001 C CNN
F 1 "GND" H 5750 6700 50  0000 C CNN
F 2 "" H 5750 6850 50  0000 C CNN
F 3 "" H 5750 6850 50  0000 C CNN
	1    5750 6850
	1    0    0    -1  
$EndComp
Text GLabel 4800 6700 0    60   Input ~ 0
VBATT
$Comp
L PWR_FLAG #FLG043
U 1 1 586F56D3
P 5500 6450
F 0 "#FLG043" H 5500 6545 50  0001 C CNN
F 1 "PWR_FLAG" H 5500 6630 50  0000 C CNN
F 2 "" H 5500 6450 50  0000 C CNN
F 3 "" H 5500 6450 50  0000 C CNN
	1    5500 6450
	1    0    0    -1  
$EndComp
$Comp
L R J1
U 1 1 586F91E6
P 5050 6600
F 0 "J1" V 4950 6600 50  0000 C CNN
F 1 "J" V 5050 6600 50  0000 C CNN
F 2 "Resistors_SMD:R_0603" V 4980 6600 50  0001 C CNN
F 3 "" H 5050 6600 50  0000 C CNN
F 4 "Bypass power supply enable" V 5050 6600 60  0001 C CNN "Field4"
	1    5050 6600
	0    1    1    0   
$EndComp
Text GLabel 5250 6550 1    60   Input ~ 0
PWR_EN
$Comp
L C C18
U 1 1 5870C0B7
P 5700 1600
F 0 "C18" H 5725 1700 50  0000 L CNN
F 1 "100nF" H 5725 1500 50  0000 L CNN
F 2 "Capacitors_SMD:C_1206" H 5738 1450 50  0001 C CNN
F 3 "" H 5700 1600 50  0000 C CNN
F 4 "voltage reference decoupling" H 5700 1600 60  0001 C CNN "Field4"
	1    5700 1600
	1    0    0    -1  
$EndComp
$Comp
L LM4132 U7
U 1 1 5870C0F1
P 6200 1350
F 0 "U7" H 6000 1650 60  0000 C CNN
F 1 "LM4132" H 6200 1500 60  0000 C CNN
F 2 "TO_SOT_Packages_SMD:SOT-23-5" H 6200 1350 60  0001 C CNN
F 3 "" H 6200 1350 60  0000 C CNN
F 4 "Voltage Reference" H 6200 1350 60  0001 C CNN "Field4"
	1    6200 1350
	-1   0    0    -1  
$EndComp
Text GLabel 6950 1400 2    60   Input ~ 0
VREF_EN
Text GLabel 5400 2850 0    60   Input ~ 0
TEMP1
$Comp
L VCC #PWR044
U 1 1 587129B7
P 5700 1150
F 0 "#PWR044" H 5700 1000 50  0001 C CNN
F 1 "VCC" H 5700 1300 50  0000 C CNN
F 2 "" H 5700 1150 50  0000 C CNN
F 3 "" H 5700 1150 50  0000 C CNN
	1    5700 1150
	1    0    0    -1  
$EndComp
Text GLabel 5550 1400 0    60   Input ~ 0
VREF
$Comp
L C_Small C12
U 1 1 58715B2D
P 6150 3750
F 0 "C12" H 6160 3820 50  0000 L CNN
F 1 "4.7uF" H 6160 3670 50  0000 L CNN
F 2 "Capacitors_SMD:C_1206" H 6150 3750 50  0001 C CNN
F 3 "" H 6150 3750 50  0000 C CNN
F 4 "probe 1 filtering" H 6150 3750 60  0001 C CNN "Field4"
	1    6150 3750
	1    0    0    -1  
$EndComp
$Comp
L C_Small C14
U 1 1 58715F06
P 6150 4350
F 0 "C14" H 6160 4420 50  0000 L CNN
F 1 "4.7uF" H 6160 4270 50  0000 L CNN
F 2 "Capacitors_SMD:C_1206" H 6150 4350 50  0001 C CNN
F 3 "" H 6150 4350 50  0000 C CNN
F 4 "probe2 filtering" H 6150 4350 60  0001 C CNN "Field4"
	1    6150 4350
	1    0    0    -1  
$EndComp
$Comp
L R R4
U 1 1 5871AB1F
P 5500 2650
F 0 "R4" V 5600 2600 50  0000 C CNN
F 1 "10k" V 5500 2650 50  0000 C CNN
F 2 "Resistors_SMD:R_0603" V 5430 2650 50  0001 C CNN
F 3 "" H 5500 2650 50  0000 C CNN
F 4 "board voltage divider" V 5500 2650 60  0001 C CNN "Field4"
	1    5500 2650
	-1   0    0    1   
$EndComp
$Comp
L R T1
U 1 1 5871B108
P 5500 3050
F 0 "T1" V 5600 3000 50  0000 C CNN
F 1 "10k" V 5500 3050 50  0000 C CNN
F 2 "Resistors_SMD:R_0603" V 5430 3050 50  0001 C CNN
F 3 "" H 5500 3050 50  0000 C CNN
F 4 "board thermistor" V 5500 3050 60  0001 C CNN "Field4"
	1    5500 3050
	-1   0    0    1   
$EndComp
Connection ~ 650  1250
Wire Wire Line
	550  1250 550  1200
Connection ~ 650  1650
Wire Wire Line
	700  1650 650  1650
Connection ~ 650  2050
Wire Wire Line
	650  2050 700  2050
Wire Wire Line
	650  2400 700  2400
Wire Wire Line
	650  1250 650  2400
Wire Wire Line
	550  1250 700  1250
Wire Wire Line
	1000 2400 900  2400
Wire Wire Line
	1000 2050 900  2050
Wire Wire Line
	1000 1250 900  1250
Wire Wire Line
	1000 1650 900  1650
Connection ~ 950  1750
Wire Wire Line
	1000 1750 950  1750
Connection ~ 950  2150
Wire Wire Line
	950  2150 1000 2150
Connection ~ 950  2500
Wire Wire Line
	950  1350 950  2500
Wire Wire Line
	1000 1350 950  1350
Wire Wire Line
	700  2500 700  2550
Wire Wire Line
	700  2500 1000 2500
Wire Wire Line
	6550 3450 6550 3500
Wire Wire Line
	6450 3900 6000 3900
Connection ~ 6000 4500
Wire Wire Line
	6450 4500 6000 4500
Wire Wire Line
	6000 4650 6100 4650
Wire Wire Line
	2000 1550 2000 1700
Wire Wire Line
	2000 2450 2000 2400
Connection ~ 2000 2050
Wire Wire Line
	2050 2050 2000 2050
Wire Wire Line
	2000 2000 2000 2100
Wire Wire Line
	3300 3850 3250 3850
Wire Wire Line
	3400 2900 3250 2900
Wire Wire Line
	5200 800  5600 800 
Wire Wire Line
	3250 2800 4200 2800
Wire Wire Line
	5250 700  5200 700 
Wire Wire Line
	5550 700  5600 700 
Connection ~ 1150 3600
Wire Wire Line
	1150 3650 1150 3600
Connection ~ 1150 3650
Connection ~ 1150 3300
Wire Wire Line
	1150 3100 1150 3300
Connection ~ 1150 3250
Wire Wire Line
	1150 3250 1200 3250
Wire Wire Line
	10350 6200 10250 6200
Wire Wire Line
	10350 3350 10450 3350
Wire Wire Line
	9900 5400 9900 6200
Connection ~ 9900 6100
Wire Wire Line
	9900 6200 9950 6200
Wire Wire Line
	10600 6200 10600 6250
Wire Wire Line
	10550 6200 10600 6200
Connection ~ 10000 3250
Wire Wire Line
	10000 3350 10050 3350
Wire Wire Line
	10950 3100 10950 3450
Wire Wire Line
	10650 3350 10950 3350
Connection ~ 6450 3600
Connection ~ 6450 4500
Wire Wire Line
	6600 4300 6600 4650
Connection ~ 6450 3900
Wire Wire Line
	6000 3900 6000 4650
Wire Wire Line
	6600 3700 6600 3700
Connection ~ 6450 4200
Wire Wire Line
	7800 1350 7800 1650
Wire Wire Line
	9900 1650 9700 1650
Wire Wire Line
	9900 1350 9900 3400
Wire Wire Line
	9900 2150 9700 2150
Connection ~ 9900 1650
Wire Wire Line
	9900 2250 9700 2250
Connection ~ 9900 2150
Wire Wire Line
	9900 2750 9700 2750
Connection ~ 9900 2250
Wire Wire Line
	9900 3050 9700 3050
Connection ~ 9900 2750
Wire Wire Line
	7700 3050 7800 3050
Wire Wire Line
	7700 3250 7700 3050
Wire Wire Line
	9900 3250 7700 3250
Connection ~ 9900 3050
Wire Wire Line
	9900 1350 7800 1350
Wire Wire Line
	9700 2350 10000 2350
Wire Wire Line
	10000 2350 10000 1250
Wire Wire Line
	10000 1250 7700 1250
Wire Wire Line
	7800 2850 7200 2850
Wire Wire Line
	7800 2750 7200 2750
Wire Wire Line
	7700 1250 7700 2100
Wire Wire Line
	7700 4250 7700 4500
Wire Wire Line
	9800 4500 9600 4500
Wire Wire Line
	9800 5000 9600 5000
Connection ~ 9800 4500
Wire Wire Line
	9800 5100 9600 5100
Connection ~ 9800 5000
Wire Wire Line
	9800 5600 9600 5600
Connection ~ 9800 5100
Wire Wire Line
	9800 5900 9600 5900
Connection ~ 9800 5600
Wire Wire Line
	7700 5900 7600 5900
Wire Wire Line
	7600 5900 7600 6100
Wire Wire Line
	7600 6100 9800 6100
Connection ~ 9800 5900
Wire Wire Line
	9800 4250 7700 4250
Wire Wire Line
	9600 5200 9900 5200
Wire Wire Line
	9900 5200 9900 4100
Wire Wire Line
	9900 4100 7550 4100
Wire Wire Line
	7700 5700 7100 5700
Wire Wire Line
	9900 5700 9600 5700
Wire Wire Line
	7550 4100 7550 4900
Wire Wire Line
	7550 4900 7400 4900
Wire Wire Line
	1700 1050 1750 1050
Wire Wire Line
	1750 1050 1750 1100
Wire Wire Line
	1750 850  1700 850 
Wire Wire Line
	1200 950  1150 950 
Wire Wire Line
	1200 1050 1150 1050
Wire Wire Line
	1200 850  1150 850 
Wire Wire Line
	7700 5600 7100 5600
Wire Wire Line
	7100 5500 7700 5500
Wire Wire Line
	7700 5400 7100 5400
Wire Wire Line
	7800 2550 7200 2550
Wire Wire Line
	7200 2650 7800 2650
Connection ~ 9900 3250
Connection ~ 9800 6100
Wire Wire Line
	9800 4250 9800 6250
Wire Wire Line
	3700 3600 4150 3600
Wire Wire Line
	3250 3400 4150 3400
Wire Wire Line
	3800 3200 3250 3200
Wire Wire Line
	3250 3100 3800 3100
Wire Wire Line
	3250 4250 3800 4250
Wire Wire Line
	1150 3100 1350 3100
Wire Wire Line
	4100 3100 4200 3100
Wire Wire Line
	4100 3200 4200 3200
Wire Wire Line
	3250 4400 3700 4400
Wire Wire Line
	3250 4500 3700 4500
Wire Wire Line
	3250 3000 4200 3000
Wire Wire Line
	3700 4800 3250 4800
Wire Wire Line
	1350 4200 1300 4200
Wire Wire Line
	3250 3950 3300 3950
Wire Wire Line
	3250 5100 3700 5100
Wire Wire Line
	4100 4250 4200 4250
Wire Wire Line
	3700 3600 3700 3500
Wire Wire Line
	3700 3500 3250 3500
Connection ~ 3850 3600
Wire Wire Line
	4300 3400 4400 3400
Wire Wire Line
	4400 3400 4400 3650
Wire Wire Line
	4400 3600 4300 3600
Connection ~ 4400 3600
Wire Wire Line
	3250 3750 3300 3750
Wire Wire Line
	3250 3650 3300 3650
Wire Wire Line
	7700 2250 7800 2350
Wire Wire Line
	7700 2350 7800 2450
Wire Wire Line
	7600 5200 7700 5300
Wire Wire Line
	7600 5100 7700 5200
Wire Wire Line
	7300 5200 7200 5200
Wire Wire Line
	7200 5200 7200 5100
Wire Wire Line
	7200 5100 7300 5100
Connection ~ 7200 5200
Wire Wire Line
	7400 2350 7300 2350
Wire Wire Line
	7300 2350 7300 2250
Wire Wire Line
	7300 2250 7400 2250
Wire Wire Line
	1600 7500 1500 7500
Wire Wire Line
	1500 7300 1650 7300
Wire Wire Line
	1500 7200 1650 7200
Wire Wire Line
	3250 4150 5150 4150
Wire Wire Line
	3250 4050 5150 4050
Wire Wire Line
	2150 7500 1900 7500
Wire Wire Line
	2150 6300 2150 7550
Wire Wire Line
	2150 7100 1500 7100
Wire Wire Line
	2150 6800 1500 6800
Connection ~ 2150 7100
Wire Wire Line
	2150 6700 1500 6700
Connection ~ 2150 6800
Connection ~ 2150 7500
Wire Wire Line
	3250 4600 3700 4600
Wire Wire Line
	3250 3300 3450 3300
Wire Wire Line
	2100 6500 2150 6500
Connection ~ 2150 6700
Wire Wire Line
	700  2900 1350 2900
Wire Wire Line
	900  3000 1350 3000
Wire Wire Line
	10450 5300 10450 5250
Wire Wire Line
	9800 5300 10450 5300
Connection ~ 9800 5300
Wire Wire Line
	10550 4250 10550 4350
Wire Wire Line
	10200 5850 10650 5850
Wire Wire Line
	10650 4300 10650 6100
Wire Wire Line
	10550 4300 10800 4300
Connection ~ 10550 4300
Wire Wire Line
	10550 2450 10550 2400
Wire Wire Line
	9900 2450 10550 2450
Wire Wire Line
	10650 1400 10650 1500
Wire Wire Line
	10750 1450 10750 3250
Wire Wire Line
	10650 1450 10900 1450
Connection ~ 10650 1450
Connection ~ 9900 2450
Wire Wire Line
	10000 2850 9700 2850
Wire Wire Line
	10550 1400 10550 1500
Wire Wire Line
	3250 5000 4550 5000
Wire Wire Line
	3250 4900 4600 4900
Wire Wire Line
	10450 4350 10450 4200
Wire Wire Line
	10550 5250 10550 5600
Wire Wire Line
	10000 6100 9900 6100
Connection ~ 9900 5700
Wire Wire Line
	10650 6100 10300 6100
Connection ~ 10650 5850
Wire Wire Line
	10650 2400 10650 2800
Wire Wire Line
	10000 3250 10100 3250
Wire Wire Line
	10000 2550 10000 3350
Wire Wire Line
	10750 3250 10400 3250
Connection ~ 10000 2850
Connection ~ 3850 3400
Wire Wire Line
	900  3350 900  3300
Connection ~ 900  3000
Wire Wire Line
	10900 1450 10900 1500
Connection ~ 10750 1450
Wire Wire Line
	10900 1800 10900 1850
Wire Wire Line
	10800 4700 10800 4650
Wire Wire Line
	10800 4300 10800 4350
Connection ~ 10650 4300
Wire Wire Line
	700  3300 700  3200
Wire Wire Line
	1650 7000 1500 7000
Wire Wire Line
	4600 4900 4600 4700
Wire Wire Line
	4600 4700 4950 4700
Wire Wire Line
	5450 5000 5450 4900
Wire Wire Line
	5450 4900 5850 4900
Wire Wire Line
	4950 5250 4950 5200
Wire Wire Line
	4950 4700 4950 4800
Wire Wire Line
	1500 6500 1800 6500
Wire Wire Line
	2150 6600 1500 6600
Connection ~ 2150 6600
Wire Wire Line
	1600 6300 1800 6300
Wire Wire Line
	1600 6100 1600 6400
Wire Wire Line
	1600 6400 1500 6400
Connection ~ 1600 6300
Wire Wire Line
	2100 6300 2150 6300
Connection ~ 2150 6500
Wire Wire Line
	5700 5050 5700 4900
Connection ~ 5700 4900
Wire Wire Line
	5700 5400 5700 5350
Wire Wire Line
	4900 3850 4900 3650
Wire Wire Line
	4900 3650 5050 3650
Wire Wire Line
	5050 3550 5050 3750
Connection ~ 5050 3650
Connection ~ 5050 4050
Connection ~ 4900 4150
Wire Wire Line
	900  2850 900  3000
Connection ~ 900  2900
Wire Wire Line
	1750 850  1750 800 
Wire Wire Line
	1600 6150 1750 6150
Wire Wire Line
	1750 6150 1750 6500
Connection ~ 1750 6500
Connection ~ 1600 6150
Wire Wire Line
	1300 4100 1350 4100
Wire Wire Line
	7700 2100 7600 2100
Wire Wire Line
	5900 4200 6600 4200
Wire Wire Line
	6000 3600 6600 3600
Wire Wire Line
	1350 3900 1300 3900
Wire Wire Line
	1350 4000 1300 4000
Wire Wire Line
	3700 4700 3250 4700
Wire Wire Line
	6550 4100 6600 4100
Wire Wire Line
	6550 3500 6600 3500
Wire Wire Line
	4400 5500 4500 5500
Wire Wire Line
	3950 5600 4500 5600
Wire Wire Line
	4350 5700 4500 5700
Wire Wire Line
	4500 5400 4400 5400
Wire Wire Line
	4350 5800 4400 5800
Wire Wire Line
	4400 5800 4400 5700
Connection ~ 4400 5700
Wire Wire Line
	4000 5800 4050 5800
Wire Wire Line
	4000 5700 4050 5700
Wire Wire Line
	2750 950  2750 900 
Wire Wire Line
	2750 900  2850 900 
Wire Wire Line
	2800 800  2850 800 
Wire Wire Line
	2850 700  2800 700 
Wire Wire Line
	2800 700  2800 650 
Wire Wire Line
	1750 950  1700 950 
Wire Wire Line
	10650 2800 10550 2800
Wire Wire Line
	10250 3000 10250 3100
Wire Wire Line
	10250 3100 10750 3100
Connection ~ 10750 3100
Wire Wire Line
	10250 2550 10250 2600
Wire Wire Line
	10000 2550 10250 2550
Wire Wire Line
	2050 1550 2000 1550
Wire Wire Line
	2250 1850 2250 1900
Wire Wire Line
	2250 1900 2550 1900
Wire Wire Line
	2450 1550 2500 1550
Wire Wire Line
	2550 1800 2500 1800
Wire Wire Line
	3450 1800 3550 1800
Wire Wire Line
	3500 1900 3500 2000
Wire Wire Line
	3500 1900 3450 1900
Wire Wire Line
	10550 5600 10500 5600
Wire Wire Line
	10200 5800 10200 5850
Wire Wire Line
	9900 5400 10200 5400
Wire Wire Line
	3900 5550 3950 5550
Wire Wire Line
	3950 5550 3950 5600
Wire Wire Line
	1300 4900 1300 5100
Wire Wire Line
	1300 4900 1350 4900
Wire Wire Line
	1350 5000 1300 5000
Connection ~ 1300 5000
Wire Wire Line
	10200 2200 10200 2550
Connection ~ 10200 2550
Wire Wire Line
	10100 5150 10100 5400
Connection ~ 10100 5400
Wire Wire Line
	3500 2350 3500 2300
Wire Wire Line
	3550 1950 3500 1950
Connection ~ 3500 1950
Wire Wire Line
	10950 2800 10950 2700
Wire Wire Line
	10950 2700 10750 2700
Connection ~ 10750 2700
Connection ~ 10950 3350
Connection ~ 10950 3100
Connection ~ 10950 2800
Connection ~ 10950 3450
Connection ~ 10800 4350
Connection ~ 10800 4650
Connection ~ 10800 4700
Wire Wire Line
	5500 6500 5850 6500
Wire Wire Line
	5750 6500 5750 6450
Wire Wire Line
	5500 6800 5850 6800
Wire Wire Line
	5750 6800 5750 6850
Wire Wire Line
	5500 6850 5500 6800
Connection ~ 5750 6800
Wire Wire Line
	5500 6450 5500 6500
Connection ~ 5750 6500
Wire Wire Line
	4800 6700 5850 6700
Wire Wire Line
	5200 6600 5850 6600
Wire Wire Line
	5250 6600 5250 6550
Connection ~ 5250 6600
Wire Wire Line
	4900 6600 4850 6600
Wire Wire Line
	4850 6600 4850 6700
Connection ~ 4850 6700
Wire Wire Line
	6600 1300 6750 1300
Connection ~ 5700 1300
Wire Wire Line
	6600 1400 6950 1400
Wire Wire Line
	5800 1300 5700 1300
Wire Wire Line
	5700 1150 5700 1450
Wire Wire Line
	6150 4450 6150 4550
Wire Wire Line
	6150 4550 6600 4550
Connection ~ 6600 4550
Wire Wire Line
	6150 4250 6150 4200
Connection ~ 6150 4200
Wire Wire Line
	6150 3650 6150 3600
Connection ~ 6150 3600
Wire Wire Line
	6150 3850 6150 3950
Wire Wire Line
	6150 3950 6600 3950
Wire Wire Line
	6600 3950 6600 3700
Connection ~ 6250 3950
$Comp
L GND #PWR045
U 1 1 5870C0CC
P 5700 1800
F 0 "#PWR045" H 5700 1550 50  0001 C CNN
F 1 "GND" H 5700 1650 50  0000 C CNN
F 2 "" H 5700 1800 50  0000 C CNN
F 3 "" H 5700 1800 50  0000 C CNN
	1    5700 1800
	1    0    0    -1  
$EndComp
Wire Wire Line
	5550 1400 5800 1400
Wire Wire Line
	5500 2800 5500 2900
Wire Wire Line
	5500 2850 5400 2850
Connection ~ 5500 2850
Wire Wire Line
	5700 1750 5700 1800
$Comp
L GND #PWR046
U 1 1 587211F6
P 6750 1500
F 0 "#PWR046" H 6750 1250 50  0001 C CNN
F 1 "GND" H 6750 1350 50  0000 C CNN
F 2 "" H 6750 1500 50  0000 C CNN
F 3 "" H 6750 1500 50  0000 C CNN
	1    6750 1500
	1    0    0    -1  
$EndComp
Wire Wire Line
	6750 1300 6750 1500
Wire Wire Line
	5500 2350 5500 2500
Wire Wire Line
	5550 3250 5500 3250
Wire Wire Line
	5500 3250 5500 3200
Text GLabel 5550 3250 2    60   Input ~ 0
VREF
$Comp
L GND #PWR047
U 1 1 5873320D
P 5650 2400
F 0 "#PWR047" H 5650 2150 50  0001 C CNN
F 1 "GND" H 5650 2250 50  0000 C CNN
F 2 "" H 5650 2400 50  0000 C CNN
F 3 "" H 5650 2400 50  0000 C CNN
	1    5650 2400
	1    0    0    -1  
$EndComp
Wire Wire Line
	5650 2400 5650 2350
Wire Wire Line
	5650 2350 5500 2350
$EndSCHEMATC
