PCBNEW-LibModule-V1  Wed 18 Nov 2015 06:49:38 PM EST
# encoding utf-8
Units mm
$INDEX
PA45-1615-1575SA
PIN_ARRAY_14X1
RXM-GPS-RM
RXM-GPS-RM-alt
SOT457
pin_array_6
$EndINDEX
$MODULE PA45-1615-1575SA
Po 0 0 0 15 5623C5CE 00000000 ~~
Li PA45-1615-1575SA
Sc 0
AR 
Op 0 0 0
T0 11.95 -17.09 1 1 0 0.15 N V 21 N "PA45-1615-1575SA"
T1 -10.16 5.75 1 1 0 0.15 N V 21 N "Val**"
DS -31.5 -24.8 31.5 -24.8 0.15 21
DS 31.5 -24.8 31.5 38.2 0.15 21
DS 31.5 38.2 -31.5 38.2 0.15 21
DS -31.5 38.2 -31.5 -24.8 0.15 21
DS -22.2 -15.49 -22.2 28.96 0.15 21
DS 22.2 -15.49 22.2 28.96 0.15 21
DS 22.2 28.96 -22.2 28.96 0.15 21
DS -22.2 -15.49 22.2 -15.49 0.15 21
$PAD
Sh "1" C 1.5 1.5 0 0 0
Dr 0.78 0 0
At STD N 00E0FFFF
Ne 0 ""
Po 0 0
$EndPAD
$EndMODULE PA45-1615-1575SA
$MODULE PIN_ARRAY_14X1
Po 0 0 0 15 5649F5D9 00000000 ~~
Li PIN_ARRAY_14X1
Cd Single rangee contacts 1 x 28 pins
Kw CONN
Sc 0
AR /50827286
Op 0 0 0
T0 -37.084 0 0.63246 0.63246 900 0.15748 N V 21 N "P2"
T1 -36.195 0 0.63246 0.63246 900 0.15748 N V 21 N "CONN14"
DS -35.56 1.27 0 1.27 0.15 21
DS 0 1.27 0 -1.27 0.15 21
DS 0 -1.27 -35.56 -1.27 0.15 21
DS -35.56 1.27 -35.56 -1.27 0.14986 21
$PAD
Sh "1" R 1.524 1.524 0 0 0
Dr 1.016 0 0
At STD N 00E0FFFF
Ne 0 ""
Po -34.29 0
$EndPAD
$PAD
Sh "2" C 1.524 1.524 0 0 0
Dr 1.016 0 0
At STD N 00E0FFFF
Ne 0 ""
Po -31.75 0
$EndPAD
$PAD
Sh "11" C 1.524 1.524 0 0 0
Dr 1.016 0 0
At STD N 00E0FFFF
Ne 0 ""
Po -8.89 0
$EndPAD
$PAD
Sh "4" C 1.524 1.524 0 0 0
Dr 1.016 0 0
At STD N 00E0FFFF
Ne 0 ""
Po -26.67 0
$EndPAD
$PAD
Sh "13" C 1.524 1.524 0 0 0
Dr 1.016 0 0
At STD N 00E0FFFF
Ne 0 ""
Po -3.81 0
$EndPAD
$PAD
Sh "6" C 1.524 1.524 0 0 0
Dr 1.016 0 0
At STD N 00E0FFFF
Ne 0 ""
Po -21.59 0
$EndPAD
$PAD
Sh "8" C 1.524 1.524 0 0 0
Dr 1.016 0 0
At STD N 00E0FFFF
Ne 0 ""
Po -16.51 0
$EndPAD
$PAD
Sh "10" C 1.524 1.524 0 0 0
Dr 1.016 0 0
At STD N 00E0FFFF
Ne 0 ""
Po -11.43 0
$EndPAD
$PAD
Sh "12" C 1.524 1.524 0 0 0
Dr 1.016 0 0
At STD N 00E0FFFF
Ne 0 ""
Po -6.35 0
$EndPAD
$PAD
Sh "14" C 1.524 1.524 0 0 0
Dr 1.016 0 0
At STD N 00E0FFFF
Ne 0 ""
Po -1.27 0
$EndPAD
$PAD
Sh "3" C 1.524 1.524 0 0 0
Dr 1.016 0 0
At STD N 00E0FFFF
Ne 0 ""
Po -29.21 0
$EndPAD
$PAD
Sh "5" C 1.524 1.524 0 0 0
Dr 1.016 0 0
At STD N 00E0FFFF
Ne 0 ""
Po -24.13 0
$EndPAD
$PAD
Sh "7" C 1.524 1.524 0 0 0
Dr 1.016 0 0
At STD N 00E0FFFF
Ne 0 ""
Po -19.05 0
$EndPAD
$PAD
Sh "9" C 1.524 1.524 0 0 0
Dr 1.016 0 0
At STD N 00E0FFFF
Ne 0 ""
Po -13.97 0
$EndPAD
$EndMODULE PIN_ARRAY_14X1
$MODULE RXM-GPS-RM
Po 0 0 0 15 563ADEB7 00000000 ~~
Li RXM-GPS-RM
Sc 0
AR 
Op 0 0 0
T0 0.127 8.382 1 1 0 0.15 N V 21 N "RXM-GPS-RM"
T1 -0.127 -8.509 1 1 0 0.15 N V 21 N "VAL**"
$PAD
Sh "1" R 0.7112 0.9144 0 0 0
Dr 0 0 0
At SMD N 00888000
Ne 0 ""
Po -6.223 6.604
$EndPAD
$PAD
Sh "2" R 0.7112 0.9144 0 0 0
Dr 0 0 0
At SMD N 00888000
Ne 0 ""
Po -4.953 6.604
$EndPAD
$PAD
Sh "3" R 0.7112 0.9144 0 0 0
Dr 0 0 0
At SMD N 00888000
Ne 0 ""
Po -3.683 6.604
$EndPAD
$PAD
Sh "4" R 0.7112 0.9144 0 0 0
Dr 0 0 0
At SMD N 00888000
Ne 0 ""
Po -2.413 6.604
$EndPAD
$PAD
Sh "5" R 0.7112 0.9144 0 0 0
Dr 0 0 0
At SMD N 00888000
Ne 0 ""
Po -1.143 6.604
$EndPAD
$PAD
Sh "16" R 0.7112 0.9144 0 0 0
Dr 0 0 0
At SMD N 00888000
Ne 0 ""
Po -1.143 -6.4008
$EndPAD
$PAD
Sh "17" R 0.7112 0.9144 0 0 0
Dr 0 0 0
At SMD N 00888000
Ne 0 ""
Po -2.413 -6.4008
$EndPAD
$PAD
Sh "18" R 0.7112 0.9144 0 0 0
Dr 0 0 0
At SMD N 00888000
Ne 0 ""
Po -3.683 -6.4008
$EndPAD
$PAD
Sh "19" R 0.7112 0.9144 0 0 0
Dr 0 0 0
At SMD N 00888000
Ne 0 ""
Po -4.953 -6.4008
$EndPAD
$PAD
Sh "20" R 0.7112 0.9144 0 0 0
Dr 0 0 0
At SMD N 00888000
Ne 0 ""
Po -6.223 -6.4008
$EndPAD
$PAD
Sh "21" R 0.9144 0.508 0 0 0
Dr 0 0 0
At SMD N 00888000
Ne 0 ""
Po 0.127 6.604
$EndPAD
$PAD
Sh "22" R 0.9144 0.508 0 0 0
Dr 0 0 0
At SMD N 00888000
Ne 0 ""
Po 0.127 -6.4008
$EndPAD
$PAD
Sh "15" R 0.7112 0.9144 0 0 0
Dr 0 0 0
At SMD N 00888000
Ne 0 ""
Po 1.397 -6.4008
$EndPAD
$PAD
Sh "14" R 0.7112 0.9144 0 0 0
Dr 0 0 0
At SMD N 00888000
Ne 0 ""
Po 2.667 -6.4008
$EndPAD
$PAD
Sh "13" R 0.7112 0.9144 0 0 0
Dr 0 0 0
At SMD N 00888000
Ne 0 ""
Po 3.937 -6.4008
$EndPAD
$PAD
Sh "12" R 0.7112 0.9144 0 0 0
Dr 0 0 0
At SMD N 00888000
Ne 0 ""
Po 5.207 -6.4008
$EndPAD
$PAD
Sh "11" R 0.7112 0.9144 0 0 0
Dr 0 0 0
At SMD N 00888000
Ne 0 ""
Po 6.477 -6.4008
$EndPAD
$PAD
Sh "6" R 0.7112 0.9144 0 0 0
Dr 0 0 0
At SMD N 00888000
Ne 0 ""
Po 1.397 6.604
$EndPAD
$PAD
Sh "7" R 0.7112 0.9144 0 0 0
Dr 0 0 0
At SMD N 00888000
Ne 0 ""
Po 2.667 6.604
$EndPAD
$PAD
Sh "8" R 0.7112 0.9144 0 0 0
Dr 0 0 0
At SMD N 00888000
Ne 0 ""
Po 3.937 6.604
$EndPAD
$PAD
Sh "9" R 0.7112 0.9144 0 0 0
Dr 0 0 0
At SMD N 00888000
Ne 0 ""
Po 5.207 6.604
$EndPAD
$PAD
Sh "10" R 0.7112 0.9144 0 0 0
Dr 0 0 0
At SMD N 00888000
Ne 0 ""
Po 6.477 6.604
$EndPAD
$EndMODULE RXM-GPS-RM
$MODULE RXM-GPS-RM-alt
Po 0 0 0 15 564D0E80 00000000 ~~
Li RXM-GPS-RM-alt
Sc 0
AR 
Op 0 0 0
T0 0.127 8.382 1 1 0 0.15 N V 21 N "RXM-GPS-RM"
T1 -0.127 -8.509 1 1 0 0.15 N V 21 N "VAL**"
$PAD
Sh "1" R 0.7112 0.9144 0 0 0
Dr 0 0 0
At SMD N 00888000
Ne 0 ""
Po -6.223 6.604
$EndPAD
$PAD
Sh "2" R 0.7112 0.9144 0 0 0
Dr 0 0 0
At SMD N 00888000
Ne 0 ""
Po -4.953 6.604
$EndPAD
$PAD
Sh "3" R 0.7112 0.9144 0 0 0
Dr 0 0 0
At SMD N 00888000
Ne 0 ""
Po -3.683 6.604
$EndPAD
$PAD
Sh "4" R 0.7112 0.9144 0 0 0
Dr 0 0 0
At SMD N 00888000
Ne 0 ""
Po -2.413 6.604
$EndPAD
$PAD
Sh "5" R 0.7112 0.9144 0 0 0
Dr 0 0 0
At SMD N 00888000
Ne 0 ""
Po -1.143 6.604
$EndPAD
$PAD
Sh "16" R 0.7112 0.9144 0 0 0
Dr 0 0 0
At SMD N 00888000
Ne 0 ""
Po -1.143 -6.4008
$EndPAD
$PAD
Sh "17" R 0.7112 0.9144 0 0 0
Dr 0 0 0
At SMD N 00888000
Ne 0 ""
Po -2.413 -6.4008
$EndPAD
$PAD
Sh "18" R 0.7112 0.9144 0 0 0
Dr 0 0 0
At SMD N 00888000
Ne 0 ""
Po -3.683 -6.4008
$EndPAD
$PAD
Sh "19" R 0.7112 0.9144 0 0 0
Dr 0 0 0
At SMD N 00888000
Ne 0 ""
Po -4.953 -6.4008
$EndPAD
$PAD
Sh "20" R 0.7112 0.9144 0 0 0
Dr 0 0 0
At SMD N 00888000
Ne 0 ""
Po -6.223 -6.4008
$EndPAD
$PAD
Sh "21" R 0.9144 0.508 0 0 0
Dr 0 0 0
At SMD N 00888000
Ne 0 ""
Po 0.127 6.604
$EndPAD
$PAD
Sh "22" R 0.8128 0.508 0 0 0
Dr 0 0 0
At SMD N 00888000
Ne 0 ""
Po 0.127 -6.4008
$EndPAD
$PAD
Sh "15" R 0.7112 0.9144 0 0 0
Dr 0 0 0
At SMD N 00888000
Ne 0 ""
Po 1.397 -6.4008
$EndPAD
$PAD
Sh "14" R 0.7112 0.9144 0 0 0
Dr 0 0 0
At SMD N 00888000
Ne 0 ""
Po 2.667 -6.4008
$EndPAD
$PAD
Sh "13" R 0.7112 0.9144 0 0 0
Dr 0 0 0
At SMD N 00888000
Ne 0 ""
Po 3.937 -6.4008
$EndPAD
$PAD
Sh "12" R 0.7112 0.9144 0 0 0
Dr 0 0 0
At SMD N 00888000
Ne 0 ""
Po 5.207 -6.4008
$EndPAD
$PAD
Sh "11" R 0.7112 0.9144 0 0 0
Dr 0 0 0
At SMD N 00888000
Ne 0 ""
Po 6.477 -6.4008
$EndPAD
$PAD
Sh "6" R 0.7112 0.9144 0 0 0
Dr 0 0 0
At SMD N 00888000
Ne 0 ""
Po 1.397 6.604
$EndPAD
$PAD
Sh "7" R 0.7112 0.9144 0 0 0
Dr 0 0 0
At SMD N 00888000
Ne 0 ""
Po 2.667 6.604
$EndPAD
$PAD
Sh "8" R 0.7112 0.9144 0 0 0
Dr 0 0 0
At SMD N 00888000
Ne 0 ""
Po 3.937 6.604
$EndPAD
$PAD
Sh "9" R 0.7112 0.9144 0 0 0
Dr 0 0 0
At SMD N 00888000
Ne 0 ""
Po 5.207 6.604
$EndPAD
$PAD
Sh "10" R 0.7112 0.9144 0 0 0
Dr 0 0 0
At SMD N 00888000
Ne 0 ""
Po 6.477 6.604
$EndPAD
$EndMODULE RXM-GPS-RM-alt
$MODULE SOT457
Po 0 0 0 15 563AE797 00000000 ~~
Li SOT457
Sc 0
AR 
Op 0 0 0
T0 0 2.8448 1 1 0 0.15 N V 21 N "SOT457"
T1 -0.0508 -2.8448 1 1 0 0.15 N V 21 N "VAL**"
DS -1.524 -0.889 1.524 -0.889 0.15 21
DS 1.524 -0.889 1.524 0.762 0.15 21
DS 1.524 0.762 -1.651 0.762 0.15 21
DS -1.651 0.762 -1.651 -0.889 0.15 21
DS -1.651 -0.889 -1.397 -0.889 0.15 21
$PAD
Sh "6" R 0.4 0.6 0 0 0
Dr 0 0 0
At SMD N 00888000
Ne 0 ""
Po -0.95 -1.2324
$EndPAD
$PAD
Sh "5" R 0.4 0.6 0 0 0
Dr 0 0 0
At SMD N 00888000
Ne 0 ""
Po 0 -1.2324
$EndPAD
$PAD
Sh "4" R 0.4 0.6 0 0 0
Dr 0 0 0
At SMD N 00888000
Ne 0 ""
Po 0.95 -1.2324
$EndPAD
$PAD
Sh "1" R 0.4 0.6 0 0 0
Dr 0 0 0
At SMD N 00888000
Ne 0 ""
Po -0.95 1.1176
$EndPAD
$PAD
Sh "2" R 0.4 0.6 0 0 0
Dr 0 0 0
At SMD N 00888000
Ne 0 ""
Po 0 1.1176
$EndPAD
$PAD
Sh "3" R 0.4 0.6 0 0 0
Dr 0 0 0
At SMD N 00888000
Ne 0 ""
Po 0.95 1.1176
$EndPAD
$EndMODULE SOT457
$MODULE pin_array_6
Po 0 0 0 15 5649EAEE 00000000 ~~
Li pin_array_6
Cd Double rangee de contacts 2 x 6 pins
Kw CONN
Sc 0
AR 
Op 0 0 0
T0 0 -1.27 1.016 1.016 0 0.254 N V 21 N "PIN_ARRAY_6"
T1 0 3.81 1.016 1.016 0 0.2032 N V 21 N "Val**"
DS 7.62 2.54 7.62 0 0.15 21
DS 7.62 0 -7.62 0 0.15 21
DS -7.62 0 -7.62 2.54 0.15 21
DS 7.62 2.54 -7.62 2.54 0.3048 21
$PAD
Sh "1" R 1.524 1.524 0 0 0
Dr 1.016 0 0
At STD N 00E0FFFF
Ne 0 ""
Po -6.35 1.27
$EndPAD
$PAD
Sh "2" C 1.524 1.524 0 0 0
Dr 1.016 0 0
At STD N 00E0FFFF
Ne 0 ""
Po -3.81 1.27
$EndPAD
$PAD
Sh "3" C 1.524 1.524 0 0 0
Dr 1.016 0 0
At STD N 00E0FFFF
Ne 0 ""
Po -1.27 1.27
$EndPAD
$PAD
Sh "4" C 1.524 1.524 0 0 0
Dr 1.016 0 0
At STD N 00E0FFFF
Ne 0 ""
Po 1.27 1.27
$EndPAD
$PAD
Sh "5" C 1.524 1.524 0 0 0
Dr 1.016 0 0
At STD N 00E0FFFF
Ne 0 ""
Po 3.81 1.27
$EndPAD
$PAD
Sh "6" C 1.524 1.524 0 0 0
Dr 1.016 0 0
At STD N 00E0FFFF
Ne 0 ""
Po 6.35 1.27
$EndPAD
$SHAPE3D
Na "pin_array/pins_array_6x2.wrl"
Sc 1 1 1
Of 0 0 0
Ro 0 0 0
$EndSHAPE3D
$EndMODULE pin_array_6
$EndLIBRARY
