PCBNEW-LibModule-V1  Fri 16 Oct 2015 02:21:25 PM EDT
# encoding utf-8
Units mm
$INDEX
STX3
$EndINDEX
$MODULE STX3
Po 0 0 0 15 56214011 00000000 ~~
Li STX3
Sc 0
AR 
Op 0 0 0
T0 6.2611 -14.8844 1 1 0 0.15 N V 21 N "STX3"
T1 -9.7663 -6.2738 1 1 0 0.15 N V 21 N ""
$PAD
Sh "2" R 1.9304 2.032 0 0 900
Dr 0 0 0
At SMD N 00888000
Ne 0 ""
Po -9.5123 -6.4262
$EndPAD
$PAD
Sh "3" R 1.9304 2.032 0 0 900
Dr 0 0 0
At SMD N 00888000
Ne 0 ""
Po -9.5123 -3.8862
$EndPAD
$PAD
Sh "4" R 1.9304 2.032 0 0 900
Dr 0 0 0
At SMD N 00888000
Ne 0 ""
Po -9.5123 -1.3462
$EndPAD
$PAD
Sh "5" R 1.9304 2.032 0 0 900
Dr 0 0 0
At SMD N 00888000
Ne 0 ""
Po -9.5123 1.1938
$EndPAD
$PAD
Sh "6" R 1.9304 2.032 0 0 900
Dr 0 0 0
At SMD N 00888000
Ne 0 ""
Po -9.5123 3.7338
$EndPAD
$PAD
Sh "7" R 1.9304 2.032 0 0 900
Dr 0 0 0
At SMD N 00888000
Ne 0 ""
Po -9.5123 6.2738
$EndPAD
$PAD
Sh "8" R 1.9304 2.032 0 0 900
Dr 0 0 0
At SMD N 00888000
Ne 0 ""
Po -9.5123 8.8138
$EndPAD
$PAD
Sh "9" R 1.9304 2.032 0 0 900
Dr 0 0 0
At SMD N 00888000
Ne 0 ""
Po -9.5123 11.3538
$EndPAD
$PAD
Sh "1" R 1.9304 2.032 0 0 900
Dr 0 0 0
At SMD N 00888000
Ne 0 ""
Po -9.5123 -8.9662
$EndPAD
$PAD
Sh "10" R 1.9304 2.032 0 0 0
Dr 0 0 0
At SMD N 00888000
Ne 0 ""
Po -8.1661 15.1892
$EndPAD
$PAD
Sh "12" R 1.9304 2.032 0 0 0
Dr 0 0 0
At SMD N 00888000
Ne 0 ""
Po -3.0861 15.1892
$EndPAD
$PAD
Sh "13" R 1.9304 2.032 0 0 0
Dr 0 0 0
At SMD N 00888000
Ne 0 ""
Po -0.5461 15.1892
$EndPAD
$PAD
Sh "14" R 1.9304 2.032 0 0 0
Dr 0 0 0
At SMD N 00888000
Ne 0 ""
Po 2.5019 15.1892
$EndPAD
$PAD
Sh "15" R 1.9304 2.032 0 0 0
Dr 0 0 0
At SMD N 00888000
Ne 0 ""
Po 5.5499 15.1892
$EndPAD
$PAD
Sh "16" R 1.9304 2.032 0 0 0
Dr 0 0 0
At SMD N 00888000
Ne 0 ""
Po 8.0899 15.1892
$EndPAD
$PAD
Sh "17" R 1.9304 2.032 0 0 900
Dr 0 0 0
At SMD N 00888000
Ne 0 ""
Po 9.4361 11.3538
$EndPAD
$PAD
Sh "18" R 1.9304 2.032 0 0 900
Dr 0 0 0
At SMD N 00888000
Ne 0 ""
Po 9.4361 8.8138
$EndPAD
$PAD
Sh "19" R 1.9304 2.032 0 0 900
Dr 0 0 0
At SMD N 00888000
Ne 0 ""
Po 9.4361 6.2738
$EndPAD
$PAD
Sh "20" R 1.9304 2.032 0 0 900
Dr 0 0 0
At SMD N 00888000
Ne 0 ""
Po 9.4361 3.7338
$EndPAD
$PAD
Sh "21" R 1.9304 2.032 0 0 900
Dr 0 0 0
At SMD N 00888000
Ne 0 ""
Po 9.4361 1.1938
$EndPAD
$PAD
Sh "22" R 1.9304 2.032 0 0 900
Dr 0 0 0
At SMD N 00888000
Ne 0 ""
Po 9.4361 -1.3462
$EndPAD
$PAD
Sh "23" R 1.9304 2.032 0 0 900
Dr 0 0 0
At SMD N 00888000
Ne 0 ""
Po 9.4361 -3.8862
$EndPAD
$PAD
Sh "24" R 1.9304 2.032 0 0 900
Dr 0 0 0
At SMD N 00888000
Ne 0 ""
Po 9.4361 -6.4262
$EndPAD
$PAD
Sh "25" R 1.9304 2.032 0 0 900
Dr 0 0 0
At SMD N 00888000
Ne 0 ""
Po 9.4361 -8.9662
$EndPAD
$PAD
Sh "26" R 1.9304 2.032 0 0 0
Dr 0 0 0
At SMD N 00888000
Ne 0 ""
Po 7.5819 -11.8872
$EndPAD
$PAD
Sh "27" R 1.9304 2.032 0 0 0
Dr 0 0 0
At SMD N 00888000
Ne 0 ""
Po 5.0419 -11.8872
$EndPAD
$PAD
Sh "28" R 1.9304 2.032 0 0 0
Dr 0 0 0
At SMD N 00888000
Ne 0 ""
Po 2.5019 -11.8872
$EndPAD
$PAD
Sh "29" R 1.9304 2.032 0 0 0
Dr 0 0 0
At SMD N 00888000
Ne 0 ""
Po -0.0381 -11.8872
$EndPAD
$PAD
Sh "30" R 1.9304 2.032 0 0 0
Dr 0 0 0
At SMD N 00888000
Ne 0 ""
Po -2.5781 -11.8872
$EndPAD
$PAD
Sh "31" R 1.9304 2.032 0 0 0
Dr 0 0 0
At SMD N 00888000
Ne 0 ""
Po -5.1181 -11.8872
$EndPAD
$PAD
Sh "32" R 1.9304 2.032 0 0 0
Dr 0 0 0
At SMD N 00888000
Ne 0 ""
Po -7.6581 -11.8872
$EndPAD
$PAD
Sh "11" R 1.9304 2.032 0 0 0
Dr 0 0 0
At SMD N 00888000
Ne 0 ""
Po -5.6261 15.1892
$EndPAD
$EndMODULE STX3
$EndLIBRARY
