PCBNEW-LibModule-V1  Fri 16 Oct 2015 03:44:24 PM EDT
# encoding utf-8
Units mm
$INDEX
A2200
$EndINDEX
$MODULE A2200
Po 0 0 0 15 5621538C 00000000 ~~
Li A2200
Sc 0
AR 
Op 0 0 0
T0 2.8801 -8.4386 1 1 0 0.15 N V 21 N "A2200"
T1 -7.43 -7.98 1 1 0 0.15 N V 21 N "Val**"
$PAD
Sh "1" R 1.1 0.88 0 0 0
Dr 0 0 0
At SMD N 00888000
Ne 0 ""
Po -4.4799 -6.3986
$EndPAD
$PAD
Sh "2" R 1.1 0.88 0 0 0
Dr 0 0 0
At SMD N 00888000
Ne 0 ""
Po -4.4799 -5.1286
$EndPAD
$PAD
Sh "3" R 1.1 0.88 0 0 0
Dr 0 0 0
At SMD N 00888000
Ne 0 ""
Po -4.4799 -3.8586
$EndPAD
$PAD
Sh "4" R 1.1 0.88 0 0 0
Dr 0 0 0
At SMD N 00888000
Ne 0 ""
Po -4.4799 -2.5886
$EndPAD
$PAD
Sh "5" R 1.1 0.88 0 0 0
Dr 0 0 0
At SMD N 00888000
Ne 0 ""
Po -4.4799 -1.3186
$EndPAD
$PAD
Sh "6" R 1.1 0.88 0 0 0
Dr 0 0 0
At SMD N 00888000
Ne 0 ""
Po -4.4799 -0.0486
$EndPAD
$PAD
Sh "7" R 1.1 0.88 0 0 0
Dr 0 0 0
At SMD N 00888000
Ne 0 ""
Po -4.4799 1.2214
$EndPAD
$PAD
Sh "8" R 1.1 0.88 0 0 0
Dr 0 0 0
At SMD N 00888000
Ne 0 ""
Po -4.4799 2.4914
$EndPAD
$PAD
Sh "9" R 1.1 0.88 0 0 0
Dr 0 0 0
At SMD N 00888000
Ne 0 ""
Po -4.4799 3.7614
$EndPAD
$PAD
Sh "10" R 1.1 0.88 0 0 0
Dr 0 0 0
At SMD N 00888000
Ne 0 ""
Po -4.4799 5.0314
$EndPAD
$PAD
Sh "11" R 1.1 0.88 0 0 0
Dr 0 0 0
At SMD N 00888000
Ne 0 ""
Po -4.4799 6.3014
$EndPAD
$PAD
Sh "12" R 1.1 0.88 0 0 0
Dr 0 0 0
At SMD N 00888000
Ne 0 ""
Po 4.7201 6.3014
$EndPAD
$PAD
Sh "13" R 1.1 0.88 0 0 0
Dr 0 0 0
At SMD N 00888000
Ne 0 ""
Po 4.7201 5.0314
$EndPAD
$PAD
Sh "14" R 1.1 0.88 0 0 0
Dr 0 0 0
At SMD N 00888000
Ne 0 ""
Po 4.7201 3.7614
$EndPAD
$PAD
Sh "15" R 1.1 0.88 0 0 0
Dr 0 0 0
At SMD N 00888000
Ne 0 ""
Po 4.7201 2.4914
$EndPAD
$PAD
Sh "16" R 1.1 0.88 0 0 0
Dr 0 0 0
At SMD N 00888000
Ne 0 ""
Po 4.7201 1.2214
$EndPAD
$PAD
Sh "17" R 1.1 0.88 0 0 0
Dr 0 0 0
At SMD N 00888000
Ne 0 ""
Po 4.7201 -0.0486
$EndPAD
$PAD
Sh "18" R 1.1 0.88 0 0 0
Dr 0 0 0
At SMD N 00888000
Ne 0 ""
Po 4.7201 -1.3186
$EndPAD
$PAD
Sh "19" R 1.1 0.88 0 0 0
Dr 0 0 0
At SMD N 00888000
Ne 0 ""
Po 4.7201 -2.5886
$EndPAD
$PAD
Sh "20" R 1.1 0.88 0 0 0
Dr 0 0 0
At SMD N 00888000
Ne 0 ""
Po 4.7201 -3.8586
$EndPAD
$PAD
Sh "21" R 1.1 0.88 0 0 0
Dr 0 0 0
At SMD N 00888000
Ne 0 ""
Po 4.7201 -5.1286
$EndPAD
$PAD
Sh "22" R 1.1 0.88 0 0 0
Dr 0 0 0
At SMD N 00888000
Ne 0 ""
Po 4.7201 -6.3986
$EndPAD
$PAD
Sh "6" R 1.32 1.32 0 0 0
Dr 0 0 0
At SMD N 00888000
Ne 0 ""
Po 2.1201 -2.0486
$EndPAD
$PAD
Sh "6" R 1.32 1.32 0 0 0
Dr 0 0 0
At SMD N 00888000
Ne 0 ""
Po 0.1201 -2.0486
$EndPAD
$PAD
Sh "6" R 1.32 1.32 0 0 0
Dr 0 0 0
At SMD N 00888000
Ne 0 ""
Po -1.8799 -2.0486
$EndPAD
$PAD
Sh "6" R 1.32 1.32 0 0 0
Dr 0 0 0
At SMD N 00888000
Ne 0 ""
Po -1.8799 -0.0486
$EndPAD
$PAD
Sh "6" R 1.32 1.32 0 0 0
Dr 0 0 0
At SMD N 00888000
Ne 0 ""
Po 0.1201 -0.0486
$EndPAD
$PAD
Sh "6" R 1.32 1.32 0 0 0
Dr 0 0 0
At SMD N 00888000
Ne 0 ""
Po 2.1201 -0.0486
$EndPAD
$PAD
Sh "6" R 1.32 1.32 0 0 0
Dr 0 0 0
At SMD N 00888000
Ne 0 ""
Po 2.1201 1.9514
$EndPAD
$PAD
Sh "6" R 1.32 1.32 0 0 0
Dr 0 0 0
At SMD N 00888000
Ne 0 ""
Po 0.1201 1.9514
$EndPAD
$PAD
Sh "6" R 1.32 1.32 0 0 0
Dr 0 0 0
At SMD N 00888000
Ne 0 ""
Po -1.8799 1.9514
$EndPAD
$EndMODULE A2200
$EndLIBRARY
