PCBNEW-LibModule-V1  Fri 16 Oct 2015 03:41:21 PM EDT
# encoding utf-8
Units mm
$INDEX
HSWA2-30DR+
$EndINDEX
$MODULE HSWA2-30DR+
Po 0 0 0 15 56212411 00000000 ~~
Li HSWA2-30DR+
Sc 0
AR 
Op 0 0 0
T0 0 -5 1 1 0 0.15 N V 21 N "HSWA2-30DR+"
T1 -10 -5 1 1 0 0.15 N V 21 N "VAL**"
$PAD
Sh "17" R 0.254 0.8128 0 0 0
Dr 0 0 0
At SMD N 00888000
Ne 0 ""
Po 0.50038 -1.8288
$EndPAD
$PAD
Sh "18" R 0.254 0.8128 0 0 0
Dr 0 0 0
At SMD N 00888000
Ne 0 ""
Po -0.00762 -1.8288
$EndPAD
$PAD
Sh "19" R 0.254 0.8128 0 0 0
Dr 0 0 0
At SMD N 00888000
Ne 0 ""
Po -0.51562 -1.8288
$EndPAD
$PAD
Sh "20" R 0.254 0.8128 0 0 0
Dr 0 0 0
At SMD N 00888000
Ne 0 ""
Po -1.02362 -1.8288
$EndPAD
$PAD
Sh "16" R 0.254 0.8128 0 0 0
Dr 0 0 0
At SMD N 00888000
Ne 0 ""
Po 1.00838 -1.8288
$EndPAD
$PAD
Sh "6" R 0.254 0.8128 0 0 0
Dr 0 0 0
At SMD N 00888000
Ne 0 ""
Po -1.02362 1.8288
$EndPAD
$PAD
Sh "7" R 0.254 0.8128 0 0 0
Dr 0 0 0
At SMD N 00888000
Ne 0 ""
Po -0.51562 1.8288
$EndPAD
$PAD
Sh "8" R 0.254 0.8128 0 0 0
Dr 0 0 0
At SMD N 00888000
Ne 0 ""
Po -0.00762 1.8288
$EndPAD
$PAD
Sh "9" R 0.254 0.8128 0 0 0
Dr 0 0 0
At SMD N 00888000
Ne 0 ""
Po 0.50038 1.8288
$EndPAD
$PAD
Sh "10" R 0.254 0.8128 0 0 0
Dr 0 0 0
At SMD N 00888000
Ne 0 ""
Po 1.00838 1.8288
$EndPAD
$PAD
Sh "1" R 0.254 0.8128 0 0 900
Dr 0 0 0
At SMD N 00888000
Ne 0 ""
Po -1.83642 -1.016
$EndPAD
$PAD
Sh "2" R 0.254 0.8128 0 0 900
Dr 0 0 0
At SMD N 00888000
Ne 0 ""
Po -1.83642 -0.508
$EndPAD
$PAD
Sh "3" R 0.254 0.8128 0 0 900
Dr 0 0 0
At SMD N 00888000
Ne 0 ""
Po -1.83642 0
$EndPAD
$PAD
Sh "4" R 0.254 0.8128 0 0 900
Dr 0 0 0
At SMD N 00888000
Ne 0 ""
Po -1.83642 0.508
$EndPAD
$PAD
Sh "5" R 0.254 0.8128 0 0 900
Dr 0 0 0
At SMD N 00888000
Ne 0 ""
Po -1.83642 1.016
$EndPAD
$PAD
Sh "11" R 0.254 0.8128 0 0 900
Dr 0 0 0
At SMD N 00888000
Ne 0 ""
Po 1.82118 1.016
$EndPAD
$PAD
Sh "12" R 0.254 0.8128 0 0 900
Dr 0 0 0
At SMD N 00888000
Ne 0 ""
Po 1.82118 0.508
$EndPAD
$PAD
Sh "13" R 0.254 0.8128 0 0 900
Dr 0 0 0
At SMD N 00888000
Ne 0 ""
Po 1.82118 0
$EndPAD
$PAD
Sh "14" R 0.254 0.8128 0 0 900
Dr 0 0 0
At SMD N 00888000
Ne 0 ""
Po 1.82118 -0.508
$EndPAD
$PAD
Sh "15" R 0.254 0.8128 0 0 900
Dr 0 0 0
At SMD N 00888000
Ne 0 ""
Po 1.82118 -1.016
$EndPAD
$PAD
Sh "19" R 2.0574 2.0574 0 0 0
Dr 0 0 0
At SMD N 00888000
Ne 0 ""
Po -0.00762 0
$EndPAD
$EndMODULE HSWA2-30DR+
$EndLIBRARY
