EESchema Schematic File Version 2
LIBS:power
LIBS:device
LIBS:transistors
LIBS:conn
LIBS:linear
LIBS:regul
LIBS:74xx
LIBS:cmos4000
LIBS:adc-dac
LIBS:memory
LIBS:xilinx
LIBS:special
LIBS:microcontrollers
LIBS:dsp
LIBS:microchip
LIBS:analog_switches
LIBS:motorola
LIBS:texas
LIBS:intel
LIBS:audio
LIBS:interface
LIBS:digital-audio
LIBS:philips
LIBS:display
LIBS:cypress
LIBS:siliconi
LIBS:opto
LIBS:atmel
LIBS:contrib
LIBS:valves
LIBS:drifter
LIBS:prelim_brd-cache
EELAYER 27 0
EELAYER END
$Descr A4 11693 8268
encoding utf-8
Sheet 1 1
Title ""
Date "15 nov 2015"
Rev ""
Comp ""
Comment1 ""
Comment2 ""
Comment3 ""
Comment4 ""
$EndDescr
$Comp
L STX3 MOD1
U 1 1 56216C54
P 7100 3900
F 0 "MOD1" H 7000 3250 60  0000 C CNN
F 1 "STX3" H 7500 3250 60  0000 C CNN
F 2 "~" H 8200 4000 60  0000 C CNN
F 3 "~" H 8200 4000 60  0000 C CNN
F 4 "Satellite modem" H 7250 4550 60  0000 C CNN "Function"
	1    7100 3900
	1    0    0    -1  
$EndComp
$Comp
L CONN_5X2 P1
U 1 1 56216CC3
P 1950 1400
F 0 "P1" H 1950 1700 60  0000 C CNN
F 1 "CONN_5X2" V 1950 1400 50  0000 C CNN
F 2 "~" H 1950 1400 60  0000 C CNN
F 3 "~" H 1950 1400 60  0000 C CNN
	1    1950 1400
	1    0    0    -1  
$EndComp
$Comp
L LMT87 U1
U 1 1 56216DC6
P 3550 1550
F 0 "U1" H 3200 2200 60  0000 C CNN
F 1 "LMT87" H 3500 2200 60  0000 C CNN
F 2 "SC70" H 3500 1700 60  0000 C CNN
F 3 "" H 3300 2200 60  0000 C CNN
F 4 "Temp. sensor" H 3300 1800 60  0000 C CNN "Function"
	1    3550 1550
	0    -1   -1   0   
$EndComp
$Comp
L 24AA64T IC2
U 1 1 5623B93F
P 1900 5600
F 0 "IC2" H 1600 5900 60  0000 C CNN
F 1 "24AA64T" H 1900 5300 60  0000 C CNN
F 2 "SOT23-5" V 2050 5600 60  0000 C CNN
F 3 "~" H 1900 5550 60  0000 C CNN
F 4 "EEPROM" H 1950 5900 60  0000 C CNN "Function"
	1    1900 5600
	-1   0    0    1   
$EndComp
$Comp
L +3.3V #PWR01
U 1 1 5623B9B0
P 4800 5400
F 0 "#PWR01" H 4800 5360 30  0001 C CNN
F 1 "+3.3V" H 4800 5510 30  0000 C CNN
F 2 "" H 4800 5400 60  0000 C CNN
F 3 "" H 4800 5400 60  0000 C CNN
	1    4800 5400
	0    1    1    0   
$EndComp
$Comp
L R R1
U 1 1 5623B9EF
P 4450 5400
F 0 "R1" V 4530 5400 40  0000 C CNN
F 1 "4.7k" V 4457 5401 40  0000 C CNN
F 2 "~" V 4380 5400 30  0000 C CNN
F 3 "~" H 4450 5400 30  0000 C CNN
	1    4450 5400
	0    -1   -1   0   
$EndComp
$Comp
L R R2
U 1 1 5623B9FE
P 4550 5250
F 0 "R2" V 4630 5250 40  0000 C CNN
F 1 "4.7k" V 4557 5251 40  0000 C CNN
F 2 "~" V 4480 5250 30  0000 C CNN
F 3 "~" H 4550 5250 30  0000 C CNN
	1    4550 5250
	0    -1   -1   0   
$EndComp
$Comp
L +3.3V #PWR02
U 1 1 5623BA23
P 700 2250
F 0 "#PWR02" H 700 2210 30  0001 C CNN
F 1 "+3.3V" H 700 2360 30  0000 C CNN
F 2 "" H 700 2250 60  0000 C CNN
F 3 "" H 700 2250 60  0000 C CNN
	1    700  2250
	1    0    0    -1  
$EndComp
$Comp
L GND #PWR03
U 1 1 5623BA5D
P 750 5000
F 0 "#PWR03" H 750 5000 30  0001 C CNN
F 1 "GND" H 750 4930 30  0001 C CNN
F 2 "" H 750 5000 60  0000 C CNN
F 3 "" H 750 5000 60  0000 C CNN
	1    750  5000
	1    0    0    -1  
$EndComp
$Comp
L GND #PWR04
U 1 1 5623BA93
P 8000 4550
F 0 "#PWR04" H 8000 4550 30  0001 C CNN
F 1 "GND" H 8000 4480 30  0001 C CNN
F 2 "" H 8000 4550 60  0000 C CNN
F 3 "" H 8000 4550 60  0000 C CNN
	1    8000 4550
	1    0    0    -1  
$EndComp
$Comp
L PA45-1615-1575SA ANT1
U 1 1 5622D597
P 7100 2450
F 0 "ANT1" H 6850 2600 60  0000 C CNN
F 1 "PA45-1615-1575SA" H 7000 2300 60  0000 C CNN
F 2 "" H 6600 2500 60  0000 C CNN
F 3 "" H 7100 2450 60  0000 C CNN
F 4 "antenna" H 7250 2600 60  0000 C CNN "Function"
	1    7100 2450
	1    0    0    -1  
$EndComp
$Comp
L GND #PWR05
U 1 1 5623C1C4
P 3100 2300
F 0 "#PWR05" H 3100 2300 30  0001 C CNN
F 1 "GND" H 3100 2230 30  0001 C CNN
F 2 "" H 3100 2300 60  0000 C CNN
F 3 "" H 3100 2300 60  0000 C CNN
	1    3100 2300
	1    0    0    -1  
$EndComp
$Comp
L +3.3V #PWR06
U 1 1 5623C2D8
P 2500 5500
F 0 "#PWR06" H 2500 5460 30  0001 C CNN
F 1 "+3.3V" H 2500 5610 30  0000 C CNN
F 2 "" H 2500 5500 60  0000 C CNN
F 3 "" H 2500 5500 60  0000 C CNN
	1    2500 5500
	0    1    1    0   
$EndComp
$Comp
L GND #PWR07
U 1 1 5623C37D
P 3500 6100
F 0 "#PWR07" H 3500 6100 30  0001 C CNN
F 1 "GND" H 3500 6030 30  0001 C CNN
F 2 "" H 3500 6100 60  0000 C CNN
F 3 "" H 3500 6100 60  0000 C CNN
	1    3500 6100
	-1   0    0    1   
$EndComp
$Comp
L +3.3V #PWR08
U 1 1 5623C49D
P 3300 6100
F 0 "#PWR08" H 3300 6060 30  0001 C CNN
F 1 "+3.3V" H 3300 6210 30  0000 C CNN
F 2 "" H 3300 6100 60  0000 C CNN
F 3 "" H 3300 6100 60  0000 C CNN
	1    3300 6100
	1    0    0    -1  
$EndComp
$Comp
L +3.3V #PWR09
U 1 1 5623C545
P 3050 1000
F 0 "#PWR09" H 3050 960 30  0001 C CNN
F 1 "+3.3V" H 3050 1110 30  0000 C CNN
F 2 "" H 3050 1000 60  0000 C CNN
F 3 "" H 3050 1000 60  0000 C CNN
	1    3050 1000
	0    -1   -1   0   
$EndComp
$Comp
L GND #PWR010
U 1 1 5623C597
P 2900 1100
F 0 "#PWR010" H 2900 1100 30  0001 C CNN
F 1 "GND" H 2900 1030 30  0001 C CNN
F 2 "" H 2900 1100 60  0000 C CNN
F 3 "" H 2900 1100 60  0000 C CNN
	1    2900 1100
	0    1    1    0   
$EndComp
$Comp
L R R3
U 1 1 5623D8B1
P 5600 1850
F 0 "R3" V 5680 1850 40  0000 C CNN
F 1 "4.7k" V 5607 1851 40  0000 C CNN
F 2 "~" V 5530 1850 30  0000 C CNN
F 3 "~" H 5600 1850 30  0000 C CNN
	1    5600 1850
	-1   0    0    1   
$EndComp
$Comp
L +3.3V #PWR011
U 1 1 5623DA86
P 5750 1550
F 0 "#PWR011" H 5750 1510 30  0001 C CNN
F 1 "+3.3V" H 5750 1660 30  0000 C CNN
F 2 "" H 5750 1550 60  0000 C CNN
F 3 "" H 5750 1550 60  0000 C CNN
	1    5750 1550
	1    0    0    -1  
$EndComp
$Comp
L RXM-GPS-RM MOD2
U 1 1 563ACDF1
P 7200 1700
F 0 "MOD2" H 7000 1600 60  0000 C CNN
F 1 "RXM-GPS-RM" H 7200 1700 60  0000 C CNN
F 2 "" H 7200 1700 60  0000 C CNN
F 3 "" H 7200 1700 60  0000 C CNN
	1    7200 1700
	1    0    0    -1  
$EndComp
$Comp
L SN74LVC1G3157 IC4
U 1 1 563AD043
P 4850 2350
F 0 "IC4" H 4650 2550 60  0000 C CNN
F 1 "SN74LVC1G3157" H 4850 2150 60  0000 C CNN
F 2 "" H 4850 1800 60  0000 C CNN
F 3 "" H 4850 1800 60  0000 C CNN
	1    4850 2350
	-1   0    0    1   
$EndComp
$Comp
L SN74LVC1G3157 IC6
U 1 1 563AD064
P 4850 2850
F 0 "IC6" H 4650 3050 60  0000 C CNN
F 1 "SN74LVC1G3157" H 4850 2650 60  0000 C CNN
F 2 "" H 4850 2300 60  0000 C CNN
F 3 "" H 4850 2300 60  0000 C CNN
	1    4850 2850
	-1   0    0    1   
$EndComp
$Comp
L +3.3V #PWR012
U 1 1 563AD06A
P 4300 2350
F 0 "#PWR012" H 4300 2310 30  0001 C CNN
F 1 "+3.3V" H 4300 2460 30  0000 C CNN
F 2 "" H 4300 2350 60  0000 C CNN
F 3 "" H 4300 2350 60  0000 C CNN
	1    4300 2350
	0    -1   -1   0   
$EndComp
$Comp
L +3.3V #PWR013
U 1 1 563AD070
P 4300 2850
F 0 "#PWR013" H 4300 2810 30  0001 C CNN
F 1 "+3.3V" H 4300 2960 30  0000 C CNN
F 2 "" H 4300 2850 60  0000 C CNN
F 3 "" H 4300 2850 60  0000 C CNN
	1    4300 2850
	0    -1   -1   0   
$EndComp
$Comp
L GND #PWR014
U 1 1 563AD183
P 5450 2850
F 0 "#PWR014" H 5450 2850 30  0001 C CNN
F 1 "GND" H 5450 2780 30  0001 C CNN
F 2 "" H 5450 2850 60  0000 C CNN
F 3 "" H 5450 2850 60  0000 C CNN
	1    5450 2850
	0    -1   -1   0   
$EndComp
$Comp
L GND #PWR015
U 1 1 563AD189
P 5450 2350
F 0 "#PWR015" H 5450 2350 30  0001 C CNN
F 1 "GND" H 5450 2280 30  0001 C CNN
F 2 "" H 5450 2350 60  0000 C CNN
F 3 "" H 5450 2350 60  0000 C CNN
	1    5450 2350
	0    -1   -1   0   
$EndComp
$Comp
L GND #PWR016
U 1 1 563ADBDA
P 8300 1100
F 0 "#PWR016" H 8300 1100 30  0001 C CNN
F 1 "GND" H 8300 1030 30  0001 C CNN
F 2 "" H 8300 1100 60  0000 C CNN
F 3 "" H 8300 1100 60  0000 C CNN
	1    8300 1100
	1    0    0    -1  
$EndComp
$Comp
L R R5
U 1 1 5623D8AB
P 5750 1850
F 0 "R5" V 5830 1850 40  0000 C CNN
F 1 "4.7k" V 5757 1851 40  0000 C CNN
F 2 "~" V 5680 1850 30  0000 C CNN
F 3 "~" H 5750 1850 30  0000 C CNN
	1    5750 1850
	-1   0    0    1   
$EndComp
$Comp
L R R4
U 1 1 563AE55C
P 5600 3300
F 0 "R4" V 5680 3300 40  0000 C CNN
F 1 "4.7k" V 5607 3301 40  0000 C CNN
F 2 "~" V 5530 3300 30  0000 C CNN
F 3 "~" H 5600 3300 30  0000 C CNN
	1    5600 3300
	-1   0    0    1   
$EndComp
$Comp
L R R6
U 1 1 563AE562
P 5750 3300
F 0 "R6" V 5830 3300 40  0000 C CNN
F 1 "4.7k" V 5757 3301 40  0000 C CNN
F 2 "~" V 5680 3300 30  0000 C CNN
F 3 "~" H 5750 3300 30  0000 C CNN
	1    5750 3300
	-1   0    0    1   
$EndComp
$Comp
L +3.3V #PWR017
U 1 1 563AE7C2
P 5750 3650
F 0 "#PWR017" H 5750 3610 30  0001 C CNN
F 1 "+3.3V" H 5750 3760 30  0000 C CNN
F 2 "" H 5750 3650 60  0000 C CNN
F 3 "" H 5750 3650 60  0000 C CNN
	1    5750 3650
	-1   0    0    1   
$EndComp
$Comp
L +3.3V #PWR018
U 1 1 563AEBDE
P 8800 1600
F 0 "#PWR018" H 8800 1560 30  0001 C CNN
F 1 "+3.3V" H 8800 1710 30  0000 C CNN
F 2 "" H 8800 1600 60  0000 C CNN
F 3 "" H 8800 1600 60  0000 C CNN
	1    8800 1600
	0    1    1    0   
$EndComp
$Comp
L C C1
U 1 1 563AEDB9
P 3000 6150
F 0 "C1" H 3000 6250 40  0000 L CNN
F 1 "C" H 3006 6065 40  0000 L CNN
F 2 "~" H 3038 6000 30  0000 C CNN
F 3 "~" H 3000 6150 60  0000 C CNN
	1    3000 6150
	0    -1   -1   0   
$EndComp
$Comp
L GND #PWR019
U 1 1 563AEE7A
P 2800 6200
F 0 "#PWR019" H 2800 6200 30  0001 C CNN
F 1 "GND" H 2800 6130 30  0001 C CNN
F 2 "" H 2800 6200 60  0000 C CNN
F 3 "" H 2800 6200 60  0000 C CNN
	1    2800 6200
	1    0    0    -1  
$EndComp
$Comp
L C C2
U 1 1 563AEF46
P 4450 6100
F 0 "C2" H 4450 6200 40  0000 L CNN
F 1 "C" H 4456 6015 40  0000 L CNN
F 2 "~" H 4488 5950 30  0000 C CNN
F 3 "~" H 4450 6100 60  0000 C CNN
	1    4450 6100
	0    -1   -1   0   
$EndComp
$Comp
L GND #PWR020
U 1 1 563AF013
P 4650 6150
F 0 "#PWR020" H 4650 6150 30  0001 C CNN
F 1 "GND" H 4650 6080 30  0001 C CNN
F 2 "" H 4650 6150 60  0000 C CNN
F 3 "" H 4650 6150 60  0000 C CNN
	1    4650 6150
	1    0    0    -1  
$EndComp
$Comp
L GND #PWR021
U 1 1 563AF1AA
P 2500 5700
F 0 "#PWR021" H 2500 5700 30  0001 C CNN
F 1 "GND" H 2500 5630 30  0001 C CNN
F 2 "" H 2500 5700 60  0000 C CNN
F 3 "" H 2500 5700 60  0000 C CNN
	1    2500 5700
	0    -1   -1   0   
$EndComp
$Comp
L GND #PWR022
U 1 1 563AF2EC
P 2500 5400
F 0 "#PWR022" H 2500 5400 30  0001 C CNN
F 1 "GND" H 2500 5330 30  0001 C CNN
F 2 "" H 2500 5400 60  0000 C CNN
F 3 "" H 2500 5400 60  0000 C CNN
	1    2500 5400
	0    -1   -1   0   
$EndComp
NoConn ~ 750  4000
NoConn ~ 6650 4350
NoConn ~ 6650 4250
NoConn ~ 6650 4150
NoConn ~ 6650 4050
NoConn ~ 6650 3750
NoConn ~ 6550 1100
NoConn ~ 6550 1400
NoConn ~ 8150 1700
$Comp
L BSS316N Q2
U 1 1 56487E1B
P 8500 1700
F 0 "Q2" H 8500 1551 40  0000 R CNN
F 1 "BSS316N" H 8500 1850 40  0000 R CNN
F 2 "SOT-23" H 8370 1802 29  0000 C CNN
F 3 "~" H 8500 1700 60  0000 C CNN
	1    8500 1700
	0    1    -1   0   
$EndComp
$Comp
L BSS316N Q1
U 1 1 564883C6
P 6050 4800
F 0 "Q1" H 6050 4651 40  0000 R CNN
F 1 "BSS316N" H 6050 4950 40  0000 R CNN
F 2 "SOT-23" H 5920 4902 29  0000 C CNN
F 3 "~" H 6050 4800 60  0000 C CNN
	1    6050 4800
	1    0    0    1   
$EndComp
$Comp
L +3.3V #PWR023
U 1 1 564884EE
P 6150 5100
F 0 "#PWR023" H 6150 5060 30  0001 C CNN
F 1 "+3.3V" H 6150 5210 30  0000 C CNN
F 2 "" H 6150 5100 60  0000 C CNN
F 3 "" H 6150 5100 60  0000 C CNN
	1    6150 5100
	-1   0    0    1   
$EndComp
Text Label 2800 2750 0    60   ~ 0
gps_power
Text Label 8450 2050 0    60   ~ 0
gps_power
$Comp
L MMA8452Q IC3
U 1 1 56488B3C
P 3600 6700
F 0 "IC3" H 3350 7450 60  0000 C CNN
F 1 "MMA8452Q" H 3650 6250 60  0000 C CNN
F 2 "16-QFN" H 3700 7450 60  0000 C CNN
F 3 "~" H 3600 6700 60  0000 C CNN
F 4 "accelerometer" V 3800 6900 60  0000 C CNN "Function"
	1    3600 6700
	0    1    1    0   
$EndComp
$Comp
L CONN_4 P2
U 1 1 5648900D
P 3500 1150
F 0 "P2" V 3450 1150 50  0000 C CNN
F 1 "CONN_4" V 3550 1150 50  0000 C CNN
F 2 "~" H 3500 1150 60  0000 C CNN
F 3 "~" H 3500 1150 60  0000 C CNN
	1    3500 1150
	1    0    0    -1  
$EndComp
Text Label 2700 1200 0    60   ~ 0
power_adc1
Text Label 2700 1300 0    60   ~ 0
power_adc2
NoConn ~ 750  3900
Text Label 2750 3600 0    60   ~ 0
power_adc1
Text Label 2750 3700 0    60   ~ 0
power_adc2
Text Label 1450 1200 0    60   ~ 0
MOSI
Wire Wire Line
	2650 3800 3950 3800
Wire Wire Line
	3950 3800 3950 6150
Wire Wire Line
	2400 5600 3950 5600
Connection ~ 3950 5600
Wire Wire Line
	4050 3900 4050 6150
Wire Wire Line
	4050 3900 2650 3900
Wire Wire Line
	2400 5800 4050 5800
Connection ~ 4050 5800
Wire Wire Line
	4800 5250 4800 5400
Wire Wire Line
	4800 5400 4700 5400
Wire Wire Line
	700  2250 700  3150
Wire Wire Line
	700  2550 750  2550
Wire Wire Line
	700  2650 750  2650
Connection ~ 700  2550
Wire Wire Line
	700  2850 750  2850
Connection ~ 700  2650
Wire Wire Line
	750  4650 750  5000
Wire Wire Line
	2650 4150 3800 4150
Wire Wire Line
	3800 4150 3800 2250
Wire Wire Line
	3800 2250 4350 2250
Wire Wire Line
	2650 4250 3900 4250
Wire Wire Line
	6450 3650 6650 3650
Wire Wire Line
	3100 2150 3100 2300
Wire Wire Line
	3000 2150 3000 2550
Wire Wire Line
	3200 2150 3200 3400
Wire Wire Line
	2400 5500 2500 5500
Wire Wire Line
	3450 6150 3550 6150
Wire Wire Line
	3500 6100 3500 6150
Connection ~ 3500 6150
Wire Wire Line
	3200 6150 3350 6150
Wire Wire Line
	3300 6100 3300 6150
Connection ~ 3300 6150
Wire Wire Line
	3050 1000 3150 1000
Wire Wire Line
	2900 1100 3150 1100
Wire Wire Line
	4200 5400 3950 5400
Connection ~ 3950 5400
Wire Wire Line
	4300 5250 4050 5250
Connection ~ 4050 5250
Wire Wire Line
	8000 3350 8000 4550
Wire Wire Line
	8000 3350 7900 3350
Wire Wire Line
	7900 3450 8000 3450
Connection ~ 8000 3450
Wire Wire Line
	7900 3550 8000 3550
Connection ~ 8000 3550
Wire Wire Line
	7900 3650 8000 3650
Connection ~ 8000 3650
Wire Wire Line
	7900 3750 8000 3750
Connection ~ 8000 3750
Wire Wire Line
	7900 3850 8000 3850
Connection ~ 8000 3850
Wire Wire Line
	7900 3950 8000 3950
Connection ~ 8000 3950
Wire Wire Line
	7900 4050 8000 4050
Connection ~ 8000 4050
Wire Wire Line
	7900 4150 8000 4150
Connection ~ 8000 4150
Wire Wire Line
	7900 4250 8000 4250
Connection ~ 8000 4250
Wire Wire Line
	7900 4350 8000 4350
Connection ~ 8000 4350
Wire Wire Line
	7900 4450 8000 4450
Connection ~ 8000 4450
Connection ~ 6450 2450
Wire Wire Line
	4350 2850 4300 2850
Wire Wire Line
	4300 2350 4350 2350
Wire Wire Line
	5400 2850 5450 2850
Wire Wire Line
	5400 2350 5450 2350
Wire Wire Line
	3900 4250 3900 2750
Wire Wire Line
	3900 2750 4350 2750
Wire Wire Line
	4000 4850 2650 4850
Wire Wire Line
	4000 2450 4000 4850
Wire Wire Line
	4000 2450 4350 2450
Wire Wire Line
	4350 2950 4000 2950
Connection ~ 4000 2950
Wire Wire Line
	6450 1500 6450 3650
Wire Wire Line
	6450 1500 6550 1500
Wire Wire Line
	5850 1200 6550 1200
Wire Wire Line
	5850 2250 5850 1200
Wire Wire Line
	5400 2450 6350 2450
Wire Wire Line
	6350 2450 6350 3850
Wire Wire Line
	6350 3850 6650 3850
Wire Wire Line
	5400 2750 6050 2750
Wire Wire Line
	6050 2750 6050 1300
Wire Wire Line
	6050 1300 6550 1300
Wire Wire Line
	5750 1550 5750 1600
Wire Wire Line
	5750 1600 5600 1600
Wire Wire Line
	5400 2250 5850 2250
Wire Wire Line
	5750 2100 5750 2450
Connection ~ 5750 2450
Wire Wire Line
	5600 2100 5600 2250
Connection ~ 5600 2250
Wire Wire Line
	6650 3950 6250 3950
Wire Wire Line
	6250 3950 6250 2950
Wire Wire Line
	6250 2950 5400 2950
Wire Wire Line
	5600 3050 5600 2750
Connection ~ 5600 2750
Wire Wire Line
	5750 3050 5750 2950
Connection ~ 5750 2950
Wire Wire Line
	5750 3650 5750 3550
Wire Wire Line
	5750 3550 5600 3550
Wire Wire Line
	5950 3350 5950 4550
Wire Wire Line
	5950 3350 6650 3350
Wire Wire Line
	6050 3450 6050 4650
Wire Wire Line
	6050 3450 6650 3450
Wire Wire Line
	8150 1050 8150 1400
Wire Wire Line
	8150 1050 8300 1050
Wire Wire Line
	8300 1050 8300 1100
Wire Wire Line
	8150 1500 8150 1600
Connection ~ 3250 6150
Wire Wire Line
	2800 6150 2800 6200
Wire Wire Line
	4250 6100 4250 6150
Wire Wire Line
	4650 6150 4650 6100
Wire Wire Line
	2400 5700 2500 5700
Wire Wire Line
	2400 5400 2500 5400
Connection ~ 8150 1300
Connection ~ 8150 1200
Connection ~ 8150 1100
Connection ~ 7900 4350
Connection ~ 750  4850
Connection ~ 750  4750
Connection ~ 750  2550
Wire Wire Line
	3850 2650 3850 6150
Connection ~ 3350 6150
Connection ~ 3550 6150
Connection ~ 3450 6150
Wire Wire Line
	700  3150 750  3150
Connection ~ 700  2850
Wire Wire Line
	6750 2450 6450 2450
Wire Wire Line
	8150 1600 8300 1600
Wire Wire Line
	8800 1600 8700 1600
Wire Wire Line
	6650 3550 6150 3550
Wire Wire Line
	6150 3550 6150 4600
Wire Wire Line
	6650 4450 6150 4450
Connection ~ 6150 4450
Wire Wire Line
	6150 5000 6150 5000
Wire Wire Line
	2650 4750 5850 4750
Wire Wire Line
	6050 4650 2650 4650
Wire Wire Line
	5950 4550 2650 4550
Wire Wire Line
	2650 2750 2800 2750
Wire Wire Line
	8450 1900 8450 2050
Wire Wire Line
	2650 4350 3750 4350
Wire Wire Line
	3750 4350 3750 6150
Wire Wire Line
	2650 4450 3650 4450
Wire Wire Line
	3650 4450 3650 6150
Wire Wire Line
	3150 1200 2700 1200
Wire Wire Line
	3150 1300 2700 1300
Wire Wire Line
	3000 2550 2650 2550
Wire Wire Line
	3200 3400 2650 3400
Connection ~ 3050 1000
Connection ~ 750  4650
Connection ~ 750  2650
Connection ~ 8300 1100
Wire Wire Line
	6150 5000 6150 5100
Connection ~ 6150 5100
Connection ~ 4300 2350
Connection ~ 750  5000
Connection ~ 2900 1100
Connection ~ 2500 5700
Connection ~ 4300 2850
Connection ~ 3300 6100
Connection ~ 5750 3650
Wire Wire Line
	1550 1200 1450 1200
NoConn ~ 1550 1300
Wire Wire Line
	1550 1400 1450 1400
Text Label 1450 1400 0    60   ~ 0
RST
Wire Wire Line
	1550 1500 1450 1500
Text Label 1450 1500 0    60   ~ 0
SLK
Wire Wire Line
	1550 1600 1450 1600
Text Label 1450 1600 0    60   ~ 0
MISO
Wire Wire Line
	2350 1300 2350 1650
$Comp
L GND #PWR?
U 1 1 56489D2E
P 2350 1650
F 0 "#PWR?" H 2350 1650 30  0001 C CNN
F 1 "GND" H 2350 1580 30  0001 C CNN
F 2 "" H 2350 1650 60  0000 C CNN
F 3 "" H 2350 1650 60  0000 C CNN
	1    2350 1650
	1    0    0    -1  
$EndComp
$Comp
L +3.3V #PWR?
U 1 1 56489D3B
P 2350 1100
F 0 "#PWR?" H 2350 1060 30  0001 C CNN
F 1 "+3.3V" H 2350 1210 30  0000 C CNN
F 2 "" H 2350 1100 60  0000 C CNN
F 3 "" H 2350 1100 60  0000 C CNN
	1    2350 1100
	1    0    0    -1  
$EndComp
Wire Wire Line
	2350 1100 2350 1200
$Comp
L ATMEGA328P-A IC1
U 1 1 56216CD2
P 1650 3650
F 0 "IC1" H 900 4900 40  0000 L BNN
F 1 "ATMEGA328P-A" H 2050 2250 40  0000 L BNN
F 2 "TQFP32" H 1650 3650 30  0000 C CIN
F 3 "~" H 1650 3650 60  0000 C CNN
F 4 "Microcontroller" H 1200 2250 60  0000 C CNN "Function"
	1    1650 3650
	1    0    0    -1  
$EndComp
NoConn ~ 2650 3250
NoConn ~ 2650 3150
Wire Wire Line
	2650 4000 2950 4000
Text Label 2950 4000 0    60   ~ 0
RST
Wire Wire Line
	2650 2850 2800 2850
Text Label 2800 2850 0    60   ~ 0
MOSI
Wire Wire Line
	2650 2950 2800 2950
Wire Wire Line
	2650 3050 2800 3050
Text Label 2800 3050 0    60   ~ 0
SCK
Text Label 2800 2950 0    60   ~ 0
MISO
Wire Wire Line
	2650 3600 2750 3600
Wire Wire Line
	2650 3700 2750 3700
NoConn ~ 2650 3500
Wire Wire Line
	2650 2650 3850 2650
$EndSCHEMATC
